%!PS-Adobe-3.0 EPSF-3.0
%%Creator: (MATLAB, The Mathworks, Inc. Version 9.0.0.341360 \(R2016a\). Operating System: Mac OS X)
%%Title: ./GridConvergence_Q_ThetaGeometricSeries.eps
%%CreationDate: 2016-05-30T14:10:20
%%Pages: (atend)
%%BoundingBox:   136    34  1315   687
%%LanguageLevel: 2
%%EndComments
%%BeginProlog
%%BeginResource: procset (Apache XML Graphics Std ProcSet) 1.2 0
%%Version: 1.2 0
%%Copyright: (Copyright 2001-2003,2010 The Apache Software Foundation. License terms: http://www.apache.org/licenses/LICENSE-2.0)
/bd{bind def}bind def
/ld{load def}bd
/GR/grestore ld
/M/moveto ld
/LJ/setlinejoin ld
/C/curveto ld
/f/fill ld
/LW/setlinewidth ld
/GC/setgray ld
/t/show ld
/N/newpath ld
/CT/concat ld
/cp/closepath ld
/S/stroke ld
/L/lineto ld
/CC/setcmykcolor ld
/A/ashow ld
/GS/gsave ld
/RC/setrgbcolor ld
/RM/rmoveto ld
/ML/setmiterlimit ld
/re {4 2 roll M
1 index 0 rlineto
0 exch rlineto
neg 0 rlineto
cp } bd
/_ctm matrix def
/_tm matrix def
/BT { _ctm currentmatrix pop matrix _tm copy pop 0 0 moveto } bd
/ET { _ctm setmatrix } bd
/iTm { _ctm setmatrix _tm concat } bd
/Tm { _tm astore pop iTm 0 0 moveto } bd
/ux 0.0 def
/uy 0.0 def
/F {
  /Tp exch def
  /Tf exch def
  Tf findfont Tp scalefont setfont
  /cf Tf def  /cs Tp def
} bd
/ULS {currentpoint /uy exch def /ux exch def} bd
/ULE {
  /Tcx currentpoint pop def
  gsave
  newpath
  cf findfont cs scalefont dup
  /FontMatrix get 0 get /Ts exch def /FontInfo get dup
  /UnderlinePosition get Ts mul /To exch def
  /UnderlineThickness get Ts mul /Tt exch def
  ux uy To add moveto  Tcx uy To add lineto
  Tt setlinewidth stroke
  grestore
} bd
/OLE {
  /Tcx currentpoint pop def
  gsave
  newpath
  cf findfont cs scalefont dup
  /FontMatrix get 0 get /Ts exch def /FontInfo get dup
  /UnderlinePosition get Ts mul /To exch def
  /UnderlineThickness get Ts mul /Tt exch def
  ux uy To add cs add moveto Tcx uy To add cs add lineto
  Tt setlinewidth stroke
  grestore
} bd
/SOE {
  /Tcx currentpoint pop def
  gsave
  newpath
  cf findfont cs scalefont dup
  /FontMatrix get 0 get /Ts exch def /FontInfo get dup
  /UnderlinePosition get Ts mul /To exch def
  /UnderlineThickness get Ts mul /Tt exch def
  ux uy To add cs 10 mul 26 idiv add moveto Tcx uy To add cs 10 mul 26 idiv add lineto
  Tt setlinewidth stroke
  grestore
} bd
/QT {
/Y22 exch store
/X22 exch store
/Y21 exch store
/X21 exch store
currentpoint
/Y21 load 2 mul add 3 div exch
/X21 load 2 mul add 3 div exch
/X21 load 2 mul /X22 load add 3 div
/Y21 load 2 mul /Y22 load add 3 div
/X22 load /Y22 load curveto
} bd
/SSPD {
dup length /d exch dict def
{
/v exch def
/k exch def
currentpagedevice k known {
/cpdv currentpagedevice k get def
v cpdv ne {
/upd false def
/nullv v type /nulltype eq def
/nullcpdv cpdv type /nulltype eq def
nullv nullcpdv or
{
/upd true def
} {
/sametype v type cpdv type eq def
sametype {
v type /arraytype eq {
/vlen v length def
/cpdvlen cpdv length def
vlen cpdvlen eq {
0 1 vlen 1 sub {
/i exch def
/obj v i get def
/cpdobj cpdv i get def
obj cpdobj ne {
/upd true def
exit
} if
} for
} {
/upd true def
} ifelse
} {
v type /dicttype eq {
v {
/dv exch def
/dk exch def
/cpddv cpdv dk get def
dv cpddv ne {
/upd true def
exit
} if
} forall
} {
/upd true def
} ifelse
} ifelse
} if
} ifelse
upd true eq {
d k v put
} if
} if
} if
} forall
d length 0 gt {
d setpagedevice
} if
} bd
%%EndResource
%%BeginResource: procset (Apache XML Graphics EPS ProcSet) 1.0 0
%%Version: 1.0 0
%%Copyright: (Copyright 2002-2003 The Apache Software Foundation. License terms: http://www.apache.org/licenses/LICENSE-2.0)
/BeginEPSF { %def
/b4_Inc_state save def         % Save state for cleanup
/dict_count countdictstack def % Count objects on dict stack
/op_count count 1 sub def      % Count objects on operand stack
userdict begin                 % Push userdict on dict stack
/showpage { } def              % Redefine showpage, { } = null proc
0 setgray 0 setlinecap         % Prepare graphics state
1 setlinewidth 0 setlinejoin
10 setmiterlimit [ ] 0 setdash newpath
/languagelevel where           % If level not equal to 1 then
{pop languagelevel             % set strokeadjust and
1 ne                           % overprint to their defaults.
{false setstrokeadjust false setoverprint
} if
} if
} bd
/EndEPSF { %def
count op_count sub {pop} repeat            % Clean up stacks
countdictstack dict_count sub {end} repeat
b4_Inc_state restore
} bd
%%EndResource
%FOPBeginFontDict
%%IncludeResource: font Courier-Bold
%%IncludeResource: font Helvetica
%%IncludeResource: font Courier-BoldOblique
%%IncludeResource: font Courier-Oblique
%%IncludeResource: font Times-Roman
%%IncludeResource: font Helvetica-BoldOblique
%%IncludeResource: font Helvetica-Bold
%%IncludeResource: font Helvetica-Oblique
%%IncludeResource: font Times-BoldItalic
%%IncludeResource: font Courier
%%IncludeResource: font Times-Italic
%%IncludeResource: font Times-Bold
%%IncludeResource: font Symbol
%%IncludeResource: font ZapfDingbats
%FOPEndFontDict
%%BeginResource: encoding WinAnsiEncoding
/WinAnsiEncoding [
/.notdef /.notdef /.notdef /.notdef /.notdef
/.notdef /.notdef /.notdef /.notdef /.notdef
/.notdef /.notdef /.notdef /.notdef /.notdef
/.notdef /.notdef /.notdef /.notdef /.notdef
/.notdef /.notdef /.notdef /.notdef /.notdef
/.notdef /.notdef /.notdef /.notdef /.notdef
/.notdef /.notdef /space /exclam /quotedbl
/numbersign /dollar /percent /ampersand /quotesingle
/parenleft /parenright /asterisk /plus /comma
/hyphen /period /slash /zero /one
/two /three /four /five /six
/seven /eight /nine /colon /semicolon
/less /equal /greater /question /at
/A /B /C /D /E
/F /G /H /I /J
/K /L /M /N /O
/P /Q /R /S /T
/U /V /W /X /Y
/Z /bracketleft /backslash /bracketright /asciicircum
/underscore /quoteleft /a /b /c
/d /e /f /g /h
/i /j /k /l /m
/n /o /p /q /r
/s /t /u /v /w
/x /y /z /braceleft /bar
/braceright /asciitilde /bullet /Euro /bullet
/quotesinglbase /florin /quotedblbase /ellipsis /dagger
/daggerdbl /circumflex /perthousand /Scaron /guilsinglleft
/OE /bullet /Zcaron /bullet /bullet
/quoteleft /quoteright /quotedblleft /quotedblright /bullet
/endash /emdash /asciitilde /trademark /scaron
/guilsinglright /oe /bullet /zcaron /Ydieresis
/space /exclamdown /cent /sterling /currency
/yen /brokenbar /section /dieresis /copyright
/ordfeminine /guillemotleft /logicalnot /sfthyphen /registered
/macron /degree /plusminus /twosuperior /threesuperior
/acute /mu /paragraph /middot /cedilla
/onesuperior /ordmasculine /guillemotright /onequarter /onehalf
/threequarters /questiondown /Agrave /Aacute /Acircumflex
/Atilde /Adieresis /Aring /AE /Ccedilla
/Egrave /Eacute /Ecircumflex /Edieresis /Igrave
/Iacute /Icircumflex /Idieresis /Eth /Ntilde
/Ograve /Oacute /Ocircumflex /Otilde /Odieresis
/multiply /Oslash /Ugrave /Uacute /Ucircumflex
/Udieresis /Yacute /Thorn /germandbls /agrave
/aacute /acircumflex /atilde /adieresis /aring
/ae /ccedilla /egrave /eacute /ecircumflex
/edieresis /igrave /iacute /icircumflex /idieresis
/eth /ntilde /ograve /oacute /ocircumflex
/otilde /odieresis /divide /oslash /ugrave
/uacute /ucircumflex /udieresis /yacute /thorn
/ydieresis
] def
%%EndResource
%FOPBeginFontReencode
/Courier-Bold findfont
dup length dict begin
  {1 index /FID ne {def} {pop pop} ifelse} forall
  /Encoding WinAnsiEncoding def
  currentdict
end
/Courier-Bold exch definefont pop
/Helvetica findfont
dup length dict begin
  {1 index /FID ne {def} {pop pop} ifelse} forall
  /Encoding WinAnsiEncoding def
  currentdict
end
/Helvetica exch definefont pop
/Courier-BoldOblique findfont
dup length dict begin
  {1 index /FID ne {def} {pop pop} ifelse} forall
  /Encoding WinAnsiEncoding def
  currentdict
end
/Courier-BoldOblique exch definefont pop
/Courier-Oblique findfont
dup length dict begin
  {1 index /FID ne {def} {pop pop} ifelse} forall
  /Encoding WinAnsiEncoding def
  currentdict
end
/Courier-Oblique exch definefont pop
/Times-Roman findfont
dup length dict begin
  {1 index /FID ne {def} {pop pop} ifelse} forall
  /Encoding WinAnsiEncoding def
  currentdict
end
/Times-Roman exch definefont pop
/Helvetica-BoldOblique findfont
dup length dict begin
  {1 index /FID ne {def} {pop pop} ifelse} forall
  /Encoding WinAnsiEncoding def
  currentdict
end
/Helvetica-BoldOblique exch definefont pop
/Helvetica-Bold findfont
dup length dict begin
  {1 index /FID ne {def} {pop pop} ifelse} forall
  /Encoding WinAnsiEncoding def
  currentdict
end
/Helvetica-Bold exch definefont pop
/Helvetica-Oblique findfont
dup length dict begin
  {1 index /FID ne {def} {pop pop} ifelse} forall
  /Encoding WinAnsiEncoding def
  currentdict
end
/Helvetica-Oblique exch definefont pop
/Times-BoldItalic findfont
dup length dict begin
  {1 index /FID ne {def} {pop pop} ifelse} forall
  /Encoding WinAnsiEncoding def
  currentdict
end
/Times-BoldItalic exch definefont pop
/Courier findfont
dup length dict begin
  {1 index /FID ne {def} {pop pop} ifelse} forall
  /Encoding WinAnsiEncoding def
  currentdict
end
/Courier exch definefont pop
/Times-Italic findfont
dup length dict begin
  {1 index /FID ne {def} {pop pop} ifelse} forall
  /Encoding WinAnsiEncoding def
  currentdict
end
/Times-Italic exch definefont pop
/Times-Bold findfont
dup length dict begin
  {1 index /FID ne {def} {pop pop} ifelse} forall
  /Encoding WinAnsiEncoding def
  currentdict
end
/Times-Bold exch definefont pop
%FOPEndFontReencode
%%EndProlog
%%Page: 1 1
%%PageBoundingBox: 0 0 1440 724
%%BeginPageSetup
[1 0 0 -1 0 724] CT
%%EndPageSetup
GS
1 GC
N
0 0 1440 724 re
f
GR
GS
1 GC
N
0 0 1440 724 re
f
GR
GS
1 GC
N
187 301.5 M
494.5 301.5 L
494.5 54.5 L
187 54.5 L
cp
f
GR
GS
0.873 GC
1 LJ
0.5 LW
N
187 301.5 M
187 54.5 L
S
GR
GS
0.873 GC
1 LJ
0.5 LW
N
289.5 301.5 M
289.5 54.5 L
S
GR
GS
0.873 GC
1 LJ
0.5 LW
N
392 301.5 M
392 54.5 L
S
GR
GS
0.873 GC
1 LJ
0.5 LW
N
494.5 301.5 M
494.5 54.5 L
S
GR
GS
0.873 GC
1 LJ
0.5 LW
N
494.5 286.971 M
187 286.971 L
S
GR
GS
0.873 GC
1 LJ
0.5 LW
N
494.5 257.912 M
187 257.912 L
S
GR
GS
0.873 GC
1 LJ
0.5 LW
N
494.5 228.853 M
187 228.853 L
S
GR
GS
0.873 GC
1 LJ
0.5 LW
N
494.5 199.794 M
187 199.794 L
S
GR
GS
0.873 GC
1 LJ
0.5 LW
N
494.5 170.735 M
187 170.735 L
S
GR
GS
0.873 GC
1 LJ
0.5 LW
N
494.5 141.676 M
187 141.676 L
S
GR
GS
0.873 GC
1 LJ
0.5 LW
N
494.5 112.618 M
187 112.618 L
S
GR
GS
0.873 GC
1 LJ
0.5 LW
N
494.5 83.559 M
187 83.559 L
S
GR
GS
0.873 GC
1 LJ
0.5 LW
N
494.5 54.5 M
187 54.5 L
S
GR
GS
0.149 GC
2 setlinecap
1 LJ
0.5 LW
N
187 301.5 M
494.5 301.5 L
S
GR
GS
0.149 GC
2 setlinecap
1 LJ
0.5 LW
N
187 301.5 M
187 298.425 L
S
GR
GS
0.149 GC
2 setlinecap
1 LJ
0.5 LW
N
289.5 301.5 M
289.5 298.425 L
S
GR
GS
0.149 GC
2 setlinecap
1 LJ
0.5 LW
N
392 301.5 M
392 298.425 L
S
GR
GS
0.149 GC
2 setlinecap
1 LJ
0.5 LW
N
494.5 301.5 M
494.5 298.425 L
S
GR
GS
[1 0 0 1 187 306.29999] CT
0.149 GC
/Helvetica 14 F
GS
[1 0 0 1 0 0] CT
-7 14 moveto 
1 -1 scale
(-2) t 
GR
GR
GS
[1 0 0 1 289.5 306.29999] CT
0.149 GC
/Helvetica 14 F
GS
[1 0 0 1 0 0] CT
-12.5 14 moveto 
1 -1 scale
(-1.5) t 
GR
GR
GS
[1 0 0 1 392 306.29999] CT
0.149 GC
/Helvetica 14 F
GS
[1 0 0 1 0 0] CT
-7 14 moveto 
1 -1 scale
(-1) t 
GR
GR
GS
[1 0 0 1 494.5 306.29999] CT
0.149 GC
/Helvetica 14 F
GS
[1 0 0 1 0 0] CT
-12.5 14 moveto 
1 -1 scale
(-0.5) t 
GR
GR
GS
[1 0 0 1 290 339] CT
0.149 GC
/Helvetica 15 F
GS
[1 0 0 1 0 0] CT
0 0 moveto 
1 -1 scale
(1/nElem [log) t 
GR
GR
GS
[1 0 0 1 374 346] CT
0.149 GC
/Helvetica 12 F
GS
[1 0 0 1 0 0] CT
0 0 moveto 
1 -1 scale
(10) t 
GR
GR
GS
[1 0 0 1 388 339] CT
0.149 GC
/Helvetica 15 F
GS
[1 0 0 1 0 0] CT
0 0 moveto 
1 -1 scale
(]) t 
GR
GR
GS
0.149 GC
2 setlinecap
1 LJ
0.5 LW
N
187 301.5 M
187 54.5 L
S
GR
GS
0.149 GC
2 setlinecap
1 LJ
0.5 LW
N
187 286.971 M
190.075 286.971 L
S
GR
GS
0.149 GC
2 setlinecap
1 LJ
0.5 LW
N
187 257.912 M
190.075 257.912 L
S
GR
GS
0.149 GC
2 setlinecap
1 LJ
0.5 LW
N
187 228.853 M
190.075 228.853 L
S
GR
GS
0.149 GC
2 setlinecap
1 LJ
0.5 LW
N
187 199.794 M
190.075 199.794 L
S
GR
GS
0.149 GC
2 setlinecap
1 LJ
0.5 LW
N
187 170.735 M
190.075 170.735 L
S
GR
GS
0.149 GC
2 setlinecap
1 LJ
0.5 LW
N
187 141.676 M
190.075 141.676 L
S
GR
GS
0.149 GC
2 setlinecap
1 LJ
0.5 LW
N
187 112.618 M
190.075 112.618 L
S
GR
GS
0.149 GC
2 setlinecap
1 LJ
0.5 LW
N
187 83.559 M
190.075 83.559 L
S
GR
GS
0.149 GC
2 setlinecap
1 LJ
0.5 LW
N
187 54.5 M
190.075 54.5 L
S
GR
GS
[1 0 0 1 182.20001 286.97058] CT
0.149 GC
/Helvetica 14 F
GS
[1 0 0 1 0 0] CT
-22 5.5 moveto 
1 -1 scale
(-16) t 
GR
GR
GS
[1 0 0 1 182.20001 257.91177] CT
0.149 GC
/Helvetica 14 F
GS
[1 0 0 1 0 0] CT
-22 5.5 moveto 
1 -1 scale
(-14) t 
GR
GR
GS
[1 0 0 1 182.20001 228.85294] CT
0.149 GC
/Helvetica 14 F
GS
[1 0 0 1 0 0] CT
-22 5.5 moveto 
1 -1 scale
(-12) t 
GR
GR
GS
[1 0 0 1 182.20001 199.79411] CT
0.149 GC
/Helvetica 14 F
GS
[1 0 0 1 0 0] CT
-22 5.5 moveto 
1 -1 scale
(-10) t 
GR
GR
GS
[1 0 0 1 182.20001 170.73529] CT
0.149 GC
/Helvetica 14 F
GS
[1 0 0 1 0 0] CT
-14 5.5 moveto 
1 -1 scale
(-8) t 
GR
GR
GS
[1 0 0 1 182.20001 141.67647] CT
0.149 GC
/Helvetica 14 F
GS
[1 0 0 1 0 0] CT
-14 5.5 moveto 
1 -1 scale
(-6) t 
GR
GR
GS
[1 0 0 1 182.20001 112.61765] CT
0.149 GC
/Helvetica 14 F
GS
[1 0 0 1 0 0] CT
-14 5.5 moveto 
1 -1 scale
(-4) t 
GR
GR
GS
[1 0 0 1 182.20001 83.55882] CT
0.149 GC
/Helvetica 14 F
GS
[1 0 0 1 0 0] CT
-14 5.5 moveto 
1 -1 scale
(-2) t 
GR
GR
GS
[1 0 0 1 182.20001 54.5] CT
0.149 GC
/Helvetica 14 F
GS
[1 0 0 1 0 0] CT
-8 5.5 moveto 
1 -1 scale
(0) t 
GR
GR
GS
[0 -1 1 0 148 257] CT
0.149 GC
/Helvetica 15 F
GS
[1 0 0 1 0 0] CT
0 0 moveto 
1 -1 scale
(Solution L) t 
GR
GR
GS
[0 -1 1 0 155 189] CT
0.149 GC
/Helvetica 12 F
GS
[1 0 0 1 0 0] CT
0 0 moveto 
1 -1 scale
(2) t 
GR
GR
GS
[0 -1 1 0 148 182] CT
0.149 GC
/Helvetica 15 F
GS
[1 0 0 1 0 0] CT
0 0 moveto 
1 -1 scale
( error [log) t 
GR
GR
GS
[0 -1 1 0 155 117] CT
0.149 GC
/Helvetica 12 F
GS
[1 0 0 1 0 0] CT
0 0 moveto 
1 -1 scale
(10) t 
GR
GR
GS
[0 -1 1 0 148 103] CT
0.149 GC
/Helvetica 15 F
GS
[1 0 0 1 0 0] CT
0 0 moveto 
1 -1 scale
(]) t 
GR
GR
GS
[1 0 0 1 340.75031 52.575] CT
/Helvetica-Bold 15.4 F
GS
[1 0 0 1 0 0] CT
-26.5 -4 moveto 
1 -1 scale
(Q1 grid) t 
GR
GR
GS
1 0 0 RC
1 LJ
0.5 LW
N
473.578 58.061 M
411.867 62.868 L
350.155 67.592 L
288.444 72.19 L
226.733 76.69 L
S
GR
GS
1 0 0 RC
1 LJ
N
470 58.5 M
477 58.5 L
S
GR
GS
1 0 0 RC
1 LJ
N
473.5 62 M
473.5 55 L
S
GR
GS
1 0 0 RC
1 LJ
N
408 62.5 M
415 62.5 L
S
GR
GS
1 0 0 RC
1 LJ
N
411.5 66 M
411.5 59 L
S
GR
GS
1 0 0 RC
1 LJ
N
347 67.5 M
354 67.5 L
S
GR
GS
1 0 0 RC
1 LJ
N
350.5 71 M
350.5 64 L
S
GR
GS
1 0 0 RC
1 LJ
N
285 72.5 M
292 72.5 L
S
GR
GS
1 0 0 RC
1 LJ
N
288.5 76 M
288.5 69 L
S
GR
GS
1 0 0 RC
1 LJ
N
223 76.5 M
230 76.5 L
S
GR
GS
1 0 0 RC
1 LJ
N
226.5 80 M
226.5 73 L
S
GR
GS
0 0 1 RC
1 LJ
0.5 LW
N
473.578 72.558 M
411.867 80.962 L
350.155 89.592 L
288.444 98.292 L
226.733 107.019 L
S
GR
GS
0 0 1 RC
1 LJ
N
476.5 72.5 M
475.621 70.379 L
473.5 69.5 L
471.379 70.379 L
470.5 72.5 L
471.379 74.621 L
473.5 75.5 L
475.621 74.621 L
cp
S
GR
GS
0 0 1 RC
1 LJ
N
414.5 80.5 M
413.621 78.379 L
411.5 77.5 L
409.379 78.379 L
408.5 80.5 L
409.379 82.621 L
411.5 83.5 L
413.621 82.621 L
cp
S
GR
GS
0 0 1 RC
1 LJ
N
353.5 89.5 M
352.621 87.379 L
350.5 86.5 L
348.379 87.379 L
347.5 89.5 L
348.379 91.621 L
350.5 92.5 L
352.621 91.621 L
cp
S
GR
GS
0 0 1 RC
1 LJ
N
291.5 98.5 M
290.621 96.379 L
288.5 95.5 L
286.379 96.379 L
285.5 98.5 L
286.379 100.621 L
288.5 101.5 L
290.621 100.621 L
cp
S
GR
GS
0 0 1 RC
1 LJ
N
229.5 107.5 M
228.621 105.379 L
226.5 104.5 L
224.379 105.379 L
223.5 107.5 L
224.379 109.621 L
226.5 110.5 L
228.621 109.621 L
cp
S
GR
GS
1 LJ
0.5 LW
N
473.578 85.177 M
411.867 95.995 L
350.155 105.864 L
288.444 115.162 L
226.733 124.181 L
S
GR
GS
10.0 ML
N
473.5 89.499 M
476.5 85.5 L
473.5 81.501 L
470.5 85.5 L
cp
S
GR
GS
10.0 ML
N
411.5 99.499 M
414.5 95.5 L
411.5 91.501 L
408.5 95.5 L
cp
S
GR
GS
10.0 ML
N
350.5 109.499 M
353.5 105.5 L
350.5 101.501 L
347.5 105.5 L
cp
S
GR
GS
10.0 ML
N
288.5 119.499 M
291.5 115.5 L
288.5 111.501 L
285.5 115.5 L
cp
S
GR
GS
10.0 ML
N
226.5 128.499 M
229.5 124.5 L
226.5 120.501 L
223.5 124.5 L
cp
S
GR
GS
1 0 1 RC
1 LJ
0.5 LW
N
473.578 89.25 M
411.867 98.009 L
350.155 106.828 L
288.444 115.632 L
226.733 124.414 L
S
GR
GS
1 0 1 RC
1 LJ
N
470 89.5 M
477 89.5 L
S
GR
GS
1 0 1 RC
1 LJ
N
473.5 93 M
473.5 86 L
S
GR
GS
1 0 1 RC
1 LJ
N
471 92 M
476 87 L
S
GR
GS
1 0 1 RC
1 LJ
N
471 87 M
476 92 L
S
GR
GS
1 0 1 RC
1 LJ
N
408 98.5 M
415 98.5 L
S
GR
GS
1 0 1 RC
1 LJ
N
411.5 102 M
411.5 95 L
S
GR
GS
1 0 1 RC
1 LJ
N
409 101 M
414 96 L
S
GR
GS
1 0 1 RC
1 LJ
N
409 96 M
414 101 L
S
GR
GS
1 0 1 RC
1 LJ
N
347 106.5 M
354 106.5 L
S
GR
GS
1 0 1 RC
1 LJ
N
350.5 110 M
350.5 103 L
S
GR
GS
1 0 1 RC
1 LJ
N
348 109 M
353 104 L
S
GR
GS
1 0 1 RC
1 LJ
N
348 104 M
353 109 L
S
GR
GS
1 0 1 RC
1 LJ
N
285 115.5 M
292 115.5 L
S
GR
GS
1 0 1 RC
1 LJ
N
288.5 119 M
288.5 112 L
S
GR
GS
1 0 1 RC
1 LJ
N
286 118 M
291 113 L
S
GR
GS
1 0 1 RC
1 LJ
N
286 113 M
291 118 L
S
GR
GS
1 0 1 RC
1 LJ
N
223 124.5 M
230 124.5 L
S
GR
GS
1 0 1 RC
1 LJ
N
226.5 128 M
226.5 121 L
S
GR
GS
1 0 1 RC
1 LJ
N
224 127 M
229 122 L
S
GR
GS
1 0 1 RC
1 LJ
N
224 122 M
229 127 L
S
GR
GS
0 1 0 RC
1 LJ
0.5 LW
N
473.578 88.898 M
411.867 97.936 L
350.155 106.825 L
288.444 115.64 L
226.733 124.421 L
S
GR
GS
0 1 0 RC
1 LJ
N
471 91 M
476 86 L
S
GR
GS
0 1 0 RC
1 LJ
N
471 86 M
476 91 L
S
GR
GS
0 1 0 RC
1 LJ
N
409 100 M
414 95 L
S
GR
GS
0 1 0 RC
1 LJ
N
409 95 M
414 100 L
S
GR
GS
0 1 0 RC
1 LJ
N
348 109 M
353 104 L
S
GR
GS
0 1 0 RC
1 LJ
N
348 104 M
353 109 L
S
GR
GS
0 1 0 RC
1 LJ
N
286 118 M
291 113 L
S
GR
GS
0 1 0 RC
1 LJ
N
286 113 M
291 118 L
S
GR
GS
0 1 0 RC
1 LJ
N
224 127 M
229 122 L
S
GR
GS
0 1 0 RC
1 LJ
N
224 122 M
229 127 L
S
GR
GS
1 1 0 RC
1 LJ
0.5 LW
N
473.578 88.937 M
411.867 97.972 L
350.155 106.846 L
288.444 115.651 L
226.733 124.427 L
S
GR
GS
1 1 0 RC
10.0 ML
N
471.16 90.84 M
471.16 86.16 L
475.84 86.16 L
475.84 90.84 L
cp
S
GR
GS
1 1 0 RC
10.0 ML
N
409.16 99.84 M
409.16 95.16 L
413.84 95.16 L
413.84 99.84 L
cp
S
GR
GS
1 1 0 RC
10.0 ML
N
348.16 108.84 M
348.16 104.16 L
352.84 104.16 L
352.84 108.84 L
cp
S
GR
GS
1 1 0 RC
10.0 ML
N
286.16 117.84 M
286.16 113.16 L
290.84 113.16 L
290.84 117.84 L
cp
S
GR
GS
1 1 0 RC
10.0 ML
N
224.16 126.84 M
224.16 122.16 L
228.84 122.16 L
228.84 126.84 L
cp
S
GR
GS
0 1 1 RC
1 LJ
0.5 LW
N
473.578 88.991 M
411.867 98.002 L
350.155 106.862 L
288.444 115.659 L
226.733 124.431 L
S
GR
GS
0 1 1 RC
10.0 ML
N
470.647 87.573 M
472.795 87.573 L
473.5 85.5 L
474.205 87.573 L
476.353 87.573 L
474.641 88.871 L
475.263 90.927 L
473.5 89.7 L
471.737 90.927 L
472.359 88.871 L
cp
S
GR
GS
0 1 1 RC
10.0 ML
N
408.647 97.573 M
410.795 97.573 L
411.5 95.5 L
412.205 97.573 L
414.353 97.573 L
412.641 98.871 L
413.263 100.927 L
411.5 99.7 L
409.737 100.927 L
410.359 98.871 L
cp
S
GR
GS
0 1 1 RC
10.0 ML
N
347.647 105.573 M
349.795 105.573 L
350.5 103.5 L
351.205 105.573 L
353.353 105.573 L
351.641 106.871 L
352.263 108.927 L
350.5 107.7 L
348.737 108.927 L
349.359 106.871 L
cp
S
GR
GS
0 1 1 RC
10.0 ML
N
285.647 114.573 M
287.795 114.573 L
288.5 112.5 L
289.205 114.573 L
291.353 114.573 L
289.641 115.871 L
290.263 117.927 L
288.5 116.7 L
286.737 117.927 L
287.359 115.871 L
cp
S
GR
GS
0 1 1 RC
10.0 ML
N
223.647 123.573 M
225.795 123.573 L
226.5 121.5 L
227.205 123.573 L
229.353 123.573 L
227.641 124.871 L
228.263 126.927 L
226.5 125.7 L
224.737 126.927 L
225.359 124.871 L
cp
S
GR
GS
1 GC
N
408.5 295.5 M
408.5 183.5 L
478.5 183.5 L
478.5 295.5 L
cp
f
GR
GS
[1 0 0 1 445.5 193] CT
/Helvetica 12.6 F
GS
[1 0 0 1 0 0] CT
0 5 moveto 
1 -1 scale
(p = 0) t 
GR
GR
GS
1 0 0 RC
1 LJ
0.5 LW
N
412.5 193 M
442.5 193 L
S
GR
GS
1 0 0 RC
1 LJ
N
424 192.5 M
431 192.5 L
S
GR
GS
1 0 0 RC
1 LJ
N
427.5 196 M
427.5 189 L
S
GR
GS
[1 0 0 1 445.5 208.5] CT
/Helvetica 12.6 F
GS
[1 0 0 1 0 0] CT
0 5 moveto 
1 -1 scale
(p = 1) t 
GR
GR
GS
0 0 1 RC
1 LJ
0.5 LW
N
412.5 208.5 M
442.5 208.5 L
S
GR
GS
0 0 1 RC
1 LJ
N
430.5 208.5 M
429.621 206.379 L
427.5 205.5 L
425.379 206.379 L
424.5 208.5 L
425.379 210.621 L
427.5 211.5 L
429.621 210.621 L
cp
S
GR
GS
[1 0 0 1 445.5 224] CT
/Helvetica 12.6 F
GS
[1 0 0 1 0 0] CT
0 5 moveto 
1 -1 scale
(p = 2) t 
GR
GR
GS
1 LJ
0.5 LW
N
412.5 224 M
442.5 224 L
S
GR
GS
10.0 ML
N
427.5 227.499 M
430.5 223.5 L
427.5 219.501 L
424.5 223.5 L
cp
S
GR
GS
[1 0 0 1 445.5 239.5] CT
/Helvetica 12.6 F
GS
[1 0 0 1 0 0] CT
0 5 moveto 
1 -1 scale
(p = 3) t 
GR
GR
GS
1 0 1 RC
1 LJ
0.5 LW
N
412.5 239.5 M
442.5 239.5 L
S
GR
GS
1 0 1 RC
1 LJ
N
424 239.5 M
431 239.5 L
S
GR
GS
1 0 1 RC
1 LJ
N
427.5 243 M
427.5 236 L
S
GR
GS
1 0 1 RC
1 LJ
N
425 242 M
430 237 L
S
GR
GS
1 0 1 RC
1 LJ
N
425 237 M
430 242 L
S
GR
GS
[1 0 0 1 445.5 255] CT
/Helvetica 12.6 F
GS
[1 0 0 1 0 0] CT
0 5 moveto 
1 -1 scale
(p = 4) t 
GR
GR
GS
0 1 0 RC
1 LJ
0.5 LW
N
412.5 255 M
442.5 255 L
S
GR
GS
0 1 0 RC
1 LJ
N
425 258 M
430 253 L
S
GR
GS
0 1 0 RC
1 LJ
N
425 253 M
430 258 L
S
GR
GS
[1 0 0 1 445.5 270.5] CT
/Helvetica 12.6 F
GS
[1 0 0 1 0 0] CT
0 5 moveto 
1 -1 scale
(p = 5) t 
GR
GR
GS
1 1 0 RC
1 LJ
0.5 LW
N
412.5 270.5 M
442.5 270.5 L
S
GR
GS
1 1 0 RC
10.0 ML
N
425.16 272.84 M
425.16 268.16 L
429.84 268.16 L
429.84 272.84 L
cp
S
GR
GS
[1 0 0 1 445.5 286] CT
/Helvetica 12.6 F
GS
[1 0 0 1 0 0] CT
0 5 moveto 
1 -1 scale
(p = 6) t 
GR
GR
GS
0 1 1 RC
1 LJ
0.5 LW
N
412.5 286 M
442.5 286 L
S
GR
GS
0 1 1 RC
10.0 ML
N
424.647 285.573 M
426.795 285.573 L
427.5 283.5 L
428.205 285.573 L
430.353 285.573 L
428.641 286.871 L
429.263 288.927 L
427.5 287.7 L
425.737 288.927 L
426.359 286.871 L
cp
S
GR
GS
0.149 GC
10.0 ML
0.5 LW
N
408.5 295.5 M
408.5 183.5 L
478.5 183.5 L
478.5 295.5 L
cp
S
GR
GS
1 GC
N
591.5 301.5 M
899 301.5 L
899 54.5 L
591.5 54.5 L
cp
f
GR
GS
0.873 GC
1 LJ
0.5 LW
N
591.5 301.5 M
591.5 54.5 L
S
GR
GS
0.873 GC
1 LJ
0.5 LW
N
694 301.5 M
694 54.5 L
S
GR
GS
0.873 GC
1 LJ
0.5 LW
N
796.5 301.5 M
796.5 54.5 L
S
GR
GS
0.873 GC
1 LJ
0.5 LW
N
899 301.5 M
899 54.5 L
S
GR
GS
0.873 GC
1 LJ
0.5 LW
N
899 286.971 M
591.5 286.971 L
S
GR
GS
0.873 GC
1 LJ
0.5 LW
N
899 257.912 M
591.5 257.912 L
S
GR
GS
0.873 GC
1 LJ
0.5 LW
N
899 228.853 M
591.5 228.853 L
S
GR
GS
0.873 GC
1 LJ
0.5 LW
N
899 199.794 M
591.5 199.794 L
S
GR
GS
0.873 GC
1 LJ
0.5 LW
N
899 170.735 M
591.5 170.735 L
S
GR
GS
0.873 GC
1 LJ
0.5 LW
N
899 141.676 M
591.5 141.676 L
S
GR
GS
0.873 GC
1 LJ
0.5 LW
N
899 112.618 M
591.5 112.618 L
S
GR
GS
0.873 GC
1 LJ
0.5 LW
N
899 83.559 M
591.5 83.559 L
S
GR
GS
0.873 GC
1 LJ
0.5 LW
N
899 54.5 M
591.5 54.5 L
S
GR
GS
0.149 GC
2 setlinecap
1 LJ
0.5 LW
N
591.5 301.5 M
899 301.5 L
S
GR
GS
0.149 GC
2 setlinecap
1 LJ
0.5 LW
N
591.5 301.5 M
591.5 298.425 L
S
GR
GS
0.149 GC
2 setlinecap
1 LJ
0.5 LW
N
694 301.5 M
694 298.425 L
S
GR
GS
0.149 GC
2 setlinecap
1 LJ
0.5 LW
N
796.5 301.5 M
796.5 298.425 L
S
GR
GS
0.149 GC
2 setlinecap
1 LJ
0.5 LW
N
899 301.5 M
899 298.425 L
S
GR
GS
[1 0 0 1 591.5 306.29999] CT
0.149 GC
/Helvetica 14 F
GS
[1 0 0 1 0 0] CT
-7 14 moveto 
1 -1 scale
(-2) t 
GR
GR
GS
[1 0 0 1 694 306.29999] CT
0.149 GC
/Helvetica 14 F
GS
[1 0 0 1 0 0] CT
-12.5 14 moveto 
1 -1 scale
(-1.5) t 
GR
GR
GS
[1 0 0 1 796.5 306.29999] CT
0.149 GC
/Helvetica 14 F
GS
[1 0 0 1 0 0] CT
-7 14 moveto 
1 -1 scale
(-1) t 
GR
GR
GS
[1 0 0 1 899 306.29999] CT
0.149 GC
/Helvetica 14 F
GS
[1 0 0 1 0 0] CT
-12.5 14 moveto 
1 -1 scale
(-0.5) t 
GR
GR
GS
[1 0 0 1 694 339] CT
0.149 GC
/Helvetica 15 F
GS
[1 0 0 1 0 0] CT
0 0 moveto 
1 -1 scale
(1/nElem [log) t 
GR
GR
GS
[1 0 0 1 778 346] CT
0.149 GC
/Helvetica 12 F
GS
[1 0 0 1 0 0] CT
0 0 moveto 
1 -1 scale
(10) t 
GR
GR
GS
[1 0 0 1 792 339] CT
0.149 GC
/Helvetica 15 F
GS
[1 0 0 1 0 0] CT
0 0 moveto 
1 -1 scale
(]) t 
GR
GR
GS
0.149 GC
2 setlinecap
1 LJ
0.5 LW
N
591.5 301.5 M
591.5 54.5 L
S
GR
GS
0.149 GC
2 setlinecap
1 LJ
0.5 LW
N
591.5 286.971 M
594.575 286.971 L
S
GR
GS
0.149 GC
2 setlinecap
1 LJ
0.5 LW
N
591.5 257.912 M
594.575 257.912 L
S
GR
GS
0.149 GC
2 setlinecap
1 LJ
0.5 LW
N
591.5 228.853 M
594.575 228.853 L
S
GR
GS
0.149 GC
2 setlinecap
1 LJ
0.5 LW
N
591.5 199.794 M
594.575 199.794 L
S
GR
GS
0.149 GC
2 setlinecap
1 LJ
0.5 LW
N
591.5 170.735 M
594.575 170.735 L
S
GR
GS
0.149 GC
2 setlinecap
1 LJ
0.5 LW
N
591.5 141.676 M
594.575 141.676 L
S
GR
GS
0.149 GC
2 setlinecap
1 LJ
0.5 LW
N
591.5 112.618 M
594.575 112.618 L
S
GR
GS
0.149 GC
2 setlinecap
1 LJ
0.5 LW
N
591.5 83.559 M
594.575 83.559 L
S
GR
GS
0.149 GC
2 setlinecap
1 LJ
0.5 LW
N
591.5 54.5 M
594.575 54.5 L
S
GR
GS
[1 0 0 1 586.70001 286.97058] CT
0.149 GC
/Helvetica 14 F
GS
[1 0 0 1 0 0] CT
-22 5.5 moveto 
1 -1 scale
(-16) t 
GR
GR
GS
[1 0 0 1 586.70001 257.91177] CT
0.149 GC
/Helvetica 14 F
GS
[1 0 0 1 0 0] CT
-22 5.5 moveto 
1 -1 scale
(-14) t 
GR
GR
GS
[1 0 0 1 586.70001 228.85294] CT
0.149 GC
/Helvetica 14 F
GS
[1 0 0 1 0 0] CT
-22 5.5 moveto 
1 -1 scale
(-12) t 
GR
GR
GS
[1 0 0 1 586.70001 199.79411] CT
0.149 GC
/Helvetica 14 F
GS
[1 0 0 1 0 0] CT
-22 5.5 moveto 
1 -1 scale
(-10) t 
GR
GR
GS
[1 0 0 1 586.70001 170.73529] CT
0.149 GC
/Helvetica 14 F
GS
[1 0 0 1 0 0] CT
-14 5.5 moveto 
1 -1 scale
(-8) t 
GR
GR
GS
[1 0 0 1 586.70001 141.67647] CT
0.149 GC
/Helvetica 14 F
GS
[1 0 0 1 0 0] CT
-14 5.5 moveto 
1 -1 scale
(-6) t 
GR
GR
GS
[1 0 0 1 586.70001 112.61765] CT
0.149 GC
/Helvetica 14 F
GS
[1 0 0 1 0 0] CT
-14 5.5 moveto 
1 -1 scale
(-4) t 
GR
GR
GS
[1 0 0 1 586.70001 83.55882] CT
0.149 GC
/Helvetica 14 F
GS
[1 0 0 1 0 0] CT
-14 5.5 moveto 
1 -1 scale
(-2) t 
GR
GR
GS
[1 0 0 1 586.70001 54.5] CT
0.149 GC
/Helvetica 14 F
GS
[1 0 0 1 0 0] CT
-8 5.5 moveto 
1 -1 scale
(0) t 
GR
GR
GS
[0 -1 1 0 552 257] CT
0.149 GC
/Helvetica 15 F
GS
[1 0 0 1 0 0] CT
0 0 moveto 
1 -1 scale
(Solution L) t 
GR
GR
GS
[0 -1 1 0 559 189] CT
0.149 GC
/Helvetica 12 F
GS
[1 0 0 1 0 0] CT
0 0 moveto 
1 -1 scale
(2) t 
GR
GR
GS
[0 -1 1 0 552 182] CT
0.149 GC
/Helvetica 15 F
GS
[1 0 0 1 0 0] CT
0 0 moveto 
1 -1 scale
( error [log) t 
GR
GR
GS
[0 -1 1 0 559 117] CT
0.149 GC
/Helvetica 12 F
GS
[1 0 0 1 0 0] CT
0 0 moveto 
1 -1 scale
(10) t 
GR
GR
GS
[0 -1 1 0 552 103] CT
0.149 GC
/Helvetica 15 F
GS
[1 0 0 1 0 0] CT
0 0 moveto 
1 -1 scale
(]) t 
GR
GR
GS
[1 0 0 1 745.25073 52.575] CT
/Helvetica-Bold 15.4 F
GS
[1 0 0 1 0 0] CT
-26.5 -4 moveto 
1 -1 scale
(Q2 grid) t 
GR
GR
GS
1 0 0 RC
1 LJ
0.5 LW
N
878.078 58.06 M
816.367 62.873 L
754.655 67.597 L
692.944 72.193 L
631.233 76.692 L
S
GR
GS
1 0 0 RC
1 LJ
N
875 58.5 M
882 58.5 L
S
GR
GS
1 0 0 RC
1 LJ
N
878.5 62 M
878.5 55 L
S
GR
GS
1 0 0 RC
1 LJ
N
813 62.5 M
820 62.5 L
S
GR
GS
1 0 0 RC
1 LJ
N
816.5 66 M
816.5 59 L
S
GR
GS
1 0 0 RC
1 LJ
N
751 67.5 M
758 67.5 L
S
GR
GS
1 0 0 RC
1 LJ
N
754.5 71 M
754.5 64 L
S
GR
GS
1 0 0 RC
1 LJ
N
689 72.5 M
696 72.5 L
S
GR
GS
1 0 0 RC
1 LJ
N
692.5 76 M
692.5 69 L
S
GR
GS
1 0 0 RC
1 LJ
N
628 76.5 M
635 76.5 L
S
GR
GS
1 0 0 RC
1 LJ
N
631.5 80 M
631.5 73 L
S
GR
GS
0 0 1 RC
1 LJ
0.5 LW
N
878.078 72.626 M
816.367 81.117 L
754.655 89.817 L
692.944 98.561 L
631.233 107.312 L
S
GR
GS
0 0 1 RC
1 LJ
N
881.5 72.5 M
880.621 70.379 L
878.5 69.5 L
876.379 70.379 L
875.5 72.5 L
876.379 74.621 L
878.5 75.5 L
880.621 74.621 L
cp
S
GR
GS
0 0 1 RC
1 LJ
N
819.5 81.5 M
818.621 79.379 L
816.5 78.5 L
814.379 79.379 L
813.5 81.5 L
814.379 83.621 L
816.5 84.5 L
818.621 83.621 L
cp
S
GR
GS
0 0 1 RC
1 LJ
N
757.5 89.5 M
756.621 87.379 L
754.5 86.5 L
752.379 87.379 L
751.5 89.5 L
752.379 91.621 L
754.5 92.5 L
756.621 91.621 L
cp
S
GR
GS
0 0 1 RC
1 LJ
N
695.5 98.5 M
694.621 96.379 L
692.5 95.5 L
690.379 96.379 L
689.5 98.5 L
690.379 100.621 L
692.5 101.5 L
694.621 100.621 L
cp
S
GR
GS
0 0 1 RC
1 LJ
N
634.5 107.5 M
633.621 105.379 L
631.5 104.5 L
629.379 105.379 L
628.5 107.5 L
629.379 109.621 L
631.5 110.5 L
633.621 109.621 L
cp
S
GR
GS
1 LJ
0.5 LW
N
878.078 86.855 M
816.367 99.86 L
754.655 113.016 L
692.944 126.183 L
631.233 139.335 L
S
GR
GS
10.0 ML
N
878.5 90.499 M
881.5 86.5 L
878.5 82.501 L
875.5 86.5 L
cp
S
GR
GS
10.0 ML
N
816.5 103.499 M
819.5 99.5 L
816.5 95.501 L
813.5 99.5 L
cp
S
GR
GS
10.0 ML
N
754.5 117.499 M
757.5 113.5 L
754.5 109.501 L
751.5 113.5 L
cp
S
GR
GS
10.0 ML
N
692.5 130.499 M
695.5 126.5 L
692.5 122.501 L
689.5 126.5 L
cp
S
GR
GS
10.0 ML
N
631.5 143.499 M
634.5 139.5 L
631.5 135.501 L
628.5 139.5 L
cp
S
GR
GS
1 0 1 RC
1 LJ
0.5 LW
N
878.078 103.02 M
816.367 120.172 L
754.655 137.6 L
692.944 155.088 L
631.233 172.587 L
S
GR
GS
1 0 1 RC
1 LJ
N
875 103.5 M
882 103.5 L
S
GR
GS
1 0 1 RC
1 LJ
N
878.5 107 M
878.5 100 L
S
GR
GS
1 0 1 RC
1 LJ
N
876 106 M
881 101 L
S
GR
GS
1 0 1 RC
1 LJ
N
876 101 M
881 106 L
S
GR
GS
1 0 1 RC
1 LJ
N
813 120.5 M
820 120.5 L
S
GR
GS
1 0 1 RC
1 LJ
N
816.5 124 M
816.5 117 L
S
GR
GS
1 0 1 RC
1 LJ
N
814 123 M
819 118 L
S
GR
GS
1 0 1 RC
1 LJ
N
814 118 M
819 123 L
S
GR
GS
1 0 1 RC
1 LJ
N
751 137.5 M
758 137.5 L
S
GR
GS
1 0 1 RC
1 LJ
N
754.5 141 M
754.5 134 L
S
GR
GS
1 0 1 RC
1 LJ
N
752 140 M
757 135 L
S
GR
GS
1 0 1 RC
1 LJ
N
752 135 M
757 140 L
S
GR
GS
1 0 1 RC
1 LJ
N
689 155.5 M
696 155.5 L
S
GR
GS
1 0 1 RC
1 LJ
N
692.5 159 M
692.5 152 L
S
GR
GS
1 0 1 RC
1 LJ
N
690 158 M
695 153 L
S
GR
GS
1 0 1 RC
1 LJ
N
690 153 M
695 158 L
S
GR
GS
1 0 1 RC
1 LJ
N
628 172.5 M
635 172.5 L
S
GR
GS
1 0 1 RC
1 LJ
N
631.5 176 M
631.5 169 L
S
GR
GS
1 0 1 RC
1 LJ
N
629 175 M
634 170 L
S
GR
GS
1 0 1 RC
1 LJ
N
629 170 M
634 175 L
S
GR
GS
0 1 0 RC
1 LJ
0.5 LW
N
878.078 119.543 M
816.367 141.187 L
754.655 162.902 L
692.944 184.358 L
631.233 205.049 L
S
GR
GS
0 1 0 RC
1 LJ
N
876 122 M
881 117 L
S
GR
GS
0 1 0 RC
1 LJ
N
876 117 M
881 122 L
S
GR
GS
0 1 0 RC
1 LJ
N
814 144 M
819 139 L
S
GR
GS
0 1 0 RC
1 LJ
N
814 139 M
819 144 L
S
GR
GS
0 1 0 RC
1 LJ
N
752 165 M
757 160 L
S
GR
GS
0 1 0 RC
1 LJ
N
752 160 M
757 165 L
S
GR
GS
0 1 0 RC
1 LJ
N
690 187 M
695 182 L
S
GR
GS
0 1 0 RC
1 LJ
N
690 182 M
695 187 L
S
GR
GS
0 1 0 RC
1 LJ
N
629 208 M
634 203 L
S
GR
GS
0 1 0 RC
1 LJ
N
629 203 M
634 208 L
S
GR
GS
1 1 0 RC
1 LJ
0.5 LW
N
878.078 135.282 M
816.367 155.116 L
754.655 173.014 L
692.944 190.588 L
631.233 208.113 L
S
GR
GS
1 1 0 RC
10.0 ML
N
876.16 137.84 M
876.16 133.16 L
880.84 133.16 L
880.84 137.84 L
cp
S
GR
GS
1 1 0 RC
10.0 ML
N
814.16 157.84 M
814.16 153.16 L
818.84 153.16 L
818.84 157.84 L
cp
S
GR
GS
1 1 0 RC
10.0 ML
N
752.16 175.84 M
752.16 171.16 L
756.84 171.16 L
756.84 175.84 L
cp
S
GR
GS
1 1 0 RC
10.0 ML
N
690.16 192.84 M
690.16 188.16 L
694.84 188.16 L
694.84 192.84 L
cp
S
GR
GS
1 1 0 RC
10.0 ML
N
629.16 210.84 M
629.16 206.16 L
633.84 206.16 L
633.84 210.84 L
cp
S
GR
GS
0 1 1 RC
1 LJ
0.5 LW
N
878.078 137.674 M
816.367 155.459 L
754.655 173.053 L
692.944 190.596 L
631.233 208.116 L
S
GR
GS
0 1 1 RC
10.0 ML
N
875.647 136.573 M
877.795 136.573 L
878.5 134.5 L
879.205 136.573 L
881.353 136.573 L
879.641 137.871 L
880.263 139.927 L
878.5 138.7 L
876.737 139.927 L
877.359 137.871 L
cp
S
GR
GS
0 1 1 RC
10.0 ML
N
813.647 154.573 M
815.795 154.573 L
816.5 152.5 L
817.205 154.573 L
819.353 154.573 L
817.641 155.871 L
818.263 157.927 L
816.5 156.7 L
814.737 157.927 L
815.359 155.871 L
cp
S
GR
GS
0 1 1 RC
10.0 ML
N
751.647 172.573 M
753.795 172.573 L
754.5 170.5 L
755.205 172.573 L
757.353 172.573 L
755.641 173.871 L
756.263 175.927 L
754.5 174.7 L
752.737 175.927 L
753.359 173.871 L
cp
S
GR
GS
0 1 1 RC
10.0 ML
N
689.647 189.573 M
691.795 189.573 L
692.5 187.5 L
693.205 189.573 L
695.353 189.573 L
693.641 190.871 L
694.263 192.927 L
692.5 191.7 L
690.737 192.927 L
691.359 190.871 L
cp
S
GR
GS
0 1 1 RC
10.0 ML
N
628.647 207.573 M
630.795 207.573 L
631.5 205.5 L
632.205 207.573 L
634.353 207.573 L
632.641 208.871 L
633.263 210.927 L
631.5 209.7 L
629.737 210.927 L
630.359 208.871 L
cp
S
GR
GS
1 GC
N
812.5 295.5 M
812.5 183.5 L
882.5 183.5 L
882.5 295.5 L
cp
f
GR
GS
[1 0 0 1 849.5 193] CT
/Helvetica 12.6 F
GS
[1 0 0 1 0 0] CT
0 5 moveto 
1 -1 scale
(p = 0) t 
GR
GR
GS
1 0 0 RC
1 LJ
0.5 LW
N
816.5 193 M
846.5 193 L
S
GR
GS
1 0 0 RC
1 LJ
N
828 192.5 M
835 192.5 L
S
GR
GS
1 0 0 RC
1 LJ
N
831.5 196 M
831.5 189 L
S
GR
GS
[1 0 0 1 849.5 208.5] CT
/Helvetica 12.6 F
GS
[1 0 0 1 0 0] CT
0 5 moveto 
1 -1 scale
(p = 1) t 
GR
GR
GS
0 0 1 RC
1 LJ
0.5 LW
N
816.5 208.5 M
846.5 208.5 L
S
GR
GS
0 0 1 RC
1 LJ
N
834.5 208.5 M
833.621 206.379 L
831.5 205.5 L
829.379 206.379 L
828.5 208.5 L
829.379 210.621 L
831.5 211.5 L
833.621 210.621 L
cp
S
GR
GS
[1 0 0 1 849.5 224] CT
/Helvetica 12.6 F
GS
[1 0 0 1 0 0] CT
0 5 moveto 
1 -1 scale
(p = 2) t 
GR
GR
GS
1 LJ
0.5 LW
N
816.5 224 M
846.5 224 L
S
GR
GS
10.0 ML
N
831.5 227.499 M
834.5 223.5 L
831.5 219.501 L
828.5 223.5 L
cp
S
GR
GS
[1 0 0 1 849.5 239.5] CT
/Helvetica 12.6 F
GS
[1 0 0 1 0 0] CT
0 5 moveto 
1 -1 scale
(p = 3) t 
GR
GR
GS
1 0 1 RC
1 LJ
0.5 LW
N
816.5 239.5 M
846.5 239.5 L
S
GR
GS
1 0 1 RC
1 LJ
N
828 239.5 M
835 239.5 L
S
GR
GS
1 0 1 RC
1 LJ
N
831.5 243 M
831.5 236 L
S
GR
GS
1 0 1 RC
1 LJ
N
829 242 M
834 237 L
S
GR
GS
1 0 1 RC
1 LJ
N
829 237 M
834 242 L
S
GR
GS
[1 0 0 1 849.5 255] CT
/Helvetica 12.6 F
GS
[1 0 0 1 0 0] CT
0 5 moveto 
1 -1 scale
(p = 4) t 
GR
GR
GS
0 1 0 RC
1 LJ
0.5 LW
N
816.5 255 M
846.5 255 L
S
GR
GS
0 1 0 RC
1 LJ
N
829 258 M
834 253 L
S
GR
GS
0 1 0 RC
1 LJ
N
829 253 M
834 258 L
S
GR
GS
[1 0 0 1 849.5 270.5] CT
/Helvetica 12.6 F
GS
[1 0 0 1 0 0] CT
0 5 moveto 
1 -1 scale
(p = 5) t 
GR
GR
GS
1 1 0 RC
1 LJ
0.5 LW
N
816.5 270.5 M
846.5 270.5 L
S
GR
GS
1 1 0 RC
10.0 ML
N
829.16 272.84 M
829.16 268.16 L
833.84 268.16 L
833.84 272.84 L
cp
S
GR
GS
[1 0 0 1 849.5 286] CT
/Helvetica 12.6 F
GS
[1 0 0 1 0 0] CT
0 5 moveto 
1 -1 scale
(p = 6) t 
GR
GR
GS
0 1 1 RC
1 LJ
0.5 LW
N
816.5 286 M
846.5 286 L
S
GR
GS
0 1 1 RC
10.0 ML
N
828.647 285.573 M
830.795 285.573 L
831.5 283.5 L
832.205 285.573 L
834.353 285.573 L
832.641 286.871 L
833.263 288.927 L
831.5 287.7 L
829.737 288.927 L
830.359 286.871 L
cp
S
GR
GS
0.149 GC
10.0 ML
0.5 LW
N
812.5 295.5 M
812.5 183.5 L
882.5 183.5 L
882.5 295.5 L
cp
S
GR
GS
1 GC
N
996 301.5 M
1303 301.5 L
1303 54.5 L
996 54.5 L
cp
f
GR
GS
0.873 GC
1 LJ
0.5 LW
N
996 301.5 M
996 54.5 L
S
GR
GS
0.873 GC
1 LJ
0.5 LW
N
1098.333 301.5 M
1098.333 54.5 L
S
GR
GS
0.873 GC
1 LJ
0.5 LW
N
1200.667 301.5 M
1200.667 54.5 L
S
GR
GS
0.873 GC
1 LJ
0.5 LW
N
1303 301.5 M
1303 54.5 L
S
GR
GS
0.873 GC
1 LJ
0.5 LW
N
1303 286.971 M
996 286.971 L
S
GR
GS
0.873 GC
1 LJ
0.5 LW
N
1303 257.912 M
996 257.912 L
S
GR
GS
0.873 GC
1 LJ
0.5 LW
N
1303 228.853 M
996 228.853 L
S
GR
GS
0.873 GC
1 LJ
0.5 LW
N
1303 199.794 M
996 199.794 L
S
GR
GS
0.873 GC
1 LJ
0.5 LW
N
1303 170.735 M
996 170.735 L
S
GR
GS
0.873 GC
1 LJ
0.5 LW
N
1303 141.676 M
996 141.676 L
S
GR
GS
0.873 GC
1 LJ
0.5 LW
N
1303 112.618 M
996 112.618 L
S
GR
GS
0.873 GC
1 LJ
0.5 LW
N
1303 83.559 M
996 83.559 L
S
GR
GS
0.873 GC
1 LJ
0.5 LW
N
1303 54.5 M
996 54.5 L
S
GR
GS
0.149 GC
2 setlinecap
1 LJ
0.5 LW
N
996 301.5 M
1303 301.5 L
S
GR
GS
0.149 GC
2 setlinecap
1 LJ
0.5 LW
N
996 301.5 M
996 298.43 L
S
GR
GS
0.149 GC
2 setlinecap
1 LJ
0.5 LW
N
1098.333 301.5 M
1098.333 298.43 L
S
GR
GS
0.149 GC
2 setlinecap
1 LJ
0.5 LW
N
1200.667 301.5 M
1200.667 298.43 L
S
GR
GS
0.149 GC
2 setlinecap
1 LJ
0.5 LW
N
1303 301.5 M
1303 298.43 L
S
GR
GS
[1 0 0 1 996 306.29999] CT
0.149 GC
/Helvetica 14 F
GS
[1 0 0 1 0 0] CT
-7 14 moveto 
1 -1 scale
(-2) t 
GR
GR
GS
[1 0 0 1 1098.33337 306.29999] CT
0.149 GC
/Helvetica 14 F
GS
[1 0 0 1 0 0] CT
-12.5 14 moveto 
1 -1 scale
(-1.5) t 
GR
GR
GS
[1 0 0 1 1200.66663 306.29999] CT
0.149 GC
/Helvetica 14 F
GS
[1 0 0 1 0 0] CT
-7 14 moveto 
1 -1 scale
(-1) t 
GR
GR
GS
[1 0 0 1 1303 306.29999] CT
0.149 GC
/Helvetica 14 F
GS
[1 0 0 1 0 0] CT
-12.5 14 moveto 
1 -1 scale
(-0.5) t 
GR
GR
GS
[1 0 0 1 1099 339] CT
0.149 GC
/Helvetica 15 F
GS
[1 0 0 1 0 0] CT
0 0 moveto 
1 -1 scale
(1/nElem [log) t 
GR
GR
GS
[1 0 0 1 1183 346] CT
0.149 GC
/Helvetica 12 F
GS
[1 0 0 1 0 0] CT
0 0 moveto 
1 -1 scale
(10) t 
GR
GR
GS
[1 0 0 1 1197 339] CT
0.149 GC
/Helvetica 15 F
GS
[1 0 0 1 0 0] CT
0 0 moveto 
1 -1 scale
(]) t 
GR
GR
GS
0.149 GC
2 setlinecap
1 LJ
0.5 LW
N
996 301.5 M
996 54.5 L
S
GR
GS
0.149 GC
2 setlinecap
1 LJ
0.5 LW
N
996 286.971 M
999.07 286.971 L
S
GR
GS
0.149 GC
2 setlinecap
1 LJ
0.5 LW
N
996 257.912 M
999.07 257.912 L
S
GR
GS
0.149 GC
2 setlinecap
1 LJ
0.5 LW
N
996 228.853 M
999.07 228.853 L
S
GR
GS
0.149 GC
2 setlinecap
1 LJ
0.5 LW
N
996 199.794 M
999.07 199.794 L
S
GR
GS
0.149 GC
2 setlinecap
1 LJ
0.5 LW
N
996 170.735 M
999.07 170.735 L
S
GR
GS
0.149 GC
2 setlinecap
1 LJ
0.5 LW
N
996 141.676 M
999.07 141.676 L
S
GR
GS
0.149 GC
2 setlinecap
1 LJ
0.5 LW
N
996 112.618 M
999.07 112.618 L
S
GR
GS
0.149 GC
2 setlinecap
1 LJ
0.5 LW
N
996 83.559 M
999.07 83.559 L
S
GR
GS
0.149 GC
2 setlinecap
1 LJ
0.5 LW
N
996 54.5 M
999.07 54.5 L
S
GR
GS
[1 0 0 1 991.20001 286.97058] CT
0.149 GC
/Helvetica 14 F
GS
[1 0 0 1 0 0] CT
-22 5.5 moveto 
1 -1 scale
(-16) t 
GR
GR
GS
[1 0 0 1 991.20001 257.91177] CT
0.149 GC
/Helvetica 14 F
GS
[1 0 0 1 0 0] CT
-22 5.5 moveto 
1 -1 scale
(-14) t 
GR
GR
GS
[1 0 0 1 991.20001 228.85294] CT
0.149 GC
/Helvetica 14 F
GS
[1 0 0 1 0 0] CT
-22 5.5 moveto 
1 -1 scale
(-12) t 
GR
GR
GS
[1 0 0 1 991.20001 199.79411] CT
0.149 GC
/Helvetica 14 F
GS
[1 0 0 1 0 0] CT
-22 5.5 moveto 
1 -1 scale
(-10) t 
GR
GR
GS
[1 0 0 1 991.20001 170.73529] CT
0.149 GC
/Helvetica 14 F
GS
[1 0 0 1 0 0] CT
-14 5.5 moveto 
1 -1 scale
(-8) t 
GR
GR
GS
[1 0 0 1 991.20001 141.67647] CT
0.149 GC
/Helvetica 14 F
GS
[1 0 0 1 0 0] CT
-14 5.5 moveto 
1 -1 scale
(-6) t 
GR
GR
GS
[1 0 0 1 991.20001 112.61765] CT
0.149 GC
/Helvetica 14 F
GS
[1 0 0 1 0 0] CT
-14 5.5 moveto 
1 -1 scale
(-4) t 
GR
GR
GS
[1 0 0 1 991.20001 83.55882] CT
0.149 GC
/Helvetica 14 F
GS
[1 0 0 1 0 0] CT
-14 5.5 moveto 
1 -1 scale
(-2) t 
GR
GR
GS
[1 0 0 1 991.20001 54.5] CT
0.149 GC
/Helvetica 14 F
GS
[1 0 0 1 0 0] CT
-8 5.5 moveto 
1 -1 scale
(0) t 
GR
GR
GS
[0 -1 1 0 957 257] CT
0.149 GC
/Helvetica 15 F
GS
[1 0 0 1 0 0] CT
0 0 moveto 
1 -1 scale
(Solution L) t 
GR
GR
GS
[0 -1 1 0 964 189] CT
0.149 GC
/Helvetica 12 F
GS
[1 0 0 1 0 0] CT
0 0 moveto 
1 -1 scale
(2) t 
GR
GR
GS
[0 -1 1 0 957 182] CT
0.149 GC
/Helvetica 15 F
GS
[1 0 0 1 0 0] CT
0 0 moveto 
1 -1 scale
( error [log) t 
GR
GR
GS
[0 -1 1 0 964 117] CT
0.149 GC
/Helvetica 12 F
GS
[1 0 0 1 0 0] CT
0 0 moveto 
1 -1 scale
(10) t 
GR
GR
GS
[0 -1 1 0 957 103] CT
0.149 GC
/Helvetica 15 F
GS
[1 0 0 1 0 0] CT
0 0 moveto 
1 -1 scale
(]) t 
GR
GR
GS
[1 0 0 1 1149.5011 52.575] CT
/Helvetica-Bold 15.4 F
GS
[1 0 0 1 0 0] CT
-26.5 -4 moveto 
1 -1 scale
(Q3 grid) t 
GR
GR
GS
1 0 0 RC
1 LJ
0.5 LW
N
1282.112 58.06 M
1220.501 62.873 L
1158.89 67.597 L
1097.279 72.193 L
1035.668 76.692 L
S
GR
GS
1 0 0 RC
1 LJ
N
1279 58.5 M
1286 58.5 L
S
GR
GS
1 0 0 RC
1 LJ
N
1282.5 62 M
1282.5 55 L
S
GR
GS
1 0 0 RC
1 LJ
N
1217 62.5 M
1224 62.5 L
S
GR
GS
1 0 0 RC
1 LJ
N
1220.5 66 M
1220.5 59 L
S
GR
GS
1 0 0 RC
1 LJ
N
1155 67.5 M
1162 67.5 L
S
GR
GS
1 0 0 RC
1 LJ
N
1158.5 71 M
1158.5 64 L
S
GR
GS
1 0 0 RC
1 LJ
N
1094 72.5 M
1101 72.5 L
S
GR
GS
1 0 0 RC
1 LJ
N
1097.5 76 M
1097.5 69 L
S
GR
GS
1 0 0 RC
1 LJ
N
1032 76.5 M
1039 76.5 L
S
GR
GS
1 0 0 RC
1 LJ
N
1035.5 80 M
1035.5 73 L
S
GR
GS
0 0 1 RC
1 LJ
0.5 LW
N
1282.112 72.645 M
1220.501 81.126 L
1158.89 89.821 L
1097.279 98.563 L
1035.668 107.313 L
S
GR
GS
0 0 1 RC
1 LJ
N
1285.5 72.5 M
1284.621 70.379 L
1282.5 69.5 L
1280.379 70.379 L
1279.5 72.5 L
1280.379 74.621 L
1282.5 75.5 L
1284.621 74.621 L
cp
S
GR
GS
0 0 1 RC
1 LJ
N
1223.5 81.5 M
1222.621 79.379 L
1220.5 78.5 L
1218.379 79.379 L
1217.5 81.5 L
1218.379 83.621 L
1220.5 84.5 L
1222.621 83.621 L
cp
S
GR
GS
0 0 1 RC
1 LJ
N
1161.5 89.5 M
1160.621 87.379 L
1158.5 86.5 L
1156.379 87.379 L
1155.5 89.5 L
1156.379 91.621 L
1158.5 92.5 L
1160.621 91.621 L
cp
S
GR
GS
0 0 1 RC
1 LJ
N
1100.5 98.5 M
1099.621 96.379 L
1097.5 95.5 L
1095.379 96.379 L
1094.5 98.5 L
1095.379 100.621 L
1097.5 101.5 L
1099.621 100.621 L
cp
S
GR
GS
0 0 1 RC
1 LJ
N
1038.5 107.5 M
1037.621 105.379 L
1035.5 104.5 L
1033.379 105.379 L
1032.5 107.5 L
1033.379 109.621 L
1035.5 110.5 L
1037.621 109.621 L
cp
S
GR
GS
1 LJ
0.5 LW
N
1282.112 87.128 M
1220.501 100.097 L
1158.89 113.238 L
1097.279 126.399 L
1035.668 139.547 L
S
GR
GS
10.0 ML
N
1282.5 91.499 M
1285.5 87.5 L
1282.5 83.501 L
1279.5 87.5 L
cp
S
GR
GS
10.0 ML
N
1220.5 104.499 M
1223.5 100.5 L
1220.5 96.501 L
1217.5 100.5 L
cp
S
GR
GS
10.0 ML
N
1158.5 117.499 M
1161.5 113.5 L
1158.5 109.501 L
1155.5 113.5 L
cp
S
GR
GS
10.0 ML
N
1097.5 130.499 M
1100.5 126.5 L
1097.5 122.501 L
1094.5 126.5 L
cp
S
GR
GS
10.0 ML
N
1035.5 143.499 M
1038.5 139.5 L
1035.5 135.501 L
1032.5 139.5 L
cp
S
GR
GS
1 0 1 RC
1 LJ
0.5 LW
N
1282.112 103.67 M
1220.501 120.798 L
1158.89 138.217 L
1097.279 155.702 L
1035.668 173.199 L
S
GR
GS
1 0 1 RC
1 LJ
N
1279 103.5 M
1286 103.5 L
S
GR
GS
1 0 1 RC
1 LJ
N
1282.5 107 M
1282.5 100 L
S
GR
GS
1 0 1 RC
1 LJ
N
1280 106 M
1285 101 L
S
GR
GS
1 0 1 RC
1 LJ
N
1280 101 M
1285 106 L
S
GR
GS
1 0 1 RC
1 LJ
N
1217 120.5 M
1224 120.5 L
S
GR
GS
1 0 1 RC
1 LJ
N
1220.5 124 M
1220.5 117 L
S
GR
GS
1 0 1 RC
1 LJ
N
1218 123 M
1223 118 L
S
GR
GS
1 0 1 RC
1 LJ
N
1218 118 M
1223 123 L
S
GR
GS
1 0 1 RC
1 LJ
N
1155 138.5 M
1162 138.5 L
S
GR
GS
1 0 1 RC
1 LJ
N
1158.5 142 M
1158.5 135 L
S
GR
GS
1 0 1 RC
1 LJ
N
1156 141 M
1161 136 L
S
GR
GS
1 0 1 RC
1 LJ
N
1156 136 M
1161 141 L
S
GR
GS
1 0 1 RC
1 LJ
N
1094 155.5 M
1101 155.5 L
S
GR
GS
1 0 1 RC
1 LJ
N
1097.5 159 M
1097.5 152 L
S
GR
GS
1 0 1 RC
1 LJ
N
1095 158 M
1100 153 L
S
GR
GS
1 0 1 RC
1 LJ
N
1095 153 M
1100 158 L
S
GR
GS
1 0 1 RC
1 LJ
N
1032 173.5 M
1039 173.5 L
S
GR
GS
1 0 1 RC
1 LJ
N
1035.5 177 M
1035.5 170 L
S
GR
GS
1 0 1 RC
1 LJ
N
1033 176 M
1038 171 L
S
GR
GS
1 0 1 RC
1 LJ
N
1033 171 M
1038 176 L
S
GR
GS
0 1 0 RC
1 LJ
0.5 LW
N
1282.112 121.149 M
1220.501 142.846 L
1158.89 164.706 L
1097.279 186.59 L
1035.668 208.443 L
S
GR
GS
0 1 0 RC
1 LJ
N
1280 124 M
1285 119 L
S
GR
GS
0 1 0 RC
1 LJ
N
1280 119 M
1285 124 L
S
GR
GS
0 1 0 RC
1 LJ
N
1218 145 M
1223 140 L
S
GR
GS
0 1 0 RC
1 LJ
N
1218 140 M
1223 145 L
S
GR
GS
0 1 0 RC
1 LJ
N
1156 167 M
1161 162 L
S
GR
GS
0 1 0 RC
1 LJ
N
1156 162 M
1161 167 L
S
GR
GS
0 1 0 RC
1 LJ
N
1095 189 M
1100 184 L
S
GR
GS
0 1 0 RC
1 LJ
N
1095 184 M
1100 189 L
S
GR
GS
0 1 0 RC
1 LJ
N
1033 211 M
1038 206 L
S
GR
GS
0 1 0 RC
1 LJ
N
1033 206 M
1038 211 L
S
GR
GS
1 1 0 RC
1 LJ
0.5 LW
N
1282.112 140.761 M
1220.501 165.162 L
1158.89 184.861 L
1097.279 202.609 L
1035.668 220.154 L
S
GR
GS
1 1 0 RC
10.0 ML
N
1280.16 142.84 M
1280.16 138.16 L
1284.84 138.16 L
1284.84 142.84 L
cp
S
GR
GS
1 1 0 RC
10.0 ML
N
1218.16 167.84 M
1218.16 163.16 L
1222.84 163.16 L
1222.84 167.84 L
cp
S
GR
GS
1 1 0 RC
10.0 ML
N
1156.16 186.84 M
1156.16 182.16 L
1160.84 182.16 L
1160.84 186.84 L
cp
S
GR
GS
1 1 0 RC
10.0 ML
N
1095.16 204.84 M
1095.16 200.16 L
1099.84 200.16 L
1099.84 204.84 L
cp
S
GR
GS
1 1 0 RC
10.0 ML
N
1033.16 222.84 M
1033.16 218.16 L
1037.84 218.16 L
1037.84 222.84 L
cp
S
GR
GS
0 1 1 RC
1 LJ
0.5 LW
N
1282.112 150.45 M
1220.501 167.614 L
1158.89 185.122 L
1097.279 202.65 L
1035.668 220.168 L
S
GR
GS
0 1 1 RC
10.0 ML
N
1279.647 149.573 M
1281.795 149.573 L
1282.5 147.5 L
1283.205 149.573 L
1285.353 149.573 L
1283.641 150.871 L
1284.263 152.927 L
1282.5 151.7 L
1280.737 152.927 L
1281.359 150.871 L
cp
S
GR
GS
0 1 1 RC
10.0 ML
N
1217.647 166.573 M
1219.795 166.573 L
1220.5 164.5 L
1221.205 166.573 L
1223.353 166.573 L
1221.641 167.871 L
1222.263 169.927 L
1220.5 168.7 L
1218.737 169.927 L
1219.359 167.871 L
cp
S
GR
GS
0 1 1 RC
10.0 ML
N
1155.647 184.573 M
1157.795 184.573 L
1158.5 182.5 L
1159.205 184.573 L
1161.353 184.573 L
1159.641 185.871 L
1160.263 187.927 L
1158.5 186.7 L
1156.737 187.927 L
1157.359 185.871 L
cp
S
GR
GS
0 1 1 RC
10.0 ML
N
1094.647 201.573 M
1096.795 201.573 L
1097.5 199.5 L
1098.205 201.573 L
1100.353 201.573 L
1098.641 202.871 L
1099.263 204.927 L
1097.5 203.7 L
1095.737 204.927 L
1096.359 202.871 L
cp
S
GR
GS
0 1 1 RC
10.0 ML
N
1032.647 219.573 M
1034.795 219.573 L
1035.5 217.5 L
1036.205 219.573 L
1038.353 219.573 L
1036.641 220.871 L
1037.263 222.927 L
1035.5 221.7 L
1033.737 222.927 L
1034.359 220.871 L
cp
S
GR
GS
1 GC
N
1217 295.5 M
1217 183.5 L
1287 183.5 L
1287 295.5 L
cp
f
GR
GS
[1 0 0 1 1254 193] CT
/Helvetica 12.6 F
GS
[1 0 0 1 0 0] CT
0 5 moveto 
1 -1 scale
(p = 0) t 
GR
GR
GS
1 0 0 RC
1 LJ
0.5 LW
N
1221 193 M
1251 193 L
S
GR
GS
1 0 0 RC
1 LJ
N
1233 192.5 M
1240 192.5 L
S
GR
GS
1 0 0 RC
1 LJ
N
1236.5 196 M
1236.5 189 L
S
GR
GS
[1 0 0 1 1254 208.5] CT
/Helvetica 12.6 F
GS
[1 0 0 1 0 0] CT
0 5 moveto 
1 -1 scale
(p = 1) t 
GR
GR
GS
0 0 1 RC
1 LJ
0.5 LW
N
1221 208.5 M
1251 208.5 L
S
GR
GS
0 0 1 RC
1 LJ
N
1239.5 208.5 M
1238.621 206.379 L
1236.5 205.5 L
1234.379 206.379 L
1233.5 208.5 L
1234.379 210.621 L
1236.5 211.5 L
1238.621 210.621 L
cp
S
GR
GS
[1 0 0 1 1254 224] CT
/Helvetica 12.6 F
GS
[1 0 0 1 0 0] CT
0 5 moveto 
1 -1 scale
(p = 2) t 
GR
GR
GS
1 LJ
0.5 LW
N
1221 224 M
1251 224 L
S
GR
GS
10.0 ML
N
1236.5 227.499 M
1239.5 223.5 L
1236.5 219.501 L
1233.5 223.5 L
cp
S
GR
GS
[1 0 0 1 1254 239.5] CT
/Helvetica 12.6 F
GS
[1 0 0 1 0 0] CT
0 5 moveto 
1 -1 scale
(p = 3) t 
GR
GR
GS
1 0 1 RC
1 LJ
0.5 LW
N
1221 239.5 M
1251 239.5 L
S
GR
GS
1 0 1 RC
1 LJ
N
1233 239.5 M
1240 239.5 L
S
GR
GS
1 0 1 RC
1 LJ
N
1236.5 243 M
1236.5 236 L
S
GR
GS
1 0 1 RC
1 LJ
N
1234 242 M
1239 237 L
S
GR
GS
1 0 1 RC
1 LJ
N
1234 237 M
1239 242 L
S
GR
GS
[1 0 0 1 1254 255] CT
/Helvetica 12.6 F
GS
[1 0 0 1 0 0] CT
0 5 moveto 
1 -1 scale
(p = 4) t 
GR
GR
GS
0 1 0 RC
1 LJ
0.5 LW
N
1221 255 M
1251 255 L
S
GR
GS
0 1 0 RC
1 LJ
N
1234 258 M
1239 253 L
S
GR
GS
0 1 0 RC
1 LJ
N
1234 253 M
1239 258 L
S
GR
GS
[1 0 0 1 1254 270.5] CT
/Helvetica 12.6 F
GS
[1 0 0 1 0 0] CT
0 5 moveto 
1 -1 scale
(p = 5) t 
GR
GR
GS
1 1 0 RC
1 LJ
0.5 LW
N
1221 270.5 M
1251 270.5 L
S
GR
GS
1 1 0 RC
10.0 ML
N
1234.16 272.84 M
1234.16 268.16 L
1238.84 268.16 L
1238.84 272.84 L
cp
S
GR
GS
[1 0 0 1 1254 286] CT
/Helvetica 12.6 F
GS
[1 0 0 1 0 0] CT
0 5 moveto 
1 -1 scale
(p = 6) t 
GR
GR
GS
0 1 1 RC
1 LJ
0.5 LW
N
1221 286 M
1251 286 L
S
GR
GS
0 1 1 RC
10.0 ML
N
1233.647 285.573 M
1235.795 285.573 L
1236.5 283.5 L
1237.205 285.573 L
1239.353 285.573 L
1237.641 286.871 L
1238.263 288.927 L
1236.5 287.7 L
1234.737 288.927 L
1235.359 286.871 L
cp
S
GR
GS
0.149 GC
10.0 ML
0.5 LW
N
1217 295.5 M
1217 183.5 L
1287 183.5 L
1287 295.5 L
cp
S
GR
GS
1 GC
N
187 644.5 M
494.5 644.5 L
494.5 397.5 L
187 397.5 L
cp
f
GR
GS
0.873 GC
1 LJ
0.5 LW
N
187 644.5 M
187 397.5 L
S
GR
GS
0.873 GC
1 LJ
0.5 LW
N
289.5 644.5 M
289.5 397.5 L
S
GR
GS
0.873 GC
1 LJ
0.5 LW
N
392 644.5 M
392 397.5 L
S
GR
GS
0.873 GC
1 LJ
0.5 LW
N
494.5 644.5 M
494.5 397.5 L
S
GR
GS
0.873 GC
1 LJ
0.5 LW
N
494.5 629.971 M
187 629.971 L
S
GR
GS
0.873 GC
1 LJ
0.5 LW
N
494.5 600.912 M
187 600.912 L
S
GR
GS
0.873 GC
1 LJ
0.5 LW
N
494.5 571.853 M
187 571.853 L
S
GR
GS
0.873 GC
1 LJ
0.5 LW
N
494.5 542.794 M
187 542.794 L
S
GR
GS
0.873 GC
1 LJ
0.5 LW
N
494.5 513.735 M
187 513.735 L
S
GR
GS
0.873 GC
1 LJ
0.5 LW
N
494.5 484.676 M
187 484.676 L
S
GR
GS
0.873 GC
1 LJ
0.5 LW
N
494.5 455.618 M
187 455.618 L
S
GR
GS
0.873 GC
1 LJ
0.5 LW
N
494.5 426.559 M
187 426.559 L
S
GR
GS
0.873 GC
1 LJ
0.5 LW
N
494.5 397.5 M
187 397.5 L
S
GR
GS
0.149 GC
2 setlinecap
1 LJ
0.5 LW
N
187 644.5 M
494.5 644.5 L
S
GR
GS
0.149 GC
2 setlinecap
1 LJ
0.5 LW
N
187 644.5 M
187 641.425 L
S
GR
GS
0.149 GC
2 setlinecap
1 LJ
0.5 LW
N
289.5 644.5 M
289.5 641.425 L
S
GR
GS
0.149 GC
2 setlinecap
1 LJ
0.5 LW
N
392 644.5 M
392 641.425 L
S
GR
GS
0.149 GC
2 setlinecap
1 LJ
0.5 LW
N
494.5 644.5 M
494.5 641.425 L
S
GR
GS
[1 0 0 1 187 649.29999] CT
0.149 GC
/Helvetica 14 F
GS
[1 0 0 1 0 0] CT
-7 14 moveto 
1 -1 scale
(-2) t 
GR
GR
GS
[1 0 0 1 289.5 649.29999] CT
0.149 GC
/Helvetica 14 F
GS
[1 0 0 1 0 0] CT
-12.5 14 moveto 
1 -1 scale
(-1.5) t 
GR
GR
GS
[1 0 0 1 392 649.29999] CT
0.149 GC
/Helvetica 14 F
GS
[1 0 0 1 0 0] CT
-7 14 moveto 
1 -1 scale
(-1) t 
GR
GR
GS
[1 0 0 1 494.5 649.29999] CT
0.149 GC
/Helvetica 14 F
GS
[1 0 0 1 0 0] CT
-12.5 14 moveto 
1 -1 scale
(-0.5) t 
GR
GR
GS
[1 0 0 1 290 682] CT
0.149 GC
/Helvetica 15 F
GS
[1 0 0 1 0 0] CT
0 0 moveto 
1 -1 scale
(1/nElem [log) t 
GR
GR
GS
[1 0 0 1 374 689] CT
0.149 GC
/Helvetica 12 F
GS
[1 0 0 1 0 0] CT
0 0 moveto 
1 -1 scale
(10) t 
GR
GR
GS
[1 0 0 1 388 682] CT
0.149 GC
/Helvetica 15 F
GS
[1 0 0 1 0 0] CT
0 0 moveto 
1 -1 scale
(]) t 
GR
GR
GS
0.149 GC
2 setlinecap
1 LJ
0.5 LW
N
187 644.5 M
187 397.5 L
S
GR
GS
0.149 GC
2 setlinecap
1 LJ
0.5 LW
N
187 629.971 M
190.075 629.971 L
S
GR
GS
0.149 GC
2 setlinecap
1 LJ
0.5 LW
N
187 600.912 M
190.075 600.912 L
S
GR
GS
0.149 GC
2 setlinecap
1 LJ
0.5 LW
N
187 571.853 M
190.075 571.853 L
S
GR
GS
0.149 GC
2 setlinecap
1 LJ
0.5 LW
N
187 542.794 M
190.075 542.794 L
S
GR
GS
0.149 GC
2 setlinecap
1 LJ
0.5 LW
N
187 513.735 M
190.075 513.735 L
S
GR
GS
0.149 GC
2 setlinecap
1 LJ
0.5 LW
N
187 484.676 M
190.075 484.676 L
S
GR
GS
0.149 GC
2 setlinecap
1 LJ
0.5 LW
N
187 455.618 M
190.075 455.618 L
S
GR
GS
0.149 GC
2 setlinecap
1 LJ
0.5 LW
N
187 426.559 M
190.075 426.559 L
S
GR
GS
0.149 GC
2 setlinecap
1 LJ
0.5 LW
N
187 397.5 M
190.075 397.5 L
S
GR
GS
[1 0 0 1 182.20001 629.97058] CT
0.149 GC
/Helvetica 14 F
GS
[1 0 0 1 0 0] CT
-22 5.5 moveto 
1 -1 scale
(-16) t 
GR
GR
GS
[1 0 0 1 182.20001 600.91174] CT
0.149 GC
/Helvetica 14 F
GS
[1 0 0 1 0 0] CT
-22 5.5 moveto 
1 -1 scale
(-14) t 
GR
GR
GS
[1 0 0 1 182.20001 571.85297] CT
0.149 GC
/Helvetica 14 F
GS
[1 0 0 1 0 0] CT
-22 5.5 moveto 
1 -1 scale
(-12) t 
GR
GR
GS
[1 0 0 1 182.20001 542.79413] CT
0.149 GC
/Helvetica 14 F
GS
[1 0 0 1 0 0] CT
-22 5.5 moveto 
1 -1 scale
(-10) t 
GR
GR
GS
[1 0 0 1 182.20001 513.73529] CT
0.149 GC
/Helvetica 14 F
GS
[1 0 0 1 0 0] CT
-14 5.5 moveto 
1 -1 scale
(-8) t 
GR
GR
GS
[1 0 0 1 182.20001 484.67648] CT
0.149 GC
/Helvetica 14 F
GS
[1 0 0 1 0 0] CT
-14 5.5 moveto 
1 -1 scale
(-6) t 
GR
GR
GS
[1 0 0 1 182.20001 455.61765] CT
0.149 GC
/Helvetica 14 F
GS
[1 0 0 1 0 0] CT
-14 5.5 moveto 
1 -1 scale
(-4) t 
GR
GR
GS
[1 0 0 1 182.20001 426.55884] CT
0.149 GC
/Helvetica 14 F
GS
[1 0 0 1 0 0] CT
-14 5.5 moveto 
1 -1 scale
(-2) t 
GR
GR
GS
[1 0 0 1 182.20001 397.5] CT
0.149 GC
/Helvetica 14 F
GS
[1 0 0 1 0 0] CT
-8 5.5 moveto 
1 -1 scale
(0) t 
GR
GR
GS
[0 -1 1 0 148 600] CT
0.149 GC
/Helvetica 15 F
GS
[1 0 0 1 0 0] CT
0 0 moveto 
1 -1 scale
(Solution L) t 
GR
GR
GS
[0 -1 1 0 155 532] CT
0.149 GC
/Helvetica 12 F
GS
[1 0 0 1 0 0] CT
0 0 moveto 
1 -1 scale
(2) t 
GR
GR
GS
[0 -1 1 0 148 525] CT
0.149 GC
/Helvetica 15 F
GS
[1 0 0 1 0 0] CT
0 0 moveto 
1 -1 scale
( error [log) t 
GR
GR
GS
[0 -1 1 0 155 460] CT
0.149 GC
/Helvetica 12 F
GS
[1 0 0 1 0 0] CT
0 0 moveto 
1 -1 scale
(10) t 
GR
GR
GS
[0 -1 1 0 148 446] CT
0.149 GC
/Helvetica 15 F
GS
[1 0 0 1 0 0] CT
0 0 moveto 
1 -1 scale
(]) t 
GR
GR
GS
[1 0 0 1 340.75031 395.57501] CT
/Helvetica-Bold 15.4 F
GS
[1 0 0 1 0 0] CT
-26.5 -4 moveto 
1 -1 scale
(Q4 grid) t 
GR
GR
GS
1 0 0 RC
1 LJ
0.5 LW
N
473.578 401.06 M
411.867 405.873 L
350.155 410.597 L
288.444 415.193 L
226.733 419.692 L
S
GR
GS
1 0 0 RC
1 LJ
N
470 401.5 M
477 401.5 L
S
GR
GS
1 0 0 RC
1 LJ
N
473.5 405 M
473.5 398 L
S
GR
GS
1 0 0 RC
1 LJ
N
408 405.5 M
415 405.5 L
S
GR
GS
1 0 0 RC
1 LJ
N
411.5 409 M
411.5 402 L
S
GR
GS
1 0 0 RC
1 LJ
N
347 410.5 M
354 410.5 L
S
GR
GS
1 0 0 RC
1 LJ
N
350.5 414 M
350.5 407 L
S
GR
GS
1 0 0 RC
1 LJ
N
285 415.5 M
292 415.5 L
S
GR
GS
1 0 0 RC
1 LJ
N
288.5 419 M
288.5 412 L
S
GR
GS
1 0 0 RC
1 LJ
N
223 419.5 M
230 419.5 L
S
GR
GS
1 0 0 RC
1 LJ
N
226.5 423 M
226.5 416 L
S
GR
GS
0 0 1 RC
1 LJ
0.5 LW
N
473.578 415.645 M
411.867 424.126 L
350.155 432.821 L
288.444 441.563 L
226.733 450.313 L
S
GR
GS
0 0 1 RC
1 LJ
N
476.5 415.5 M
475.621 413.379 L
473.5 412.5 L
471.379 413.379 L
470.5 415.5 L
471.379 417.621 L
473.5 418.5 L
475.621 417.621 L
cp
S
GR
GS
0 0 1 RC
1 LJ
N
414.5 424.5 M
413.621 422.379 L
411.5 421.5 L
409.379 422.379 L
408.5 424.5 L
409.379 426.621 L
411.5 427.5 L
413.621 426.621 L
cp
S
GR
GS
0 0 1 RC
1 LJ
N
353.5 432.5 M
352.621 430.379 L
350.5 429.5 L
348.379 430.379 L
347.5 432.5 L
348.379 434.621 L
350.5 435.5 L
352.621 434.621 L
cp
S
GR
GS
0 0 1 RC
1 LJ
N
291.5 441.5 M
290.621 439.379 L
288.5 438.5 L
286.379 439.379 L
285.5 441.5 L
286.379 443.621 L
288.5 444.5 L
290.621 443.621 L
cp
S
GR
GS
0 0 1 RC
1 LJ
N
229.5 450.5 M
228.621 448.379 L
226.5 447.5 L
224.379 448.379 L
223.5 450.5 L
224.379 452.621 L
226.5 453.5 L
228.621 452.621 L
cp
S
GR
GS
1 LJ
0.5 LW
N
473.578 430.128 M
411.867 443.097 L
350.155 456.238 L
288.444 469.399 L
226.733 482.547 L
S
GR
GS
10.0 ML
N
473.5 434.499 M
476.5 430.5 L
473.5 426.501 L
470.5 430.5 L
cp
S
GR
GS
10.0 ML
N
411.5 447.499 M
414.5 443.5 L
411.5 439.501 L
408.5 443.5 L
cp
S
GR
GS
10.0 ML
N
350.5 460.499 M
353.5 456.5 L
350.5 452.501 L
347.5 456.5 L
cp
S
GR
GS
10.0 ML
N
288.5 473.499 M
291.5 469.5 L
288.5 465.501 L
285.5 469.5 L
cp
S
GR
GS
10.0 ML
N
226.5 486.499 M
229.5 482.5 L
226.5 478.501 L
223.5 482.5 L
cp
S
GR
GS
1 0 1 RC
1 LJ
0.5 LW
N
473.578 446.671 M
411.867 463.798 L
350.155 481.217 L
288.444 498.702 L
226.733 516.199 L
S
GR
GS
1 0 1 RC
1 LJ
N
470 446.5 M
477 446.5 L
S
GR
GS
1 0 1 RC
1 LJ
N
473.5 450 M
473.5 443 L
S
GR
GS
1 0 1 RC
1 LJ
N
471 449 M
476 444 L
S
GR
GS
1 0 1 RC
1 LJ
N
471 444 M
476 449 L
S
GR
GS
1 0 1 RC
1 LJ
N
408 463.5 M
415 463.5 L
S
GR
GS
1 0 1 RC
1 LJ
N
411.5 467 M
411.5 460 L
S
GR
GS
1 0 1 RC
1 LJ
N
409 466 M
414 461 L
S
GR
GS
1 0 1 RC
1 LJ
N
409 461 M
414 466 L
S
GR
GS
1 0 1 RC
1 LJ
N
347 481.5 M
354 481.5 L
S
GR
GS
1 0 1 RC
1 LJ
N
350.5 485 M
350.5 478 L
S
GR
GS
1 0 1 RC
1 LJ
N
348 484 M
353 479 L
S
GR
GS
1 0 1 RC
1 LJ
N
348 479 M
353 484 L
S
GR
GS
1 0 1 RC
1 LJ
N
285 498.5 M
292 498.5 L
S
GR
GS
1 0 1 RC
1 LJ
N
288.5 502 M
288.5 495 L
S
GR
GS
1 0 1 RC
1 LJ
N
286 501 M
291 496 L
S
GR
GS
1 0 1 RC
1 LJ
N
286 496 M
291 501 L
S
GR
GS
1 0 1 RC
1 LJ
N
223 516.5 M
230 516.5 L
S
GR
GS
1 0 1 RC
1 LJ
N
226.5 520 M
226.5 513 L
S
GR
GS
1 0 1 RC
1 LJ
N
224 519 M
229 514 L
S
GR
GS
1 0 1 RC
1 LJ
N
224 514 M
229 519 L
S
GR
GS
0 1 0 RC
1 LJ
0.5 LW
N
473.578 464.154 M
411.867 485.841 L
350.155 507.693 L
288.444 529.575 L
226.733 551.456 L
S
GR
GS
0 1 0 RC
1 LJ
N
471 467 M
476 462 L
S
GR
GS
0 1 0 RC
1 LJ
N
471 462 M
476 467 L
S
GR
GS
0 1 0 RC
1 LJ
N
409 488 M
414 483 L
S
GR
GS
0 1 0 RC
1 LJ
N
409 483 M
414 488 L
S
GR
GS
0 1 0 RC
1 LJ
N
348 510 M
353 505 L
S
GR
GS
0 1 0 RC
1 LJ
N
348 505 M
353 510 L
S
GR
GS
0 1 0 RC
1 LJ
N
286 532 M
291 527 L
S
GR
GS
0 1 0 RC
1 LJ
N
286 527 M
291 532 L
S
GR
GS
0 1 0 RC
1 LJ
N
224 554 M
229 549 L
S
GR
GS
0 1 0 RC
1 LJ
N
224 549 M
229 554 L
S
GR
GS
1 1 0 RC
1 LJ
0.5 LW
N
473.578 483.836 M
411.867 509.857 L
350.155 536.051 L
288.444 562.285 L
226.733 588.511 L
S
GR
GS
1 1 0 RC
10.0 ML
N
471.16 485.84 M
471.16 481.16 L
475.84 481.16 L
475.84 485.84 L
cp
S
GR
GS
1 1 0 RC
10.0 ML
N
409.16 511.84 M
409.16 507.16 L
413.84 507.16 L
413.84 511.84 L
cp
S
GR
GS
1 1 0 RC
10.0 ML
N
348.16 538.84 M
348.16 534.16 L
352.84 534.16 L
352.84 538.84 L
cp
S
GR
GS
1 1 0 RC
10.0 ML
N
286.16 564.84 M
286.16 560.16 L
290.84 560.16 L
290.84 564.84 L
cp
S
GR
GS
1 1 0 RC
10.0 ML
N
224.16 590.84 M
224.16 586.16 L
228.84 586.16 L
228.84 590.84 L
cp
S
GR
GS
0 1 1 RC
1 LJ
0.5 LW
N
473.578 504.8 M
411.867 535.605 L
350.155 566.294 L
288.444 596.751 L
226.733 611.749 L
S
GR
GS
0 1 1 RC
10.0 ML
N
470.647 503.573 M
472.795 503.573 L
473.5 501.5 L
474.205 503.573 L
476.353 503.573 L
474.641 504.871 L
475.263 506.927 L
473.5 505.7 L
471.737 506.927 L
472.359 504.871 L
cp
S
GR
GS
0 1 1 RC
10.0 ML
N
408.647 534.573 M
410.795 534.573 L
411.5 532.5 L
412.205 534.573 L
414.353 534.573 L
412.641 535.871 L
413.263 537.927 L
411.5 536.7 L
409.737 537.927 L
410.359 535.871 L
cp
S
GR
GS
0 1 1 RC
10.0 ML
N
347.647 565.573 M
349.795 565.573 L
350.5 563.5 L
351.205 565.573 L
353.353 565.573 L
351.641 566.871 L
352.263 568.927 L
350.5 567.7 L
348.737 568.927 L
349.359 566.871 L
cp
S
GR
GS
0 1 1 RC
10.0 ML
N
285.647 595.573 M
287.795 595.573 L
288.5 593.5 L
289.205 595.573 L
291.353 595.573 L
289.641 596.871 L
290.263 598.927 L
288.5 597.7 L
286.737 598.927 L
287.359 596.871 L
cp
S
GR
GS
0 1 1 RC
10.0 ML
N
223.647 610.573 M
225.795 610.573 L
226.5 608.5 L
227.205 610.573 L
229.353 610.573 L
227.641 611.871 L
228.263 613.927 L
226.5 612.7 L
224.737 613.927 L
225.359 611.871 L
cp
S
GR
GS
1 GC
N
408.5 638.5 M
408.5 526.5 L
478.5 526.5 L
478.5 638.5 L
cp
f
GR
GS
[1 0 0 1 445.5 536] CT
/Helvetica 12.6 F
GS
[1 0 0 1 0 0] CT
0 5 moveto 
1 -1 scale
(p = 0) t 
GR
GR
GS
1 0 0 RC
1 LJ
0.5 LW
N
412.5 536 M
442.5 536 L
S
GR
GS
1 0 0 RC
1 LJ
N
424 535.5 M
431 535.5 L
S
GR
GS
1 0 0 RC
1 LJ
N
427.5 539 M
427.5 532 L
S
GR
GS
[1 0 0 1 445.5 551.5] CT
/Helvetica 12.6 F
GS
[1 0 0 1 0 0] CT
0 5 moveto 
1 -1 scale
(p = 1) t 
GR
GR
GS
0 0 1 RC
1 LJ
0.5 LW
N
412.5 551.5 M
442.5 551.5 L
S
GR
GS
0 0 1 RC
1 LJ
N
430.5 551.5 M
429.621 549.379 L
427.5 548.5 L
425.379 549.379 L
424.5 551.5 L
425.379 553.621 L
427.5 554.5 L
429.621 553.621 L
cp
S
GR
GS
[1 0 0 1 445.5 567] CT
/Helvetica 12.6 F
GS
[1 0 0 1 0 0] CT
0 5 moveto 
1 -1 scale
(p = 2) t 
GR
GR
GS
1 LJ
0.5 LW
N
412.5 567 M
442.5 567 L
S
GR
GS
10.0 ML
N
427.5 570.499 M
430.5 566.5 L
427.5 562.501 L
424.5 566.5 L
cp
S
GR
GS
[1 0 0 1 445.5 582.5] CT
/Helvetica 12.6 F
GS
[1 0 0 1 0 0] CT
0 5 moveto 
1 -1 scale
(p = 3) t 
GR
GR
GS
1 0 1 RC
1 LJ
0.5 LW
N
412.5 582.5 M
442.5 582.5 L
S
GR
GS
1 0 1 RC
1 LJ
N
424 582.5 M
431 582.5 L
S
GR
GS
1 0 1 RC
1 LJ
N
427.5 586 M
427.5 579 L
S
GR
GS
1 0 1 RC
1 LJ
N
425 585 M
430 580 L
S
GR
GS
1 0 1 RC
1 LJ
N
425 580 M
430 585 L
S
GR
GS
[1 0 0 1 445.5 598] CT
/Helvetica 12.6 F
GS
[1 0 0 1 0 0] CT
0 5 moveto 
1 -1 scale
(p = 4) t 
GR
GR
GS
0 1 0 RC
1 LJ
0.5 LW
N
412.5 598 M
442.5 598 L
S
GR
GS
0 1 0 RC
1 LJ
N
425 601 M
430 596 L
S
GR
GS
0 1 0 RC
1 LJ
N
425 596 M
430 601 L
S
GR
GS
[1 0 0 1 445.5 613.5] CT
/Helvetica 12.6 F
GS
[1 0 0 1 0 0] CT
0 5 moveto 
1 -1 scale
(p = 5) t 
GR
GR
GS
1 1 0 RC
1 LJ
0.5 LW
N
412.5 613.5 M
442.5 613.5 L
S
GR
GS
1 1 0 RC
10.0 ML
N
425.16 615.84 M
425.16 611.16 L
429.84 611.16 L
429.84 615.84 L
cp
S
GR
GS
[1 0 0 1 445.5 629] CT
/Helvetica 12.6 F
GS
[1 0 0 1 0 0] CT
0 5 moveto 
1 -1 scale
(p = 6) t 
GR
GR
GS
0 1 1 RC
1 LJ
0.5 LW
N
412.5 629 M
442.5 629 L
S
GR
GS
0 1 1 RC
10.0 ML
N
424.647 628.573 M
426.795 628.573 L
427.5 626.5 L
428.205 628.573 L
430.353 628.573 L
428.641 629.871 L
429.263 631.927 L
427.5 630.7 L
425.737 631.927 L
426.359 629.871 L
cp
S
GR
GS
0.149 GC
10.0 ML
0.5 LW
N
408.5 638.5 M
408.5 526.5 L
478.5 526.5 L
478.5 638.5 L
cp
S
GR
GS
1 GC
N
591.5 644.5 M
899 644.5 L
899 397.5 L
591.5 397.5 L
cp
f
GR
GS
0.873 GC
1 LJ
0.5 LW
N
591.5 644.5 M
591.5 397.5 L
S
GR
GS
0.873 GC
1 LJ
0.5 LW
N
694 644.5 M
694 397.5 L
S
GR
GS
0.873 GC
1 LJ
0.5 LW
N
796.5 644.5 M
796.5 397.5 L
S
GR
GS
0.873 GC
1 LJ
0.5 LW
N
899 644.5 M
899 397.5 L
S
GR
GS
0.873 GC
1 LJ
0.5 LW
N
899 629.971 M
591.5 629.971 L
S
GR
GS
0.873 GC
1 LJ
0.5 LW
N
899 600.912 M
591.5 600.912 L
S
GR
GS
0.873 GC
1 LJ
0.5 LW
N
899 571.853 M
591.5 571.853 L
S
GR
GS
0.873 GC
1 LJ
0.5 LW
N
899 542.794 M
591.5 542.794 L
S
GR
GS
0.873 GC
1 LJ
0.5 LW
N
899 513.735 M
591.5 513.735 L
S
GR
GS
0.873 GC
1 LJ
0.5 LW
N
899 484.676 M
591.5 484.676 L
S
GR
GS
0.873 GC
1 LJ
0.5 LW
N
899 455.618 M
591.5 455.618 L
S
GR
GS
0.873 GC
1 LJ
0.5 LW
N
899 426.559 M
591.5 426.559 L
S
GR
GS
0.873 GC
1 LJ
0.5 LW
N
899 397.5 M
591.5 397.5 L
S
GR
GS
0.149 GC
2 setlinecap
1 LJ
0.5 LW
N
591.5 644.5 M
899 644.5 L
S
GR
GS
0.149 GC
2 setlinecap
1 LJ
0.5 LW
N
591.5 644.5 M
591.5 641.425 L
S
GR
GS
0.149 GC
2 setlinecap
1 LJ
0.5 LW
N
694 644.5 M
694 641.425 L
S
GR
GS
0.149 GC
2 setlinecap
1 LJ
0.5 LW
N
796.5 644.5 M
796.5 641.425 L
S
GR
GS
0.149 GC
2 setlinecap
1 LJ
0.5 LW
N
899 644.5 M
899 641.425 L
S
GR
GS
[1 0 0 1 591.5 649.29999] CT
0.149 GC
/Helvetica 14 F
GS
[1 0 0 1 0 0] CT
-7 14 moveto 
1 -1 scale
(-2) t 
GR
GR
GS
[1 0 0 1 694 649.29999] CT
0.149 GC
/Helvetica 14 F
GS
[1 0 0 1 0 0] CT
-12.5 14 moveto 
1 -1 scale
(-1.5) t 
GR
GR
GS
[1 0 0 1 796.5 649.29999] CT
0.149 GC
/Helvetica 14 F
GS
[1 0 0 1 0 0] CT
-7 14 moveto 
1 -1 scale
(-1) t 
GR
GR
GS
[1 0 0 1 899 649.29999] CT
0.149 GC
/Helvetica 14 F
GS
[1 0 0 1 0 0] CT
-12.5 14 moveto 
1 -1 scale
(-0.5) t 
GR
GR
GS
[1 0 0 1 694 682] CT
0.149 GC
/Helvetica 15 F
GS
[1 0 0 1 0 0] CT
0 0 moveto 
1 -1 scale
(1/nElem [log) t 
GR
GR
GS
[1 0 0 1 778 689] CT
0.149 GC
/Helvetica 12 F
GS
[1 0 0 1 0 0] CT
0 0 moveto 
1 -1 scale
(10) t 
GR
GR
GS
[1 0 0 1 792 682] CT
0.149 GC
/Helvetica 15 F
GS
[1 0 0 1 0 0] CT
0 0 moveto 
1 -1 scale
(]) t 
GR
GR
GS
0.149 GC
2 setlinecap
1 LJ
0.5 LW
N
591.5 644.5 M
591.5 397.5 L
S
GR
GS
0.149 GC
2 setlinecap
1 LJ
0.5 LW
N
591.5 629.971 M
594.575 629.971 L
S
GR
GS
0.149 GC
2 setlinecap
1 LJ
0.5 LW
N
591.5 600.912 M
594.575 600.912 L
S
GR
GS
0.149 GC
2 setlinecap
1 LJ
0.5 LW
N
591.5 571.853 M
594.575 571.853 L
S
GR
GS
0.149 GC
2 setlinecap
1 LJ
0.5 LW
N
591.5 542.794 M
594.575 542.794 L
S
GR
GS
0.149 GC
2 setlinecap
1 LJ
0.5 LW
N
591.5 513.735 M
594.575 513.735 L
S
GR
GS
0.149 GC
2 setlinecap
1 LJ
0.5 LW
N
591.5 484.676 M
594.575 484.676 L
S
GR
GS
0.149 GC
2 setlinecap
1 LJ
0.5 LW
N
591.5 455.618 M
594.575 455.618 L
S
GR
GS
0.149 GC
2 setlinecap
1 LJ
0.5 LW
N
591.5 426.559 M
594.575 426.559 L
S
GR
GS
0.149 GC
2 setlinecap
1 LJ
0.5 LW
N
591.5 397.5 M
594.575 397.5 L
S
GR
GS
[1 0 0 1 586.70001 629.97058] CT
0.149 GC
/Helvetica 14 F
GS
[1 0 0 1 0 0] CT
-22 5.5 moveto 
1 -1 scale
(-16) t 
GR
GR
GS
[1 0 0 1 586.70001 600.91174] CT
0.149 GC
/Helvetica 14 F
GS
[1 0 0 1 0 0] CT
-22 5.5 moveto 
1 -1 scale
(-14) t 
GR
GR
GS
[1 0 0 1 586.70001 571.85297] CT
0.149 GC
/Helvetica 14 F
GS
[1 0 0 1 0 0] CT
-22 5.5 moveto 
1 -1 scale
(-12) t 
GR
GR
GS
[1 0 0 1 586.70001 542.79413] CT
0.149 GC
/Helvetica 14 F
GS
[1 0 0 1 0 0] CT
-22 5.5 moveto 
1 -1 scale
(-10) t 
GR
GR
GS
[1 0 0 1 586.70001 513.73529] CT
0.149 GC
/Helvetica 14 F
GS
[1 0 0 1 0 0] CT
-14 5.5 moveto 
1 -1 scale
(-8) t 
GR
GR
GS
[1 0 0 1 586.70001 484.67648] CT
0.149 GC
/Helvetica 14 F
GS
[1 0 0 1 0 0] CT
-14 5.5 moveto 
1 -1 scale
(-6) t 
GR
GR
GS
[1 0 0 1 586.70001 455.61765] CT
0.149 GC
/Helvetica 14 F
GS
[1 0 0 1 0 0] CT
-14 5.5 moveto 
1 -1 scale
(-4) t 
GR
GR
GS
[1 0 0 1 586.70001 426.55884] CT
0.149 GC
/Helvetica 14 F
GS
[1 0 0 1 0 0] CT
-14 5.5 moveto 
1 -1 scale
(-2) t 
GR
GR
GS
[1 0 0 1 586.70001 397.5] CT
0.149 GC
/Helvetica 14 F
GS
[1 0 0 1 0 0] CT
-8 5.5 moveto 
1 -1 scale
(0) t 
GR
GR
GS
[0 -1 1 0 552 600] CT
0.149 GC
/Helvetica 15 F
GS
[1 0 0 1 0 0] CT
0 0 moveto 
1 -1 scale
(Solution L) t 
GR
GR
GS
[0 -1 1 0 559 532] CT
0.149 GC
/Helvetica 12 F
GS
[1 0 0 1 0 0] CT
0 0 moveto 
1 -1 scale
(2) t 
GR
GR
GS
[0 -1 1 0 552 525] CT
0.149 GC
/Helvetica 15 F
GS
[1 0 0 1 0 0] CT
0 0 moveto 
1 -1 scale
( error [log) t 
GR
GR
GS
[0 -1 1 0 559 460] CT
0.149 GC
/Helvetica 12 F
GS
[1 0 0 1 0 0] CT
0 0 moveto 
1 -1 scale
(10) t 
GR
GR
GS
[0 -1 1 0 552 446] CT
0.149 GC
/Helvetica 15 F
GS
[1 0 0 1 0 0] CT
0 0 moveto 
1 -1 scale
(]) t 
GR
GR
GS
[1 0 0 1 745.25073 395.57501] CT
/Helvetica-Bold 15.4 F
GS
[1 0 0 1 0 0] CT
-26.5 -4 moveto 
1 -1 scale
(Q5 grid) t 
GR
GR
GS
1 0 0 RC
1 LJ
0.5 LW
N
878.078 401.06 M
816.367 405.873 L
754.655 410.597 L
692.944 415.193 L
631.233 419.692 L
S
GR
GS
1 0 0 RC
1 LJ
N
875 401.5 M
882 401.5 L
S
GR
GS
1 0 0 RC
1 LJ
N
878.5 405 M
878.5 398 L
S
GR
GS
1 0 0 RC
1 LJ
N
813 405.5 M
820 405.5 L
S
GR
GS
1 0 0 RC
1 LJ
N
816.5 409 M
816.5 402 L
S
GR
GS
1 0 0 RC
1 LJ
N
751 410.5 M
758 410.5 L
S
GR
GS
1 0 0 RC
1 LJ
N
754.5 414 M
754.5 407 L
S
GR
GS
1 0 0 RC
1 LJ
N
689 415.5 M
696 415.5 L
S
GR
GS
1 0 0 RC
1 LJ
N
692.5 419 M
692.5 412 L
S
GR
GS
1 0 0 RC
1 LJ
N
628 419.5 M
635 419.5 L
S
GR
GS
1 0 0 RC
1 LJ
N
631.5 423 M
631.5 416 L
S
GR
GS
0 0 1 RC
1 LJ
0.5 LW
N
878.078 415.645 M
816.367 424.126 L
754.655 432.821 L
692.944 441.563 L
631.233 450.313 L
S
GR
GS
0 0 1 RC
1 LJ
N
881.5 415.5 M
880.621 413.379 L
878.5 412.5 L
876.379 413.379 L
875.5 415.5 L
876.379 417.621 L
878.5 418.5 L
880.621 417.621 L
cp
S
GR
GS
0 0 1 RC
1 LJ
N
819.5 424.5 M
818.621 422.379 L
816.5 421.5 L
814.379 422.379 L
813.5 424.5 L
814.379 426.621 L
816.5 427.5 L
818.621 426.621 L
cp
S
GR
GS
0 0 1 RC
1 LJ
N
757.5 432.5 M
756.621 430.379 L
754.5 429.5 L
752.379 430.379 L
751.5 432.5 L
752.379 434.621 L
754.5 435.5 L
756.621 434.621 L
cp
S
GR
GS
0 0 1 RC
1 LJ
N
695.5 441.5 M
694.621 439.379 L
692.5 438.5 L
690.379 439.379 L
689.5 441.5 L
690.379 443.621 L
692.5 444.5 L
694.621 443.621 L
cp
S
GR
GS
0 0 1 RC
1 LJ
N
634.5 450.5 M
633.621 448.379 L
631.5 447.5 L
629.379 448.379 L
628.5 450.5 L
629.379 452.621 L
631.5 453.5 L
633.621 452.621 L
cp
S
GR
GS
1 LJ
0.5 LW
N
878.078 430.128 M
816.367 443.097 L
754.655 456.238 L
692.944 469.399 L
631.233 482.547 L
S
GR
GS
10.0 ML
N
878.5 434.499 M
881.5 430.5 L
878.5 426.501 L
875.5 430.5 L
cp
S
GR
GS
10.0 ML
N
816.5 447.499 M
819.5 443.5 L
816.5 439.501 L
813.5 443.5 L
cp
S
GR
GS
10.0 ML
N
754.5 460.499 M
757.5 456.5 L
754.5 452.501 L
751.5 456.5 L
cp
S
GR
GS
10.0 ML
N
692.5 473.499 M
695.5 469.5 L
692.5 465.501 L
689.5 469.5 L
cp
S
GR
GS
10.0 ML
N
631.5 486.499 M
634.5 482.5 L
631.5 478.501 L
628.5 482.5 L
cp
S
GR
GS
1 0 1 RC
1 LJ
0.5 LW
N
878.078 446.67 M
816.367 463.798 L
754.655 481.217 L
692.944 498.702 L
631.233 516.199 L
S
GR
GS
1 0 1 RC
1 LJ
N
875 446.5 M
882 446.5 L
S
GR
GS
1 0 1 RC
1 LJ
N
878.5 450 M
878.5 443 L
S
GR
GS
1 0 1 RC
1 LJ
N
876 449 M
881 444 L
S
GR
GS
1 0 1 RC
1 LJ
N
876 444 M
881 449 L
S
GR
GS
1 0 1 RC
1 LJ
N
813 463.5 M
820 463.5 L
S
GR
GS
1 0 1 RC
1 LJ
N
816.5 467 M
816.5 460 L
S
GR
GS
1 0 1 RC
1 LJ
N
814 466 M
819 461 L
S
GR
GS
1 0 1 RC
1 LJ
N
814 461 M
819 466 L
S
GR
GS
1 0 1 RC
1 LJ
N
751 481.5 M
758 481.5 L
S
GR
GS
1 0 1 RC
1 LJ
N
754.5 485 M
754.5 478 L
S
GR
GS
1 0 1 RC
1 LJ
N
752 484 M
757 479 L
S
GR
GS
1 0 1 RC
1 LJ
N
752 479 M
757 484 L
S
GR
GS
1 0 1 RC
1 LJ
N
689 498.5 M
696 498.5 L
S
GR
GS
1 0 1 RC
1 LJ
N
692.5 502 M
692.5 495 L
S
GR
GS
1 0 1 RC
1 LJ
N
690 501 M
695 496 L
S
GR
GS
1 0 1 RC
1 LJ
N
690 496 M
695 501 L
S
GR
GS
1 0 1 RC
1 LJ
N
628 516.5 M
635 516.5 L
S
GR
GS
1 0 1 RC
1 LJ
N
631.5 520 M
631.5 513 L
S
GR
GS
1 0 1 RC
1 LJ
N
629 519 M
634 514 L
S
GR
GS
1 0 1 RC
1 LJ
N
629 514 M
634 519 L
S
GR
GS
0 1 0 RC
1 LJ
0.5 LW
N
878.078 464.146 M
816.367 485.835 L
754.655 507.688 L
692.944 529.57 L
631.233 551.45 L
S
GR
GS
0 1 0 RC
1 LJ
N
876 467 M
881 462 L
S
GR
GS
0 1 0 RC
1 LJ
N
876 462 M
881 467 L
S
GR
GS
0 1 0 RC
1 LJ
N
814 488 M
819 483 L
S
GR
GS
0 1 0 RC
1 LJ
N
814 483 M
819 488 L
S
GR
GS
0 1 0 RC
1 LJ
N
752 510 M
757 505 L
S
GR
GS
0 1 0 RC
1 LJ
N
752 505 M
757 510 L
S
GR
GS
0 1 0 RC
1 LJ
N
690 532 M
695 527 L
S
GR
GS
0 1 0 RC
1 LJ
N
690 527 M
695 532 L
S
GR
GS
0 1 0 RC
1 LJ
N
629 554 M
634 549 L
S
GR
GS
0 1 0 RC
1 LJ
N
629 549 M
634 554 L
S
GR
GS
1 1 0 RC
1 LJ
0.5 LW
N
878.078 483.806 M
816.367 509.828 L
754.655 536.022 L
692.944 562.257 L
631.233 588.474 L
S
GR
GS
1 1 0 RC
10.0 ML
N
876.16 485.84 M
876.16 481.16 L
880.84 481.16 L
880.84 485.84 L
cp
S
GR
GS
1 1 0 RC
10.0 ML
N
814.16 511.84 M
814.16 507.16 L
818.84 507.16 L
818.84 511.84 L
cp
S
GR
GS
1 1 0 RC
10.0 ML
N
752.16 538.84 M
752.16 534.16 L
756.84 534.16 L
756.84 538.84 L
cp
S
GR
GS
1 1 0 RC
10.0 ML
N
690.16 564.84 M
690.16 560.16 L
694.84 560.16 L
694.84 564.84 L
cp
S
GR
GS
1 1 0 RC
10.0 ML
N
629.16 590.84 M
629.16 586.16 L
633.84 586.16 L
633.84 590.84 L
cp
S
GR
GS
0 1 1 RC
1 LJ
0.5 LW
N
878.078 504.668 M
816.367 535.465 L
754.655 566.148 L
692.944 596.601 L
631.233 611.392 L
S
GR
GS
0 1 1 RC
10.0 ML
N
875.647 503.573 M
877.795 503.573 L
878.5 501.5 L
879.205 503.573 L
881.353 503.573 L
879.641 504.871 L
880.263 506.927 L
878.5 505.7 L
876.737 506.927 L
877.359 504.871 L
cp
S
GR
GS
0 1 1 RC
10.0 ML
N
813.647 534.573 M
815.795 534.573 L
816.5 532.5 L
817.205 534.573 L
819.353 534.573 L
817.641 535.871 L
818.263 537.927 L
816.5 536.7 L
814.737 537.927 L
815.359 535.871 L
cp
S
GR
GS
0 1 1 RC
10.0 ML
N
751.647 565.573 M
753.795 565.573 L
754.5 563.5 L
755.205 565.573 L
757.353 565.573 L
755.641 566.871 L
756.263 568.927 L
754.5 567.7 L
752.737 568.927 L
753.359 566.871 L
cp
S
GR
GS
0 1 1 RC
10.0 ML
N
689.647 595.573 M
691.795 595.573 L
692.5 593.5 L
693.205 595.573 L
695.353 595.573 L
693.641 596.871 L
694.263 598.927 L
692.5 597.7 L
690.737 598.927 L
691.359 596.871 L
cp
S
GR
GS
0 1 1 RC
10.0 ML
N
628.647 610.573 M
630.795 610.573 L
631.5 608.5 L
632.205 610.573 L
634.353 610.573 L
632.641 611.871 L
633.263 613.927 L
631.5 612.7 L
629.737 613.927 L
630.359 611.871 L
cp
S
GR
GS
1 GC
N
812.5 638.5 M
812.5 526.5 L
882.5 526.5 L
882.5 638.5 L
cp
f
GR
GS
[1 0 0 1 849.5 536] CT
/Helvetica 12.6 F
GS
[1 0 0 1 0 0] CT
0 5 moveto 
1 -1 scale
(p = 0) t 
GR
GR
GS
1 0 0 RC
1 LJ
0.5 LW
N
816.5 536 M
846.5 536 L
S
GR
GS
1 0 0 RC
1 LJ
N
828 535.5 M
835 535.5 L
S
GR
GS
1 0 0 RC
1 LJ
N
831.5 539 M
831.5 532 L
S
GR
GS
[1 0 0 1 849.5 551.5] CT
/Helvetica 12.6 F
GS
[1 0 0 1 0 0] CT
0 5 moveto 
1 -1 scale
(p = 1) t 
GR
GR
GS
0 0 1 RC
1 LJ
0.5 LW
N
816.5 551.5 M
846.5 551.5 L
S
GR
GS
0 0 1 RC
1 LJ
N
834.5 551.5 M
833.621 549.379 L
831.5 548.5 L
829.379 549.379 L
828.5 551.5 L
829.379 553.621 L
831.5 554.5 L
833.621 553.621 L
cp
S
GR
GS
[1 0 0 1 849.5 567] CT
/Helvetica 12.6 F
GS
[1 0 0 1 0 0] CT
0 5 moveto 
1 -1 scale
(p = 2) t 
GR
GR
GS
1 LJ
0.5 LW
N
816.5 567 M
846.5 567 L
S
GR
GS
10.0 ML
N
831.5 570.499 M
834.5 566.5 L
831.5 562.501 L
828.5 566.5 L
cp
S
GR
GS
[1 0 0 1 849.5 582.5] CT
/Helvetica 12.6 F
GS
[1 0 0 1 0 0] CT
0 5 moveto 
1 -1 scale
(p = 3) t 
GR
GR
GS
1 0 1 RC
1 LJ
0.5 LW
N
816.5 582.5 M
846.5 582.5 L
S
GR
GS
1 0 1 RC
1 LJ
N
828 582.5 M
835 582.5 L
S
GR
GS
1 0 1 RC
1 LJ
N
831.5 586 M
831.5 579 L
S
GR
GS
1 0 1 RC
1 LJ
N
829 585 M
834 580 L
S
GR
GS
1 0 1 RC
1 LJ
N
829 580 M
834 585 L
S
GR
GS
[1 0 0 1 849.5 598] CT
/Helvetica 12.6 F
GS
[1 0 0 1 0 0] CT
0 5 moveto 
1 -1 scale
(p = 4) t 
GR
GR
GS
0 1 0 RC
1 LJ
0.5 LW
N
816.5 598 M
846.5 598 L
S
GR
GS
0 1 0 RC
1 LJ
N
829 601 M
834 596 L
S
GR
GS
0 1 0 RC
1 LJ
N
829 596 M
834 601 L
S
GR
GS
[1 0 0 1 849.5 613.5] CT
/Helvetica 12.6 F
GS
[1 0 0 1 0 0] CT
0 5 moveto 
1 -1 scale
(p = 5) t 
GR
GR
GS
1 1 0 RC
1 LJ
0.5 LW
N
816.5 613.5 M
846.5 613.5 L
S
GR
GS
1 1 0 RC
10.0 ML
N
829.16 615.84 M
829.16 611.16 L
833.84 611.16 L
833.84 615.84 L
cp
S
GR
GS
[1 0 0 1 849.5 629] CT
/Helvetica 12.6 F
GS
[1 0 0 1 0 0] CT
0 5 moveto 
1 -1 scale
(p = 6) t 
GR
GR
GS
0 1 1 RC
1 LJ
0.5 LW
N
816.5 629 M
846.5 629 L
S
GR
GS
0 1 1 RC
10.0 ML
N
828.647 628.573 M
830.795 628.573 L
831.5 626.5 L
832.205 628.573 L
834.353 628.573 L
832.641 629.871 L
833.263 631.927 L
831.5 630.7 L
829.737 631.927 L
830.359 629.871 L
cp
S
GR
GS
0.149 GC
10.0 ML
0.5 LW
N
812.5 638.5 M
812.5 526.5 L
882.5 526.5 L
882.5 638.5 L
cp
S
GR
GS
1 GC
N
996 644.5 M
1303 644.5 L
1303 397.5 L
996 397.5 L
cp
f
GR
GS
0.873 GC
1 LJ
0.5 LW
N
996 644.5 M
996 397.5 L
S
GR
GS
0.873 GC
1 LJ
0.5 LW
N
1098.333 644.5 M
1098.333 397.5 L
S
GR
GS
0.873 GC
1 LJ
0.5 LW
N
1200.667 644.5 M
1200.667 397.5 L
S
GR
GS
0.873 GC
1 LJ
0.5 LW
N
1303 644.5 M
1303 397.5 L
S
GR
GS
0.873 GC
1 LJ
0.5 LW
N
1303 629.971 M
996 629.971 L
S
GR
GS
0.873 GC
1 LJ
0.5 LW
N
1303 600.912 M
996 600.912 L
S
GR
GS
0.873 GC
1 LJ
0.5 LW
N
1303 571.853 M
996 571.853 L
S
GR
GS
0.873 GC
1 LJ
0.5 LW
N
1303 542.794 M
996 542.794 L
S
GR
GS
0.873 GC
1 LJ
0.5 LW
N
1303 513.735 M
996 513.735 L
S
GR
GS
0.873 GC
1 LJ
0.5 LW
N
1303 484.676 M
996 484.676 L
S
GR
GS
0.873 GC
1 LJ
0.5 LW
N
1303 455.618 M
996 455.618 L
S
GR
GS
0.873 GC
1 LJ
0.5 LW
N
1303 426.559 M
996 426.559 L
S
GR
GS
0.873 GC
1 LJ
0.5 LW
N
1303 397.5 M
996 397.5 L
S
GR
GS
0.149 GC
2 setlinecap
1 LJ
0.5 LW
N
996 644.5 M
1303 644.5 L
S
GR
GS
0.149 GC
2 setlinecap
1 LJ
0.5 LW
N
996 644.5 M
996 641.43 L
S
GR
GS
0.149 GC
2 setlinecap
1 LJ
0.5 LW
N
1098.333 644.5 M
1098.333 641.43 L
S
GR
GS
0.149 GC
2 setlinecap
1 LJ
0.5 LW
N
1200.667 644.5 M
1200.667 641.43 L
S
GR
GS
0.149 GC
2 setlinecap
1 LJ
0.5 LW
N
1303 644.5 M
1303 641.43 L
S
GR
GS
[1 0 0 1 996 649.29999] CT
0.149 GC
/Helvetica 14 F
GS
[1 0 0 1 0 0] CT
-7 14 moveto 
1 -1 scale
(-2) t 
GR
GR
GS
[1 0 0 1 1098.33337 649.29999] CT
0.149 GC
/Helvetica 14 F
GS
[1 0 0 1 0 0] CT
-12.5 14 moveto 
1 -1 scale
(-1.5) t 
GR
GR
GS
[1 0 0 1 1200.66663 649.29999] CT
0.149 GC
/Helvetica 14 F
GS
[1 0 0 1 0 0] CT
-7 14 moveto 
1 -1 scale
(-1) t 
GR
GR
GS
[1 0 0 1 1303 649.29999] CT
0.149 GC
/Helvetica 14 F
GS
[1 0 0 1 0 0] CT
-12.5 14 moveto 
1 -1 scale
(-0.5) t 
GR
GR
GS
[1 0 0 1 1099 682] CT
0.149 GC
/Helvetica 15 F
GS
[1 0 0 1 0 0] CT
0 0 moveto 
1 -1 scale
(1/nElem [log) t 
GR
GR
GS
[1 0 0 1 1183 689] CT
0.149 GC
/Helvetica 12 F
GS
[1 0 0 1 0 0] CT
0 0 moveto 
1 -1 scale
(10) t 
GR
GR
GS
[1 0 0 1 1197 682] CT
0.149 GC
/Helvetica 15 F
GS
[1 0 0 1 0 0] CT
0 0 moveto 
1 -1 scale
(]) t 
GR
GR
GS
0.149 GC
2 setlinecap
1 LJ
0.5 LW
N
996 644.5 M
996 397.5 L
S
GR
GS
0.149 GC
2 setlinecap
1 LJ
0.5 LW
N
996 629.971 M
999.07 629.971 L
S
GR
GS
0.149 GC
2 setlinecap
1 LJ
0.5 LW
N
996 600.912 M
999.07 600.912 L
S
GR
GS
0.149 GC
2 setlinecap
1 LJ
0.5 LW
N
996 571.853 M
999.07 571.853 L
S
GR
GS
0.149 GC
2 setlinecap
1 LJ
0.5 LW
N
996 542.794 M
999.07 542.794 L
S
GR
GS
0.149 GC
2 setlinecap
1 LJ
0.5 LW
N
996 513.735 M
999.07 513.735 L
S
GR
GS
0.149 GC
2 setlinecap
1 LJ
0.5 LW
N
996 484.676 M
999.07 484.676 L
S
GR
GS
0.149 GC
2 setlinecap
1 LJ
0.5 LW
N
996 455.618 M
999.07 455.618 L
S
GR
GS
0.149 GC
2 setlinecap
1 LJ
0.5 LW
N
996 426.559 M
999.07 426.559 L
S
GR
GS
0.149 GC
2 setlinecap
1 LJ
0.5 LW
N
996 397.5 M
999.07 397.5 L
S
GR
GS
[1 0 0 1 991.20001 629.97058] CT
0.149 GC
/Helvetica 14 F
GS
[1 0 0 1 0 0] CT
-22 5.5 moveto 
1 -1 scale
(-16) t 
GR
GR
GS
[1 0 0 1 991.20001 600.91174] CT
0.149 GC
/Helvetica 14 F
GS
[1 0 0 1 0 0] CT
-22 5.5 moveto 
1 -1 scale
(-14) t 
GR
GR
GS
[1 0 0 1 991.20001 571.85297] CT
0.149 GC
/Helvetica 14 F
GS
[1 0 0 1 0 0] CT
-22 5.5 moveto 
1 -1 scale
(-12) t 
GR
GR
GS
[1 0 0 1 991.20001 542.79413] CT
0.149 GC
/Helvetica 14 F
GS
[1 0 0 1 0 0] CT
-22 5.5 moveto 
1 -1 scale
(-10) t 
GR
GR
GS
[1 0 0 1 991.20001 513.73529] CT
0.149 GC
/Helvetica 14 F
GS
[1 0 0 1 0 0] CT
-14 5.5 moveto 
1 -1 scale
(-8) t 
GR
GR
GS
[1 0 0 1 991.20001 484.67648] CT
0.149 GC
/Helvetica 14 F
GS
[1 0 0 1 0 0] CT
-14 5.5 moveto 
1 -1 scale
(-6) t 
GR
GR
GS
[1 0 0 1 991.20001 455.61765] CT
0.149 GC
/Helvetica 14 F
GS
[1 0 0 1 0 0] CT
-14 5.5 moveto 
1 -1 scale
(-4) t 
GR
GR
GS
[1 0 0 1 991.20001 426.55884] CT
0.149 GC
/Helvetica 14 F
GS
[1 0 0 1 0 0] CT
-14 5.5 moveto 
1 -1 scale
(-2) t 
GR
GR
GS
[1 0 0 1 991.20001 397.5] CT
0.149 GC
/Helvetica 14 F
GS
[1 0 0 1 0 0] CT
-8 5.5 moveto 
1 -1 scale
(0) t 
GR
GR
GS
[0 -1 1 0 957 600] CT
0.149 GC
/Helvetica 15 F
GS
[1 0 0 1 0 0] CT
0 0 moveto 
1 -1 scale
(Solution L) t 
GR
GR
GS
[0 -1 1 0 964 532] CT
0.149 GC
/Helvetica 12 F
GS
[1 0 0 1 0 0] CT
0 0 moveto 
1 -1 scale
(2) t 
GR
GR
GS
[0 -1 1 0 957 525] CT
0.149 GC
/Helvetica 15 F
GS
[1 0 0 1 0 0] CT
0 0 moveto 
1 -1 scale
( error [log) t 
GR
GR
GS
[0 -1 1 0 964 460] CT
0.149 GC
/Helvetica 12 F
GS
[1 0 0 1 0 0] CT
0 0 moveto 
1 -1 scale
(10) t 
GR
GR
GS
[0 -1 1 0 957 446] CT
0.149 GC
/Helvetica 15 F
GS
[1 0 0 1 0 0] CT
0 0 moveto 
1 -1 scale
(]) t 
GR
GR
GS
[1 0 0 1 1149.5011 395.57501] CT
/Helvetica-Bold 15.4 F
GS
[1 0 0 1 0 0] CT
-26.5 -4 moveto 
1 -1 scale
(Q6 grid) t 
GR
GR
GS
1 0 0 RC
1 LJ
0.5 LW
N
1282.112 401.06 M
1220.501 405.873 L
1158.89 410.597 L
1097.279 415.193 L
1035.668 419.692 L
S
GR
GS
1 0 0 RC
1 LJ
N
1279 401.5 M
1286 401.5 L
S
GR
GS
1 0 0 RC
1 LJ
N
1282.5 405 M
1282.5 398 L
S
GR
GS
1 0 0 RC
1 LJ
N
1217 405.5 M
1224 405.5 L
S
GR
GS
1 0 0 RC
1 LJ
N
1220.5 409 M
1220.5 402 L
S
GR
GS
1 0 0 RC
1 LJ
N
1155 410.5 M
1162 410.5 L
S
GR
GS
1 0 0 RC
1 LJ
N
1158.5 414 M
1158.5 407 L
S
GR
GS
1 0 0 RC
1 LJ
N
1094 415.5 M
1101 415.5 L
S
GR
GS
1 0 0 RC
1 LJ
N
1097.5 419 M
1097.5 412 L
S
GR
GS
1 0 0 RC
1 LJ
N
1032 419.5 M
1039 419.5 L
S
GR
GS
1 0 0 RC
1 LJ
N
1035.5 423 M
1035.5 416 L
S
GR
GS
0 0 1 RC
1 LJ
0.5 LW
N
1282.112 415.645 M
1220.501 424.126 L
1158.89 432.821 L
1097.279 441.563 L
1035.668 450.313 L
S
GR
GS
0 0 1 RC
1 LJ
N
1285.5 415.5 M
1284.621 413.379 L
1282.5 412.5 L
1280.379 413.379 L
1279.5 415.5 L
1280.379 417.621 L
1282.5 418.5 L
1284.621 417.621 L
cp
S
GR
GS
0 0 1 RC
1 LJ
N
1223.5 424.5 M
1222.621 422.379 L
1220.5 421.5 L
1218.379 422.379 L
1217.5 424.5 L
1218.379 426.621 L
1220.5 427.5 L
1222.621 426.621 L
cp
S
GR
GS
0 0 1 RC
1 LJ
N
1161.5 432.5 M
1160.621 430.379 L
1158.5 429.5 L
1156.379 430.379 L
1155.5 432.5 L
1156.379 434.621 L
1158.5 435.5 L
1160.621 434.621 L
cp
S
GR
GS
0 0 1 RC
1 LJ
N
1100.5 441.5 M
1099.621 439.379 L
1097.5 438.5 L
1095.379 439.379 L
1094.5 441.5 L
1095.379 443.621 L
1097.5 444.5 L
1099.621 443.621 L
cp
S
GR
GS
0 0 1 RC
1 LJ
N
1038.5 450.5 M
1037.621 448.379 L
1035.5 447.5 L
1033.379 448.379 L
1032.5 450.5 L
1033.379 452.621 L
1035.5 453.5 L
1037.621 452.621 L
cp
S
GR
GS
1 LJ
0.5 LW
N
1282.112 430.128 M
1220.501 443.097 L
1158.89 456.238 L
1097.279 469.399 L
1035.668 482.547 L
S
GR
GS
10.0 ML
N
1282.5 434.499 M
1285.5 430.5 L
1282.5 426.501 L
1279.5 430.5 L
cp
S
GR
GS
10.0 ML
N
1220.5 447.499 M
1223.5 443.5 L
1220.5 439.501 L
1217.5 443.5 L
cp
S
GR
GS
10.0 ML
N
1158.5 460.499 M
1161.5 456.5 L
1158.5 452.501 L
1155.5 456.5 L
cp
S
GR
GS
10.0 ML
N
1097.5 473.499 M
1100.5 469.5 L
1097.5 465.501 L
1094.5 469.5 L
cp
S
GR
GS
10.0 ML
N
1035.5 486.499 M
1038.5 482.5 L
1035.5 478.501 L
1032.5 482.5 L
cp
S
GR
GS
1 0 1 RC
1 LJ
0.5 LW
N
1282.112 446.67 M
1220.501 463.798 L
1158.89 481.217 L
1097.279 498.702 L
1035.668 516.199 L
S
GR
GS
1 0 1 RC
1 LJ
N
1279 446.5 M
1286 446.5 L
S
GR
GS
1 0 1 RC
1 LJ
N
1282.5 450 M
1282.5 443 L
S
GR
GS
1 0 1 RC
1 LJ
N
1280 449 M
1285 444 L
S
GR
GS
1 0 1 RC
1 LJ
N
1280 444 M
1285 449 L
S
GR
GS
1 0 1 RC
1 LJ
N
1217 463.5 M
1224 463.5 L
S
GR
GS
1 0 1 RC
1 LJ
N
1220.5 467 M
1220.5 460 L
S
GR
GS
1 0 1 RC
1 LJ
N
1218 466 M
1223 461 L
S
GR
GS
1 0 1 RC
1 LJ
N
1218 461 M
1223 466 L
S
GR
GS
1 0 1 RC
1 LJ
N
1155 481.5 M
1162 481.5 L
S
GR
GS
1 0 1 RC
1 LJ
N
1158.5 485 M
1158.5 478 L
S
GR
GS
1 0 1 RC
1 LJ
N
1156 484 M
1161 479 L
S
GR
GS
1 0 1 RC
1 LJ
N
1156 479 M
1161 484 L
S
GR
GS
1 0 1 RC
1 LJ
N
1094 498.5 M
1101 498.5 L
S
GR
GS
1 0 1 RC
1 LJ
N
1097.5 502 M
1097.5 495 L
S
GR
GS
1 0 1 RC
1 LJ
N
1095 501 M
1100 496 L
S
GR
GS
1 0 1 RC
1 LJ
N
1095 496 M
1100 501 L
S
GR
GS
1 0 1 RC
1 LJ
N
1032 516.5 M
1039 516.5 L
S
GR
GS
1 0 1 RC
1 LJ
N
1035.5 520 M
1035.5 513 L
S
GR
GS
1 0 1 RC
1 LJ
N
1033 519 M
1038 514 L
S
GR
GS
1 0 1 RC
1 LJ
N
1033 514 M
1038 519 L
S
GR
GS
0 1 0 RC
1 LJ
0.5 LW
N
1282.112 464.146 M
1220.501 485.835 L
1158.89 507.688 L
1097.279 529.57 L
1035.668 551.45 L
S
GR
GS
0 1 0 RC
1 LJ
N
1280 467 M
1285 462 L
S
GR
GS
0 1 0 RC
1 LJ
N
1280 462 M
1285 467 L
S
GR
GS
0 1 0 RC
1 LJ
N
1218 488 M
1223 483 L
S
GR
GS
0 1 0 RC
1 LJ
N
1218 483 M
1223 488 L
S
GR
GS
0 1 0 RC
1 LJ
N
1156 510 M
1161 505 L
S
GR
GS
0 1 0 RC
1 LJ
N
1156 505 M
1161 510 L
S
GR
GS
0 1 0 RC
1 LJ
N
1095 532 M
1100 527 L
S
GR
GS
0 1 0 RC
1 LJ
N
1095 527 M
1100 532 L
S
GR
GS
0 1 0 RC
1 LJ
N
1033 554 M
1038 549 L
S
GR
GS
0 1 0 RC
1 LJ
N
1033 549 M
1038 554 L
S
GR
GS
1 1 0 RC
1 LJ
0.5 LW
N
1282.112 483.806 M
1220.501 509.828 L
1158.89 536.022 L
1097.279 562.257 L
1035.668 588.467 L
S
GR
GS
1 1 0 RC
10.0 ML
N
1280.16 485.84 M
1280.16 481.16 L
1284.84 481.16 L
1284.84 485.84 L
cp
S
GR
GS
1 1 0 RC
10.0 ML
N
1218.16 511.84 M
1218.16 507.16 L
1222.84 507.16 L
1222.84 511.84 L
cp
S
GR
GS
1 1 0 RC
10.0 ML
N
1156.16 538.84 M
1156.16 534.16 L
1160.84 534.16 L
1160.84 538.84 L
cp
S
GR
GS
1 1 0 RC
10.0 ML
N
1095.16 564.84 M
1095.16 560.16 L
1099.84 560.16 L
1099.84 564.84 L
cp
S
GR
GS
1 1 0 RC
10.0 ML
N
1033.16 590.84 M
1033.16 586.16 L
1037.84 586.16 L
1037.84 590.84 L
cp
S
GR
GS
0 1 1 RC
1 LJ
0.5 LW
N
1282.112 504.668 M
1220.501 535.465 L
1158.89 566.148 L
1097.279 596.552 L
1035.668 609.342 L
S
GR
GS
0 1 1 RC
10.0 ML
N
1279.647 503.573 M
1281.795 503.573 L
1282.5 501.5 L
1283.205 503.573 L
1285.353 503.573 L
1283.641 504.871 L
1284.263 506.927 L
1282.5 505.7 L
1280.737 506.927 L
1281.359 504.871 L
cp
S
GR
GS
0 1 1 RC
10.0 ML
N
1217.647 534.573 M
1219.795 534.573 L
1220.5 532.5 L
1221.205 534.573 L
1223.353 534.573 L
1221.641 535.871 L
1222.263 537.927 L
1220.5 536.7 L
1218.737 537.927 L
1219.359 535.871 L
cp
S
GR
GS
0 1 1 RC
10.0 ML
N
1155.647 565.573 M
1157.795 565.573 L
1158.5 563.5 L
1159.205 565.573 L
1161.353 565.573 L
1159.641 566.871 L
1160.263 568.927 L
1158.5 567.7 L
1156.737 568.927 L
1157.359 566.871 L
cp
S
GR
GS
0 1 1 RC
10.0 ML
N
1094.647 595.573 M
1096.795 595.573 L
1097.5 593.5 L
1098.205 595.573 L
1100.353 595.573 L
1098.641 596.871 L
1099.263 598.927 L
1097.5 597.7 L
1095.737 598.927 L
1096.359 596.871 L
cp
S
GR
GS
0 1 1 RC
10.0 ML
N
1032.647 608.573 M
1034.795 608.573 L
1035.5 606.5 L
1036.205 608.573 L
1038.353 608.573 L
1036.641 609.871 L
1037.263 611.927 L
1035.5 610.7 L
1033.737 611.927 L
1034.359 609.871 L
cp
S
GR
GS
1 GC
N
1217 638.5 M
1217 526.5 L
1287 526.5 L
1287 638.5 L
cp
f
GR
GS
[1 0 0 1 1254 536] CT
/Helvetica 12.6 F
GS
[1 0 0 1 0 0] CT
0 5 moveto 
1 -1 scale
(p = 0) t 
GR
GR
GS
1 0 0 RC
1 LJ
0.5 LW
N
1221 536 M
1251 536 L
S
GR
GS
1 0 0 RC
1 LJ
N
1233 535.5 M
1240 535.5 L
S
GR
GS
1 0 0 RC
1 LJ
N
1236.5 539 M
1236.5 532 L
S
GR
GS
[1 0 0 1 1254 551.5] CT
/Helvetica 12.6 F
GS
[1 0 0 1 0 0] CT
0 5 moveto 
1 -1 scale
(p = 1) t 
GR
GR
GS
0 0 1 RC
1 LJ
0.5 LW
N
1221 551.5 M
1251 551.5 L
S
GR
GS
0 0 1 RC
1 LJ
N
1239.5 551.5 M
1238.621 549.379 L
1236.5 548.5 L
1234.379 549.379 L
1233.5 551.5 L
1234.379 553.621 L
1236.5 554.5 L
1238.621 553.621 L
cp
S
GR
GS
[1 0 0 1 1254 567] CT
/Helvetica 12.6 F
GS
[1 0 0 1 0 0] CT
0 5 moveto 
1 -1 scale
(p = 2) t 
GR
GR
GS
1 LJ
0.5 LW
N
1221 567 M
1251 567 L
S
GR
GS
10.0 ML
N
1236.5 570.499 M
1239.5 566.5 L
1236.5 562.501 L
1233.5 566.5 L
cp
S
GR
GS
[1 0 0 1 1254 582.5] CT
/Helvetica 12.6 F
GS
[1 0 0 1 0 0] CT
0 5 moveto 
1 -1 scale
(p = 3) t 
GR
GR
GS
1 0 1 RC
1 LJ
0.5 LW
N
1221 582.5 M
1251 582.5 L
S
GR
GS
1 0 1 RC
1 LJ
N
1233 582.5 M
1240 582.5 L
S
GR
GS
1 0 1 RC
1 LJ
N
1236.5 586 M
1236.5 579 L
S
GR
GS
1 0 1 RC
1 LJ
N
1234 585 M
1239 580 L
S
GR
GS
1 0 1 RC
1 LJ
N
1234 580 M
1239 585 L
S
GR
GS
[1 0 0 1 1254 598] CT
/Helvetica 12.6 F
GS
[1 0 0 1 0 0] CT
0 5 moveto 
1 -1 scale
(p = 4) t 
GR
GR
GS
0 1 0 RC
1 LJ
0.5 LW
N
1221 598 M
1251 598 L
S
GR
GS
0 1 0 RC
1 LJ
N
1234 601 M
1239 596 L
S
GR
GS
0 1 0 RC
1 LJ
N
1234 596 M
1239 601 L
S
GR
GS
[1 0 0 1 1254 613.5] CT
/Helvetica 12.6 F
GS
[1 0 0 1 0 0] CT
0 5 moveto 
1 -1 scale
(p = 5) t 
GR
GR
GS
1 1 0 RC
1 LJ
0.5 LW
N
1221 613.5 M
1251 613.5 L
S
GR
GS
1 1 0 RC
10.0 ML
N
1234.16 615.84 M
1234.16 611.16 L
1238.84 611.16 L
1238.84 615.84 L
cp
S
GR
GS
[1 0 0 1 1254 629] CT
/Helvetica 12.6 F
GS
[1 0 0 1 0 0] CT
0 5 moveto 
1 -1 scale
(p = 6) t 
GR
GR
GS
0 1 1 RC
1 LJ
0.5 LW
N
1221 629 M
1251 629 L
S
GR
GS
0 1 1 RC
10.0 ML
N
1233.647 628.573 M
1235.795 628.573 L
1236.5 626.5 L
1237.205 628.573 L
1239.353 628.573 L
1237.641 629.871 L
1238.263 631.927 L
1236.5 630.7 L
1234.737 631.927 L
1235.359 629.871 L
cp
S
GR
GS
0.149 GC
10.0 ML
0.5 LW
N
1217 638.5 M
1217 526.5 L
1287 526.5 L
1287 638.5 L
cp
S
GR
%%Trailer
%%Pages: 1
%%EOF
