%!PS-Adobe-3.0 EPSF-3.0
%%Creator: (MATLAB, The Mathworks, Inc. Version 9.0.0.341360 \(R2016a\). Operating System: Mac OS X)
%%Title: ./Circle_Line_Q5.eps
%%CreationDate: 2016-05-23T11:20:04
%%Pages: (atend)
%%BoundingBox:    22     2   511   406
%%LanguageLevel: 2
%%EndComments
%%BeginProlog
%%BeginResource: procset (Apache XML Graphics Std ProcSet) 1.2 0
%%Version: 1.2 0
%%Copyright: (Copyright 2001-2003,2010 The Apache Software Foundation. License terms: http://www.apache.org/licenses/LICENSE-2.0)
/bd{bind def}bind def
/ld{load def}bd
/GR/grestore ld
/M/moveto ld
/LJ/setlinejoin ld
/C/curveto ld
/f/fill ld
/LW/setlinewidth ld
/GC/setgray ld
/t/show ld
/N/newpath ld
/CT/concat ld
/cp/closepath ld
/S/stroke ld
/L/lineto ld
/CC/setcmykcolor ld
/A/ashow ld
/GS/gsave ld
/RC/setrgbcolor ld
/RM/rmoveto ld
/ML/setmiterlimit ld
/re {4 2 roll M
1 index 0 rlineto
0 exch rlineto
neg 0 rlineto
cp } bd
/_ctm matrix def
/_tm matrix def
/BT { _ctm currentmatrix pop matrix _tm copy pop 0 0 moveto } bd
/ET { _ctm setmatrix } bd
/iTm { _ctm setmatrix _tm concat } bd
/Tm { _tm astore pop iTm 0 0 moveto } bd
/ux 0.0 def
/uy 0.0 def
/F {
  /Tp exch def
  /Tf exch def
  Tf findfont Tp scalefont setfont
  /cf Tf def  /cs Tp def
} bd
/ULS {currentpoint /uy exch def /ux exch def} bd
/ULE {
  /Tcx currentpoint pop def
  gsave
  newpath
  cf findfont cs scalefont dup
  /FontMatrix get 0 get /Ts exch def /FontInfo get dup
  /UnderlinePosition get Ts mul /To exch def
  /UnderlineThickness get Ts mul /Tt exch def
  ux uy To add moveto  Tcx uy To add lineto
  Tt setlinewidth stroke
  grestore
} bd
/OLE {
  /Tcx currentpoint pop def
  gsave
  newpath
  cf findfont cs scalefont dup
  /FontMatrix get 0 get /Ts exch def /FontInfo get dup
  /UnderlinePosition get Ts mul /To exch def
  /UnderlineThickness get Ts mul /Tt exch def
  ux uy To add cs add moveto Tcx uy To add cs add lineto
  Tt setlinewidth stroke
  grestore
} bd
/SOE {
  /Tcx currentpoint pop def
  gsave
  newpath
  cf findfont cs scalefont dup
  /FontMatrix get 0 get /Ts exch def /FontInfo get dup
  /UnderlinePosition get Ts mul /To exch def
  /UnderlineThickness get Ts mul /Tt exch def
  ux uy To add cs 10 mul 26 idiv add moveto Tcx uy To add cs 10 mul 26 idiv add lineto
  Tt setlinewidth stroke
  grestore
} bd
/QT {
/Y22 exch store
/X22 exch store
/Y21 exch store
/X21 exch store
currentpoint
/Y21 load 2 mul add 3 div exch
/X21 load 2 mul add 3 div exch
/X21 load 2 mul /X22 load add 3 div
/Y21 load 2 mul /Y22 load add 3 div
/X22 load /Y22 load curveto
} bd
/SSPD {
dup length /d exch dict def
{
/v exch def
/k exch def
currentpagedevice k known {
/cpdv currentpagedevice k get def
v cpdv ne {
/upd false def
/nullv v type /nulltype eq def
/nullcpdv cpdv type /nulltype eq def
nullv nullcpdv or
{
/upd true def
} {
/sametype v type cpdv type eq def
sametype {
v type /arraytype eq {
/vlen v length def
/cpdvlen cpdv length def
vlen cpdvlen eq {
0 1 vlen 1 sub {
/i exch def
/obj v i get def
/cpdobj cpdv i get def
obj cpdobj ne {
/upd true def
exit
} if
} for
} {
/upd true def
} ifelse
} {
v type /dicttype eq {
v {
/dv exch def
/dk exch def
/cpddv cpdv dk get def
dv cpddv ne {
/upd true def
exit
} if
} forall
} {
/upd true def
} ifelse
} ifelse
} if
} ifelse
upd true eq {
d k v put
} if
} if
} if
} forall
d length 0 gt {
d setpagedevice
} if
} bd
%%EndResource
%%BeginResource: procset (Apache XML Graphics EPS ProcSet) 1.0 0
%%Version: 1.0 0
%%Copyright: (Copyright 2002-2003 The Apache Software Foundation. License terms: http://www.apache.org/licenses/LICENSE-2.0)
/BeginEPSF { %def
/b4_Inc_state save def         % Save state for cleanup
/dict_count countdictstack def % Count objects on dict stack
/op_count count 1 sub def      % Count objects on operand stack
userdict begin                 % Push userdict on dict stack
/showpage { } def              % Redefine showpage, { } = null proc
0 setgray 0 setlinecap         % Prepare graphics state
1 setlinewidth 0 setlinejoin
10 setmiterlimit [ ] 0 setdash newpath
/languagelevel where           % If level not equal to 1 then
{pop languagelevel             % set strokeadjust and
1 ne                           % overprint to their defaults.
{false setstrokeadjust false setoverprint
} if
} if
} bd
/EndEPSF { %def
count op_count sub {pop} repeat            % Clean up stacks
countdictstack dict_count sub {end} repeat
b4_Inc_state restore
} bd
%%EndResource
%FOPBeginFontDict
%%IncludeResource: font Courier-Bold
%%IncludeResource: font Helvetica
%%IncludeResource: font Courier-BoldOblique
%%IncludeResource: font Courier-Oblique
%%IncludeResource: font Times-Roman
%%IncludeResource: font Helvetica-BoldOblique
%%IncludeResource: font Helvetica-Bold
%%IncludeResource: font Helvetica-Oblique
%%IncludeResource: font Times-BoldItalic
%%IncludeResource: font Courier
%%IncludeResource: font Times-Italic
%%IncludeResource: font Times-Bold
%%IncludeResource: font Symbol
%%IncludeResource: font ZapfDingbats
%FOPEndFontDict
%%BeginResource: encoding WinAnsiEncoding
/WinAnsiEncoding [
/.notdef /.notdef /.notdef /.notdef /.notdef
/.notdef /.notdef /.notdef /.notdef /.notdef
/.notdef /.notdef /.notdef /.notdef /.notdef
/.notdef /.notdef /.notdef /.notdef /.notdef
/.notdef /.notdef /.notdef /.notdef /.notdef
/.notdef /.notdef /.notdef /.notdef /.notdef
/.notdef /.notdef /space /exclam /quotedbl
/numbersign /dollar /percent /ampersand /quotesingle
/parenleft /parenright /asterisk /plus /comma
/hyphen /period /slash /zero /one
/two /three /four /five /six
/seven /eight /nine /colon /semicolon
/less /equal /greater /question /at
/A /B /C /D /E
/F /G /H /I /J
/K /L /M /N /O
/P /Q /R /S /T
/U /V /W /X /Y
/Z /bracketleft /backslash /bracketright /asciicircum
/underscore /quoteleft /a /b /c
/d /e /f /g /h
/i /j /k /l /m
/n /o /p /q /r
/s /t /u /v /w
/x /y /z /braceleft /bar
/braceright /asciitilde /bullet /Euro /bullet
/quotesinglbase /florin /quotedblbase /ellipsis /dagger
/daggerdbl /circumflex /perthousand /Scaron /guilsinglleft
/OE /bullet /Zcaron /bullet /bullet
/quoteleft /quoteright /quotedblleft /quotedblright /bullet
/endash /emdash /asciitilde /trademark /scaron
/guilsinglright /oe /bullet /zcaron /Ydieresis
/space /exclamdown /cent /sterling /currency
/yen /brokenbar /section /dieresis /copyright
/ordfeminine /guillemotleft /logicalnot /sfthyphen /registered
/macron /degree /plusminus /twosuperior /threesuperior
/acute /mu /paragraph /middot /cedilla
/onesuperior /ordmasculine /guillemotright /onequarter /onehalf
/threequarters /questiondown /Agrave /Aacute /Acircumflex
/Atilde /Adieresis /Aring /AE /Ccedilla
/Egrave /Eacute /Ecircumflex /Edieresis /Igrave
/Iacute /Icircumflex /Idieresis /Eth /Ntilde
/Ograve /Oacute /Ocircumflex /Otilde /Odieresis
/multiply /Oslash /Ugrave /Uacute /Ucircumflex
/Udieresis /Yacute /Thorn /germandbls /agrave
/aacute /acircumflex /atilde /adieresis /aring
/ae /ccedilla /egrave /eacute /ecircumflex
/edieresis /igrave /iacute /icircumflex /idieresis
/eth /ntilde /ograve /oacute /ocircumflex
/otilde /odieresis /divide /oslash /ugrave
/uacute /ucircumflex /udieresis /yacute /thorn
/ydieresis
] def
%%EndResource
%FOPBeginFontReencode
/Courier-Bold findfont
dup length dict begin
  {1 index /FID ne {def} {pop pop} ifelse} forall
  /Encoding WinAnsiEncoding def
  currentdict
end
/Courier-Bold exch definefont pop
/Helvetica findfont
dup length dict begin
  {1 index /FID ne {def} {pop pop} ifelse} forall
  /Encoding WinAnsiEncoding def
  currentdict
end
/Helvetica exch definefont pop
/Courier-BoldOblique findfont
dup length dict begin
  {1 index /FID ne {def} {pop pop} ifelse} forall
  /Encoding WinAnsiEncoding def
  currentdict
end
/Courier-BoldOblique exch definefont pop
/Courier-Oblique findfont
dup length dict begin
  {1 index /FID ne {def} {pop pop} ifelse} forall
  /Encoding WinAnsiEncoding def
  currentdict
end
/Courier-Oblique exch definefont pop
/Times-Roman findfont
dup length dict begin
  {1 index /FID ne {def} {pop pop} ifelse} forall
  /Encoding WinAnsiEncoding def
  currentdict
end
/Times-Roman exch definefont pop
/Helvetica-BoldOblique findfont
dup length dict begin
  {1 index /FID ne {def} {pop pop} ifelse} forall
  /Encoding WinAnsiEncoding def
  currentdict
end
/Helvetica-BoldOblique exch definefont pop
/Helvetica-Bold findfont
dup length dict begin
  {1 index /FID ne {def} {pop pop} ifelse} forall
  /Encoding WinAnsiEncoding def
  currentdict
end
/Helvetica-Bold exch definefont pop
/Helvetica-Oblique findfont
dup length dict begin
  {1 index /FID ne {def} {pop pop} ifelse} forall
  /Encoding WinAnsiEncoding def
  currentdict
end
/Helvetica-Oblique exch definefont pop
/Times-BoldItalic findfont
dup length dict begin
  {1 index /FID ne {def} {pop pop} ifelse} forall
  /Encoding WinAnsiEncoding def
  currentdict
end
/Times-BoldItalic exch definefont pop
/Courier findfont
dup length dict begin
  {1 index /FID ne {def} {pop pop} ifelse} forall
  /Encoding WinAnsiEncoding def
  currentdict
end
/Courier exch definefont pop
/Times-Italic findfont
dup length dict begin
  {1 index /FID ne {def} {pop pop} ifelse} forall
  /Encoding WinAnsiEncoding def
  currentdict
end
/Times-Italic exch definefont pop
/Times-Bold findfont
dup length dict begin
  {1 index /FID ne {def} {pop pop} ifelse} forall
  /Encoding WinAnsiEncoding def
  currentdict
end
/Times-Bold exch definefont pop
%FOPEndFontReencode
%%EndProlog
%%Page: 1 1
%%PageBoundingBox: 0 0 560 420
%%BeginPageSetup
[1 0 0 -1 0 420] CT
%%EndPageSetup
GS
1 GC
N
0 0 560 420 re
f
GR
GS
1 GC
N
0 0 560 420 re
f
GR
GS
1 GC
N
73 372.5 M
507 372.5 L
507 31.5 L
73 31.5 L
cp
f
GR
GS
0.873 GC
1 LJ
0.5 LW
N
75.227 372.5 M
75.227 31.5 L
S
GR
GS
0.873 GC
1 LJ
0.5 LW
N
147.313 372.5 M
147.313 31.5 L
S
GR
GS
0.873 GC
1 LJ
0.5 LW
N
219.399 372.5 M
219.399 31.5 L
S
GR
GS
0.873 GC
1 LJ
0.5 LW
N
291.485 372.5 M
291.485 31.5 L
S
GR
GS
0.873 GC
1 LJ
0.5 LW
N
363.571 372.5 M
363.571 31.5 L
S
GR
GS
0.873 GC
1 LJ
0.5 LW
N
435.657 372.5 M
435.657 31.5 L
S
GR
GS
0.873 GC
1 LJ
0.5 LW
N
507 325.047 M
73 325.047 L
S
GR
GS
0.873 GC
1 LJ
0.5 LW
N
507 271.615 M
73 271.615 L
S
GR
GS
0.873 GC
1 LJ
0.5 LW
N
507 218.183 M
73 218.183 L
S
GR
GS
0.873 GC
1 LJ
0.5 LW
N
507 164.751 M
73 164.751 L
S
GR
GS
0.873 GC
1 LJ
0.5 LW
N
507 111.319 M
73 111.319 L
S
GR
GS
0.873 GC
1 LJ
0.5 LW
N
507 57.887 M
73 57.887 L
S
GR
GS
0.149 GC
2 setlinecap
1 LJ
0.5 LW
N
73 372.5 M
507 372.5 L
S
GR
GS
0.149 GC
2 setlinecap
1 LJ
0.5 LW
N
75.227 372.5 M
75.227 368.16 L
S
GR
GS
0.149 GC
2 setlinecap
1 LJ
0.5 LW
N
147.313 372.5 M
147.313 368.16 L
S
GR
GS
0.149 GC
2 setlinecap
1 LJ
0.5 LW
N
219.399 372.5 M
219.399 368.16 L
S
GR
GS
0.149 GC
2 setlinecap
1 LJ
0.5 LW
N
291.485 372.5 M
291.485 368.16 L
S
GR
GS
0.149 GC
2 setlinecap
1 LJ
0.5 LW
N
363.571 372.5 M
363.571 368.16 L
S
GR
GS
0.149 GC
2 setlinecap
1 LJ
0.5 LW
N
435.657 372.5 M
435.657 368.16 L
S
GR
GS
[1 0 0 1 75.22746 377.30002] CT
0.149 GC
/Helvetica 14 F
GS
[1 0 0 1 0 0] CT
-12.5 14 moveto 
1 -1 scale
(-1.8) t 
GR
GR
GS
[1 0 0 1 147.31328 377.30002] CT
0.149 GC
/Helvetica 14 F
GS
[1 0 0 1 0 0] CT
-12.5 14 moveto 
1 -1 scale
(-1.6) t 
GR
GR
GS
[1 0 0 1 219.39912 377.30002] CT
0.149 GC
/Helvetica 14 F
GS
[1 0 0 1 0 0] CT
-12.5 14 moveto 
1 -1 scale
(-1.4) t 
GR
GR
GS
[1 0 0 1 291.48495 377.30002] CT
0.149 GC
/Helvetica 14 F
GS
[1 0 0 1 0 0] CT
-12.5 14 moveto 
1 -1 scale
(-1.2) t 
GR
GR
GS
[1 0 0 1 363.5708 377.30002] CT
0.149 GC
/Helvetica 14 F
GS
[1 0 0 1 0 0] CT
-7 14 moveto 
1 -1 scale
(-1) t 
GR
GR
GS
[1 0 0 1 435.65665 377.30002] CT
0.149 GC
/Helvetica 14 F
GS
[1 0 0 1 0 0] CT
-12.5 14 moveto 
1 -1 scale
(-0.8) t 
GR
GR
GS
[1 0 0 1 239 410] CT
0.149 GC
/Helvetica 15 F
GS
[1 0 0 1 0 0] CT
0 0 moveto 
1 -1 scale
(1/nElem [log) t 
GR
GR
GS
[1 0 0 1 323 417] CT
0.149 GC
/Helvetica 12 F
GS
[1 0 0 1 0 0] CT
0 0 moveto 
1 -1 scale
(10) t 
GR
GR
GS
[1 0 0 1 337 410] CT
0.149 GC
/Helvetica 15 F
GS
[1 0 0 1 0 0] CT
0 0 moveto 
1 -1 scale
(]) t 
GR
GR
GS
0.149 GC
2 setlinecap
1 LJ
0.5 LW
N
73 372.5 M
73 31.5 L
S
GR
GS
0.149 GC
2 setlinecap
1 LJ
0.5 LW
N
73 325.047 M
77.34 325.047 L
S
GR
GS
0.149 GC
2 setlinecap
1 LJ
0.5 LW
N
73 271.615 M
77.34 271.615 L
S
GR
GS
0.149 GC
2 setlinecap
1 LJ
0.5 LW
N
73 218.183 M
77.34 218.183 L
S
GR
GS
0.149 GC
2 setlinecap
1 LJ
0.5 LW
N
73 164.751 M
77.34 164.751 L
S
GR
GS
0.149 GC
2 setlinecap
1 LJ
0.5 LW
N
73 111.319 M
77.34 111.319 L
S
GR
GS
0.149 GC
2 setlinecap
1 LJ
0.5 LW
N
73 57.887 M
77.34 57.887 L
S
GR
GS
[1 0 0 1 68.19999 325.04688] CT
0.149 GC
/Helvetica 14 F
GS
[1 0 0 1 0 0] CT
-22 5.5 moveto 
1 -1 scale
(-12) t 
GR
GR
GS
[1 0 0 1 68.19999 271.61493] CT
0.149 GC
/Helvetica 14 F
GS
[1 0 0 1 0 0] CT
-22 5.5 moveto 
1 -1 scale
(-10) t 
GR
GR
GS
[1 0 0 1 68.19999 218.18294] CT
0.149 GC
/Helvetica 14 F
GS
[1 0 0 1 0 0] CT
-14 5.5 moveto 
1 -1 scale
(-8) t 
GR
GR
GS
[1 0 0 1 68.19999 164.75096] CT
0.149 GC
/Helvetica 14 F
GS
[1 0 0 1 0 0] CT
-14 5.5 moveto 
1 -1 scale
(-6) t 
GR
GR
GS
[1 0 0 1 68.19999 111.31899] CT
0.149 GC
/Helvetica 14 F
GS
[1 0 0 1 0 0] CT
-14 5.5 moveto 
1 -1 scale
(-4) t 
GR
GR
GS
[1 0 0 1 68.19999 57.88702] CT
0.149 GC
/Helvetica 14 F
GS
[1 0 0 1 0 0] CT
-14 5.5 moveto 
1 -1 scale
(-2) t 
GR
GR
GS
[0 -1 1 0 34 281] CT
0.149 GC
/Helvetica 15 F
GS
[1 0 0 1 0 0] CT
0 0 moveto 
1 -1 scale
(Solution L) t 
GR
GR
GS
[0 -1 1 0 41 213] CT
0.149 GC
/Helvetica 12 F
GS
[1 0 0 1 0 0] CT
0 0 moveto 
1 -1 scale
(2) t 
GR
GR
GS
[0 -1 1 0 34 206] CT
0.149 GC
/Helvetica 15 F
GS
[1 0 0 1 0 0] CT
0 0 moveto 
1 -1 scale
( error [log) t 
GR
GR
GS
[0 -1 1 0 41 141] CT
0.149 GC
/Helvetica 12 F
GS
[1 0 0 1 0 0] CT
0 0 moveto 
1 -1 scale
(10) t 
GR
GR
GS
[0 -1 1 0 34 127] CT
0.149 GC
/Helvetica 15 F
GS
[1 0 0 1 0 0] CT
0 0 moveto 
1 -1 scale
(]) t 
GR
GR
GS
[1 0 0 1 290.00027 29.575] CT
/Helvetica-Bold 15.4 F
GS
[1 0 0 1 0 0] CT
-125 -4 moveto 
1 -1 scale
(Q5 grid: Trace Normal Comparison) t 
GR
GR
GS
1 0 0 RC
1 LJ
0.5 LW
N
507 31.5 M
398.5 39.034 L
290 46.817 L
181.5 54.73 L
73 62.707 L
S
GR
GS
1 0 0 RC
1 LJ
N
503 31.5 M
510 31.5 L
S
GR
GS
1 0 0 RC
1 LJ
N
506.5 35 M
506.5 28 L
S
GR
GS
1 0 0 RC
1 LJ
N
395 39.5 M
402 39.5 L
S
GR
GS
1 0 0 RC
1 LJ
N
398.5 43 M
398.5 36 L
S
GR
GS
1 0 0 RC
1 LJ
N
286 46.5 M
293 46.5 L
S
GR
GS
1 0 0 RC
1 LJ
N
289.5 50 M
289.5 43 L
S
GR
GS
1 0 0 RC
1 LJ
N
178 54.5 M
185 54.5 L
S
GR
GS
1 0 0 RC
1 LJ
N
181.5 58 M
181.5 51 L
S
GR
GS
1 0 0 RC
1 LJ
N
70 62.5 M
77 62.5 L
S
GR
GS
1 0 0 RC
1 LJ
N
73.5 66 M
73.5 59 L
S
GR
GS
0 0 1 RC
1 LJ
0.5 LW
N
507 84.746 M
398.5 101.723 L
290 118.053 L
181.5 134.212 L
73 150.323 L
S
GR
GS
0 0 1 RC
1 LJ
N
509.5 84.5 M
508.621 82.379 L
506.5 81.5 L
504.379 82.379 L
503.5 84.5 L
504.379 86.621 L
506.5 87.5 L
508.621 86.621 L
cp
S
GR
GS
0 0 1 RC
1 LJ
N
401.5 101.5 M
400.621 99.379 L
398.5 98.5 L
396.379 99.379 L
395.5 101.5 L
396.379 103.621 L
398.5 104.5 L
400.621 103.621 L
cp
S
GR
GS
0 0 1 RC
1 LJ
N
292.5 118.5 M
291.621 116.379 L
289.5 115.5 L
287.379 116.379 L
286.5 118.5 L
287.379 120.621 L
289.5 121.5 L
291.621 120.621 L
cp
S
GR
GS
0 0 1 RC
1 LJ
N
184.5 134.5 M
183.621 132.379 L
181.5 131.5 L
179.379 132.379 L
178.5 134.5 L
179.379 136.621 L
181.5 137.5 L
183.621 136.621 L
cp
S
GR
GS
0 0 1 RC
1 LJ
N
76.5 150.5 M
75.621 148.379 L
73.5 147.5 L
71.379 148.379 L
70.5 150.5 L
71.379 152.621 L
73.5 153.5 L
75.621 152.621 L
cp
S
GR
GS
1 LJ
0.5 LW
N
507 109.232 M
398.5 133.543 L
290 157.773 L
181.5 181.955 L
73 206.11 L
S
GR
GS
10.0 ML
N
506.5 113.499 M
509.5 109.5 L
506.5 105.501 L
503.5 109.5 L
cp
S
GR
GS
10.0 ML
N
398.5 137.499 M
401.5 133.5 L
398.5 129.501 L
395.5 133.5 L
cp
S
GR
GS
10.0 ML
N
289.5 161.499 M
292.5 157.5 L
289.5 153.501 L
286.5 157.5 L
cp
S
GR
GS
10.0 ML
N
181.5 185.499 M
184.5 181.5 L
181.5 177.501 L
178.5 181.5 L
cp
S
GR
GS
10.0 ML
N
73.5 210.499 M
76.5 206.5 L
73.5 202.501 L
70.5 206.5 L
cp
S
GR
GS
1 0 1 RC
1 LJ
0.5 LW
N
507 182.42 M
398.5 216.682 L
290 249.506 L
181.5 281.855 L
73 314.073 L
S
GR
GS
1 0 1 RC
1 LJ
N
503 182.5 M
510 182.5 L
S
GR
GS
1 0 1 RC
1 LJ
N
506.5 186 M
506.5 179 L
S
GR
GS
1 0 1 RC
1 LJ
N
504 185 M
509 180 L
S
GR
GS
1 0 1 RC
1 LJ
N
504 180 M
509 185 L
S
GR
GS
1 0 1 RC
1 LJ
N
395 216.5 M
402 216.5 L
S
GR
GS
1 0 1 RC
1 LJ
N
398.5 220 M
398.5 213 L
S
GR
GS
1 0 1 RC
1 LJ
N
396 219 M
401 214 L
S
GR
GS
1 0 1 RC
1 LJ
N
396 214 M
401 219 L
S
GR
GS
1 0 1 RC
1 LJ
N
286 249.5 M
293 249.5 L
S
GR
GS
1 0 1 RC
1 LJ
N
289.5 253 M
289.5 246 L
S
GR
GS
1 0 1 RC
1 LJ
N
287 252 M
292 247 L
S
GR
GS
1 0 1 RC
1 LJ
N
287 247 M
292 252 L
S
GR
GS
1 0 1 RC
1 LJ
N
178 281.5 M
185 281.5 L
S
GR
GS
1 0 1 RC
1 LJ
N
181.5 285 M
181.5 278 L
S
GR
GS
1 0 1 RC
1 LJ
N
179 284 M
184 279 L
S
GR
GS
1 0 1 RC
1 LJ
N
179 279 M
184 284 L
S
GR
GS
1 0 1 RC
1 LJ
N
70 314.5 M
77 314.5 L
S
GR
GS
1 0 1 RC
1 LJ
N
73.5 318 M
73.5 311 L
S
GR
GS
1 0 1 RC
1 LJ
N
71 317 M
76 312 L
S
GR
GS
1 0 1 RC
1 LJ
N
71 312 M
76 317 L
S
GR
GS
0 1 0 RC
1 LJ
0.5 LW
N
507 211.515 M
398.5 251.813 L
290 292.08 L
181.5 332.318 L
73 372.5 L
S
GR
GS
0 1 0 RC
1 LJ
N
504 214 M
509 209 L
S
GR
GS
0 1 0 RC
1 LJ
N
504 209 M
509 214 L
S
GR
GS
0 1 0 RC
1 LJ
N
396 254 M
401 249 L
S
GR
GS
0 1 0 RC
1 LJ
N
396 249 M
401 254 L
S
GR
GS
0 1 0 RC
1 LJ
N
287 295 M
292 290 L
S
GR
GS
0 1 0 RC
1 LJ
N
287 290 M
292 295 L
S
GR
GS
0 1 0 RC
1 LJ
N
179 335 M
184 330 L
S
GR
GS
0 1 0 RC
1 LJ
N
179 330 M
184 335 L
S
GR
GS
0 1 0 RC
1 LJ
N
71 375 M
76 370 L
S
GR
GS
0 1 0 RC
1 LJ
N
71 370 M
76 375 L
S
GR
GS
1 0 0 RC
[10 6] 0 setdash
2 LJ
0.5 LW
N
507 31.5 M
398.5 39.034 L
290 46.817 L
181.5 54.73 L
73 62.707 L
S
GR
GS
1 0 0 RC
1 LJ
N
503 31.5 M
510 31.5 L
S
GR
GS
1 0 0 RC
1 LJ
N
506.5 35 M
506.5 28 L
S
GR
GS
1 0 0 RC
1 LJ
N
395 39.5 M
402 39.5 L
S
GR
GS
1 0 0 RC
1 LJ
N
398.5 43 M
398.5 36 L
S
GR
GS
1 0 0 RC
1 LJ
N
286 46.5 M
293 46.5 L
S
GR
GS
1 0 0 RC
1 LJ
N
289.5 50 M
289.5 43 L
S
GR
GS
1 0 0 RC
1 LJ
N
178 54.5 M
185 54.5 L
S
GR
GS
1 0 0 RC
1 LJ
N
181.5 58 M
181.5 51 L
S
GR
GS
1 0 0 RC
1 LJ
N
70 62.5 M
77 62.5 L
S
GR
GS
1 0 0 RC
1 LJ
N
73.5 66 M
73.5 59 L
S
GR
GS
0 0 1 RC
[10 6] 0 setdash
2 LJ
0.5 LW
N
507 84.746 M
398.5 101.723 L
290 118.053 L
181.5 134.212 L
73 150.323 L
S
GR
GS
0 0 1 RC
1 LJ
N
509.5 84.5 M
508.621 82.379 L
506.5 81.5 L
504.379 82.379 L
503.5 84.5 L
504.379 86.621 L
506.5 87.5 L
508.621 86.621 L
cp
S
GR
GS
0 0 1 RC
1 LJ
N
401.5 101.5 M
400.621 99.379 L
398.5 98.5 L
396.379 99.379 L
395.5 101.5 L
396.379 103.621 L
398.5 104.5 L
400.621 103.621 L
cp
S
GR
GS
0 0 1 RC
1 LJ
N
292.5 118.5 M
291.621 116.379 L
289.5 115.5 L
287.379 116.379 L
286.5 118.5 L
287.379 120.621 L
289.5 121.5 L
291.621 120.621 L
cp
S
GR
GS
0 0 1 RC
1 LJ
N
184.5 134.5 M
183.621 132.379 L
181.5 131.5 L
179.379 132.379 L
178.5 134.5 L
179.379 136.621 L
181.5 137.5 L
183.621 136.621 L
cp
S
GR
GS
0 0 1 RC
1 LJ
N
76.5 150.5 M
75.621 148.379 L
73.5 147.5 L
71.379 148.379 L
70.5 150.5 L
71.379 152.621 L
73.5 153.5 L
75.621 152.621 L
cp
S
GR
GS
[10 6] 0 setdash
2 LJ
0.5 LW
N
507 109.232 M
398.5 133.543 L
290 157.773 L
181.5 181.955 L
73 206.11 L
S
GR
GS
10.0 ML
N
506.5 113.499 M
509.5 109.5 L
506.5 105.501 L
503.5 109.5 L
cp
S
GR
GS
10.0 ML
N
398.5 137.499 M
401.5 133.5 L
398.5 129.501 L
395.5 133.5 L
cp
S
GR
GS
10.0 ML
N
289.5 161.499 M
292.5 157.5 L
289.5 153.501 L
286.5 157.5 L
cp
S
GR
GS
10.0 ML
N
181.5 185.499 M
184.5 181.5 L
181.5 177.501 L
178.5 181.5 L
cp
S
GR
GS
10.0 ML
N
73.5 210.499 M
76.5 206.5 L
73.5 202.501 L
70.5 206.5 L
cp
S
GR
GS
1 0 1 RC
[10 6] 0 setdash
2 LJ
0.5 LW
N
507 182.42 M
398.5 216.682 L
290 249.506 L
181.5 281.855 L
73 314.073 L
S
GR
GS
1 0 1 RC
1 LJ
N
503 182.5 M
510 182.5 L
S
GR
GS
1 0 1 RC
1 LJ
N
506.5 186 M
506.5 179 L
S
GR
GS
1 0 1 RC
1 LJ
N
504 185 M
509 180 L
S
GR
GS
1 0 1 RC
1 LJ
N
504 180 M
509 185 L
S
GR
GS
1 0 1 RC
1 LJ
N
395 216.5 M
402 216.5 L
S
GR
GS
1 0 1 RC
1 LJ
N
398.5 220 M
398.5 213 L
S
GR
GS
1 0 1 RC
1 LJ
N
396 219 M
401 214 L
S
GR
GS
1 0 1 RC
1 LJ
N
396 214 M
401 219 L
S
GR
GS
1 0 1 RC
1 LJ
N
286 249.5 M
293 249.5 L
S
GR
GS
1 0 1 RC
1 LJ
N
289.5 253 M
289.5 246 L
S
GR
GS
1 0 1 RC
1 LJ
N
287 252 M
292 247 L
S
GR
GS
1 0 1 RC
1 LJ
N
287 247 M
292 252 L
S
GR
GS
1 0 1 RC
1 LJ
N
178 281.5 M
185 281.5 L
S
GR
GS
1 0 1 RC
1 LJ
N
181.5 285 M
181.5 278 L
S
GR
GS
1 0 1 RC
1 LJ
N
179 284 M
184 279 L
S
GR
GS
1 0 1 RC
1 LJ
N
179 279 M
184 284 L
S
GR
GS
1 0 1 RC
1 LJ
N
70 314.5 M
77 314.5 L
S
GR
GS
1 0 1 RC
1 LJ
N
73.5 318 M
73.5 311 L
S
GR
GS
1 0 1 RC
1 LJ
N
71 317 M
76 312 L
S
GR
GS
1 0 1 RC
1 LJ
N
71 312 M
76 317 L
S
GR
GS
0 1 0 RC
[10 6] 0 setdash
2 LJ
0.5 LW
N
507 211.515 M
398.5 251.813 L
290 292.08 L
181.5 332.319 L
73 372.497 L
S
GR
GS
0 1 0 RC
1 LJ
N
504 214 M
509 209 L
S
GR
GS
0 1 0 RC
1 LJ
N
504 209 M
509 214 L
S
GR
GS
0 1 0 RC
1 LJ
N
396 254 M
401 249 L
S
GR
GS
0 1 0 RC
1 LJ
N
396 249 M
401 254 L
S
GR
GS
0 1 0 RC
1 LJ
N
287 295 M
292 290 L
S
GR
GS
0 1 0 RC
1 LJ
N
287 290 M
292 295 L
S
GR
GS
0 1 0 RC
1 LJ
N
179 335 M
184 330 L
S
GR
GS
0 1 0 RC
1 LJ
N
179 330 M
184 335 L
S
GR
GS
0 1 0 RC
1 LJ
N
71 375 M
76 370 L
S
GR
GS
0 1 0 RC
1 LJ
N
71 370 M
76 375 L
S
GR
GS
1 0 0 RC
[8 3 2 3] 0 setdash
2 LJ
0.5 LW
N
507 31.5 M
398.5 39.034 L
290 46.817 L
181.5 54.73 L
73 62.707 L
S
GR
GS
1 0 0 RC
1 LJ
N
503 31.5 M
510 31.5 L
S
GR
GS
1 0 0 RC
1 LJ
N
506.5 35 M
506.5 28 L
S
GR
GS
1 0 0 RC
1 LJ
N
395 39.5 M
402 39.5 L
S
GR
GS
1 0 0 RC
1 LJ
N
398.5 43 M
398.5 36 L
S
GR
GS
1 0 0 RC
1 LJ
N
286 46.5 M
293 46.5 L
S
GR
GS
1 0 0 RC
1 LJ
N
289.5 50 M
289.5 43 L
S
GR
GS
1 0 0 RC
1 LJ
N
178 54.5 M
185 54.5 L
S
GR
GS
1 0 0 RC
1 LJ
N
181.5 58 M
181.5 51 L
S
GR
GS
1 0 0 RC
1 LJ
N
70 62.5 M
77 62.5 L
S
GR
GS
1 0 0 RC
1 LJ
N
73.5 66 M
73.5 59 L
S
GR
GS
0 0 1 RC
[8 3 2 3] 0 setdash
2 LJ
0.5 LW
N
507 84.746 M
398.5 101.723 L
290 118.053 L
181.5 134.212 L
73 150.323 L
S
GR
GS
0 0 1 RC
1 LJ
N
509.5 84.5 M
508.621 82.379 L
506.5 81.5 L
504.379 82.379 L
503.5 84.5 L
504.379 86.621 L
506.5 87.5 L
508.621 86.621 L
cp
S
GR
GS
0 0 1 RC
1 LJ
N
401.5 101.5 M
400.621 99.379 L
398.5 98.5 L
396.379 99.379 L
395.5 101.5 L
396.379 103.621 L
398.5 104.5 L
400.621 103.621 L
cp
S
GR
GS
0 0 1 RC
1 LJ
N
292.5 118.5 M
291.621 116.379 L
289.5 115.5 L
287.379 116.379 L
286.5 118.5 L
287.379 120.621 L
289.5 121.5 L
291.621 120.621 L
cp
S
GR
GS
0 0 1 RC
1 LJ
N
184.5 134.5 M
183.621 132.379 L
181.5 131.5 L
179.379 132.379 L
178.5 134.5 L
179.379 136.621 L
181.5 137.5 L
183.621 136.621 L
cp
S
GR
GS
0 0 1 RC
1 LJ
N
76.5 150.5 M
75.621 148.379 L
73.5 147.5 L
71.379 148.379 L
70.5 150.5 L
71.379 152.621 L
73.5 153.5 L
75.621 152.621 L
cp
S
GR
GS
[8 3 2 3] 0 setdash
2 LJ
0.5 LW
N
507 109.232 M
398.5 133.543 L
290 157.773 L
181.5 181.955 L
73 206.11 L
S
GR
GS
10.0 ML
N
506.5 113.499 M
509.5 109.5 L
506.5 105.501 L
503.5 109.5 L
cp
S
GR
GS
10.0 ML
N
398.5 137.499 M
401.5 133.5 L
398.5 129.501 L
395.5 133.5 L
cp
S
GR
GS
10.0 ML
N
289.5 161.499 M
292.5 157.5 L
289.5 153.501 L
286.5 157.5 L
cp
S
GR
GS
10.0 ML
N
181.5 185.499 M
184.5 181.5 L
181.5 177.501 L
178.5 181.5 L
cp
S
GR
GS
10.0 ML
N
73.5 210.499 M
76.5 206.5 L
73.5 202.501 L
70.5 206.5 L
cp
S
GR
GS
1 0 1 RC
[8 3 2 3] 0 setdash
2 LJ
0.5 LW
N
507 182.42 M
398.5 216.682 L
290 249.506 L
181.5 281.855 L
73 314.073 L
S
GR
GS
1 0 1 RC
1 LJ
N
503 182.5 M
510 182.5 L
S
GR
GS
1 0 1 RC
1 LJ
N
506.5 186 M
506.5 179 L
S
GR
GS
1 0 1 RC
1 LJ
N
504 185 M
509 180 L
S
GR
GS
1 0 1 RC
1 LJ
N
504 180 M
509 185 L
S
GR
GS
1 0 1 RC
1 LJ
N
395 216.5 M
402 216.5 L
S
GR
GS
1 0 1 RC
1 LJ
N
398.5 220 M
398.5 213 L
S
GR
GS
1 0 1 RC
1 LJ
N
396 219 M
401 214 L
S
GR
GS
1 0 1 RC
1 LJ
N
396 214 M
401 219 L
S
GR
GS
1 0 1 RC
1 LJ
N
286 249.5 M
293 249.5 L
S
GR
GS
1 0 1 RC
1 LJ
N
289.5 253 M
289.5 246 L
S
GR
GS
1 0 1 RC
1 LJ
N
287 252 M
292 247 L
S
GR
GS
1 0 1 RC
1 LJ
N
287 247 M
292 252 L
S
GR
GS
1 0 1 RC
1 LJ
N
178 281.5 M
185 281.5 L
S
GR
GS
1 0 1 RC
1 LJ
N
181.5 285 M
181.5 278 L
S
GR
GS
1 0 1 RC
1 LJ
N
179 284 M
184 279 L
S
GR
GS
1 0 1 RC
1 LJ
N
179 279 M
184 284 L
S
GR
GS
1 0 1 RC
1 LJ
N
70 314.5 M
77 314.5 L
S
GR
GS
1 0 1 RC
1 LJ
N
73.5 318 M
73.5 311 L
S
GR
GS
1 0 1 RC
1 LJ
N
71 317 M
76 312 L
S
GR
GS
1 0 1 RC
1 LJ
N
71 312 M
76 317 L
S
GR
GS
0 1 0 RC
[8 3 2 3] 0 setdash
2 LJ
0.5 LW
N
507 211.515 M
398.5 251.813 L
290 292.08 L
181.5 332.319 L
73 372.498 L
S
GR
GS
0 1 0 RC
1 LJ
N
504 214 M
509 209 L
S
GR
GS
0 1 0 RC
1 LJ
N
504 209 M
509 214 L
S
GR
GS
0 1 0 RC
1 LJ
N
396 254 M
401 249 L
S
GR
GS
0 1 0 RC
1 LJ
N
396 249 M
401 254 L
S
GR
GS
0 1 0 RC
1 LJ
N
287 295 M
292 290 L
S
GR
GS
0 1 0 RC
1 LJ
N
287 290 M
292 295 L
S
GR
GS
0 1 0 RC
1 LJ
N
179 335 M
184 330 L
S
GR
GS
0 1 0 RC
1 LJ
N
179 330 M
184 335 L
S
GR
GS
0 1 0 RC
1 LJ
N
71 375 M
76 370 L
S
GR
GS
0 1 0 RC
1 LJ
N
71 370 M
76 375 L
S
GR
GS
1 GC
N
428.5 356 M
428.5 275 L
498.5 275 L
498.5 356 L
cp
f
GR
GS
[1 0 0 1 465.5 284.5] CT
/Helvetica 12.6 F
GS
[1 0 0 1 0 0] CT
0 5 moveto 
1 -1 scale
(p = 0) t 
GR
GR
GS
1 0 0 RC
1 LJ
0.5 LW
N
432.5 284.5 M
462.5 284.5 L
S
GR
GS
1 0 0 RC
1 LJ
N
444 284.5 M
451 284.5 L
S
GR
GS
1 0 0 RC
1 LJ
N
447.5 288 M
447.5 281 L
S
GR
GS
[1 0 0 1 465.5 300] CT
/Helvetica 12.6 F
GS
[1 0 0 1 0 0] CT
0 5 moveto 
1 -1 scale
(p = 1) t 
GR
GR
GS
0 0 1 RC
1 LJ
0.5 LW
N
432.5 300 M
462.5 300 L
S
GR
GS
0 0 1 RC
1 LJ
N
450.5 299.5 M
449.621 297.379 L
447.5 296.5 L
445.379 297.379 L
444.5 299.5 L
445.379 301.621 L
447.5 302.5 L
449.621 301.621 L
cp
S
GR
GS
[1 0 0 1 465.5 315.5] CT
/Helvetica 12.6 F
GS
[1 0 0 1 0 0] CT
0 5 moveto 
1 -1 scale
(p = 2) t 
GR
GR
GS
1 LJ
0.5 LW
N
432.5 315.5 M
462.5 315.5 L
S
GR
GS
10.0 ML
N
447.5 319.499 M
450.5 315.5 L
447.5 311.501 L
444.5 315.5 L
cp
S
GR
GS
[1 0 0 1 465.5 331] CT
/Helvetica 12.6 F
GS
[1 0 0 1 0 0] CT
0 5 moveto 
1 -1 scale
(p = 3) t 
GR
GR
GS
1 0 1 RC
1 LJ
0.5 LW
N
432.5 331 M
462.5 331 L
S
GR
GS
1 0 1 RC
1 LJ
N
444 331.5 M
451 331.5 L
S
GR
GS
1 0 1 RC
1 LJ
N
447.5 335 M
447.5 328 L
S
GR
GS
1 0 1 RC
1 LJ
N
445 334 M
450 329 L
S
GR
GS
1 0 1 RC
1 LJ
N
445 329 M
450 334 L
S
GR
GS
[1 0 0 1 465.5 346.5] CT
/Helvetica 12.6 F
GS
[1 0 0 1 0 0] CT
0 5 moveto 
1 -1 scale
(p = 4) t 
GR
GR
GS
0 1 0 RC
1 LJ
0.5 LW
N
432.5 346.5 M
462.5 346.5 L
S
GR
GS
0 1 0 RC
1 LJ
N
445 349 M
450 344 L
S
GR
GS
0 1 0 RC
1 LJ
N
445 344 M
450 349 L
S
GR
GS
0.149 GC
10.0 ML
0.5 LW
N
428.5 356 M
428.5 275 L
498.5 275 L
498.5 356 L
cp
S
GR
%%Trailer
%%Pages: 1
%%EOF
