%!PS-Adobe-3.0 EPSF-3.0
%%Creator: (MATLAB, The Mathworks, Inc. Version 9.0.0.341360 \(R2016a\). Operating System: Mac OS X)
%%Title: ./Circle_Line_Q4.eps
%%CreationDate: 2016-05-23T11:20:03
%%Pages: (atend)
%%BoundingBox:    22     2   511   406
%%LanguageLevel: 2
%%EndComments
%%BeginProlog
%%BeginResource: procset (Apache XML Graphics Std ProcSet) 1.2 0
%%Version: 1.2 0
%%Copyright: (Copyright 2001-2003,2010 The Apache Software Foundation. License terms: http://www.apache.org/licenses/LICENSE-2.0)
/bd{bind def}bind def
/ld{load def}bd
/GR/grestore ld
/M/moveto ld
/LJ/setlinejoin ld
/C/curveto ld
/f/fill ld
/LW/setlinewidth ld
/GC/setgray ld
/t/show ld
/N/newpath ld
/CT/concat ld
/cp/closepath ld
/S/stroke ld
/L/lineto ld
/CC/setcmykcolor ld
/A/ashow ld
/GS/gsave ld
/RC/setrgbcolor ld
/RM/rmoveto ld
/ML/setmiterlimit ld
/re {4 2 roll M
1 index 0 rlineto
0 exch rlineto
neg 0 rlineto
cp } bd
/_ctm matrix def
/_tm matrix def
/BT { _ctm currentmatrix pop matrix _tm copy pop 0 0 moveto } bd
/ET { _ctm setmatrix } bd
/iTm { _ctm setmatrix _tm concat } bd
/Tm { _tm astore pop iTm 0 0 moveto } bd
/ux 0.0 def
/uy 0.0 def
/F {
  /Tp exch def
  /Tf exch def
  Tf findfont Tp scalefont setfont
  /cf Tf def  /cs Tp def
} bd
/ULS {currentpoint /uy exch def /ux exch def} bd
/ULE {
  /Tcx currentpoint pop def
  gsave
  newpath
  cf findfont cs scalefont dup
  /FontMatrix get 0 get /Ts exch def /FontInfo get dup
  /UnderlinePosition get Ts mul /To exch def
  /UnderlineThickness get Ts mul /Tt exch def
  ux uy To add moveto  Tcx uy To add lineto
  Tt setlinewidth stroke
  grestore
} bd
/OLE {
  /Tcx currentpoint pop def
  gsave
  newpath
  cf findfont cs scalefont dup
  /FontMatrix get 0 get /Ts exch def /FontInfo get dup
  /UnderlinePosition get Ts mul /To exch def
  /UnderlineThickness get Ts mul /Tt exch def
  ux uy To add cs add moveto Tcx uy To add cs add lineto
  Tt setlinewidth stroke
  grestore
} bd
/SOE {
  /Tcx currentpoint pop def
  gsave
  newpath
  cf findfont cs scalefont dup
  /FontMatrix get 0 get /Ts exch def /FontInfo get dup
  /UnderlinePosition get Ts mul /To exch def
  /UnderlineThickness get Ts mul /Tt exch def
  ux uy To add cs 10 mul 26 idiv add moveto Tcx uy To add cs 10 mul 26 idiv add lineto
  Tt setlinewidth stroke
  grestore
} bd
/QT {
/Y22 exch store
/X22 exch store
/Y21 exch store
/X21 exch store
currentpoint
/Y21 load 2 mul add 3 div exch
/X21 load 2 mul add 3 div exch
/X21 load 2 mul /X22 load add 3 div
/Y21 load 2 mul /Y22 load add 3 div
/X22 load /Y22 load curveto
} bd
/SSPD {
dup length /d exch dict def
{
/v exch def
/k exch def
currentpagedevice k known {
/cpdv currentpagedevice k get def
v cpdv ne {
/upd false def
/nullv v type /nulltype eq def
/nullcpdv cpdv type /nulltype eq def
nullv nullcpdv or
{
/upd true def
} {
/sametype v type cpdv type eq def
sametype {
v type /arraytype eq {
/vlen v length def
/cpdvlen cpdv length def
vlen cpdvlen eq {
0 1 vlen 1 sub {
/i exch def
/obj v i get def
/cpdobj cpdv i get def
obj cpdobj ne {
/upd true def
exit
} if
} for
} {
/upd true def
} ifelse
} {
v type /dicttype eq {
v {
/dv exch def
/dk exch def
/cpddv cpdv dk get def
dv cpddv ne {
/upd true def
exit
} if
} forall
} {
/upd true def
} ifelse
} ifelse
} if
} ifelse
upd true eq {
d k v put
} if
} if
} if
} forall
d length 0 gt {
d setpagedevice
} if
} bd
%%EndResource
%%BeginResource: procset (Apache XML Graphics EPS ProcSet) 1.0 0
%%Version: 1.0 0
%%Copyright: (Copyright 2002-2003 The Apache Software Foundation. License terms: http://www.apache.org/licenses/LICENSE-2.0)
/BeginEPSF { %def
/b4_Inc_state save def         % Save state for cleanup
/dict_count countdictstack def % Count objects on dict stack
/op_count count 1 sub def      % Count objects on operand stack
userdict begin                 % Push userdict on dict stack
/showpage { } def              % Redefine showpage, { } = null proc
0 setgray 0 setlinecap         % Prepare graphics state
1 setlinewidth 0 setlinejoin
10 setmiterlimit [ ] 0 setdash newpath
/languagelevel where           % If level not equal to 1 then
{pop languagelevel             % set strokeadjust and
1 ne                           % overprint to their defaults.
{false setstrokeadjust false setoverprint
} if
} if
} bd
/EndEPSF { %def
count op_count sub {pop} repeat            % Clean up stacks
countdictstack dict_count sub {end} repeat
b4_Inc_state restore
} bd
%%EndResource
%FOPBeginFontDict
%%IncludeResource: font Courier-Bold
%%IncludeResource: font Helvetica
%%IncludeResource: font Courier-BoldOblique
%%IncludeResource: font Courier-Oblique
%%IncludeResource: font Times-Roman
%%IncludeResource: font Helvetica-BoldOblique
%%IncludeResource: font Helvetica-Bold
%%IncludeResource: font Helvetica-Oblique
%%IncludeResource: font Times-BoldItalic
%%IncludeResource: font Courier
%%IncludeResource: font Times-Italic
%%IncludeResource: font Times-Bold
%%IncludeResource: font Symbol
%%IncludeResource: font ZapfDingbats
%FOPEndFontDict
%%BeginResource: encoding WinAnsiEncoding
/WinAnsiEncoding [
/.notdef /.notdef /.notdef /.notdef /.notdef
/.notdef /.notdef /.notdef /.notdef /.notdef
/.notdef /.notdef /.notdef /.notdef /.notdef
/.notdef /.notdef /.notdef /.notdef /.notdef
/.notdef /.notdef /.notdef /.notdef /.notdef
/.notdef /.notdef /.notdef /.notdef /.notdef
/.notdef /.notdef /space /exclam /quotedbl
/numbersign /dollar /percent /ampersand /quotesingle
/parenleft /parenright /asterisk /plus /comma
/hyphen /period /slash /zero /one
/two /three /four /five /six
/seven /eight /nine /colon /semicolon
/less /equal /greater /question /at
/A /B /C /D /E
/F /G /H /I /J
/K /L /M /N /O
/P /Q /R /S /T
/U /V /W /X /Y
/Z /bracketleft /backslash /bracketright /asciicircum
/underscore /quoteleft /a /b /c
/d /e /f /g /h
/i /j /k /l /m
/n /o /p /q /r
/s /t /u /v /w
/x /y /z /braceleft /bar
/braceright /asciitilde /bullet /Euro /bullet
/quotesinglbase /florin /quotedblbase /ellipsis /dagger
/daggerdbl /circumflex /perthousand /Scaron /guilsinglleft
/OE /bullet /Zcaron /bullet /bullet
/quoteleft /quoteright /quotedblleft /quotedblright /bullet
/endash /emdash /asciitilde /trademark /scaron
/guilsinglright /oe /bullet /zcaron /Ydieresis
/space /exclamdown /cent /sterling /currency
/yen /brokenbar /section /dieresis /copyright
/ordfeminine /guillemotleft /logicalnot /sfthyphen /registered
/macron /degree /plusminus /twosuperior /threesuperior
/acute /mu /paragraph /middot /cedilla
/onesuperior /ordmasculine /guillemotright /onequarter /onehalf
/threequarters /questiondown /Agrave /Aacute /Acircumflex
/Atilde /Adieresis /Aring /AE /Ccedilla
/Egrave /Eacute /Ecircumflex /Edieresis /Igrave
/Iacute /Icircumflex /Idieresis /Eth /Ntilde
/Ograve /Oacute /Ocircumflex /Otilde /Odieresis
/multiply /Oslash /Ugrave /Uacute /Ucircumflex
/Udieresis /Yacute /Thorn /germandbls /agrave
/aacute /acircumflex /atilde /adieresis /aring
/ae /ccedilla /egrave /eacute /ecircumflex
/edieresis /igrave /iacute /icircumflex /idieresis
/eth /ntilde /ograve /oacute /ocircumflex
/otilde /odieresis /divide /oslash /ugrave
/uacute /ucircumflex /udieresis /yacute /thorn
/ydieresis
] def
%%EndResource
%FOPBeginFontReencode
/Courier-Bold findfont
dup length dict begin
  {1 index /FID ne {def} {pop pop} ifelse} forall
  /Encoding WinAnsiEncoding def
  currentdict
end
/Courier-Bold exch definefont pop
/Helvetica findfont
dup length dict begin
  {1 index /FID ne {def} {pop pop} ifelse} forall
  /Encoding WinAnsiEncoding def
  currentdict
end
/Helvetica exch definefont pop
/Courier-BoldOblique findfont
dup length dict begin
  {1 index /FID ne {def} {pop pop} ifelse} forall
  /Encoding WinAnsiEncoding def
  currentdict
end
/Courier-BoldOblique exch definefont pop
/Courier-Oblique findfont
dup length dict begin
  {1 index /FID ne {def} {pop pop} ifelse} forall
  /Encoding WinAnsiEncoding def
  currentdict
end
/Courier-Oblique exch definefont pop
/Times-Roman findfont
dup length dict begin
  {1 index /FID ne {def} {pop pop} ifelse} forall
  /Encoding WinAnsiEncoding def
  currentdict
end
/Times-Roman exch definefont pop
/Helvetica-BoldOblique findfont
dup length dict begin
  {1 index /FID ne {def} {pop pop} ifelse} forall
  /Encoding WinAnsiEncoding def
  currentdict
end
/Helvetica-BoldOblique exch definefont pop
/Helvetica-Bold findfont
dup length dict begin
  {1 index /FID ne {def} {pop pop} ifelse} forall
  /Encoding WinAnsiEncoding def
  currentdict
end
/Helvetica-Bold exch definefont pop
/Helvetica-Oblique findfont
dup length dict begin
  {1 index /FID ne {def} {pop pop} ifelse} forall
  /Encoding WinAnsiEncoding def
  currentdict
end
/Helvetica-Oblique exch definefont pop
/Times-BoldItalic findfont
dup length dict begin
  {1 index /FID ne {def} {pop pop} ifelse} forall
  /Encoding WinAnsiEncoding def
  currentdict
end
/Times-BoldItalic exch definefont pop
/Courier findfont
dup length dict begin
  {1 index /FID ne {def} {pop pop} ifelse} forall
  /Encoding WinAnsiEncoding def
  currentdict
end
/Courier exch definefont pop
/Times-Italic findfont
dup length dict begin
  {1 index /FID ne {def} {pop pop} ifelse} forall
  /Encoding WinAnsiEncoding def
  currentdict
end
/Times-Italic exch definefont pop
/Times-Bold findfont
dup length dict begin
  {1 index /FID ne {def} {pop pop} ifelse} forall
  /Encoding WinAnsiEncoding def
  currentdict
end
/Times-Bold exch definefont pop
%FOPEndFontReencode
%%EndProlog
%%Page: 1 1
%%PageBoundingBox: 0 0 560 420
%%BeginPageSetup
[1 0 0 -1 0 420] CT
%%EndPageSetup
GS
1 GC
N
0 0 560 420 re
f
GR
GS
1 GC
N
0 0 560 420 re
f
GR
GS
1 GC
N
73 372.5 M
507 372.5 L
507 31.5 L
73 31.5 L
cp
f
GR
GS
0.873 GC
1 LJ
0.5 LW
N
75.227 372.5 M
75.227 31.5 L
S
GR
GS
0.873 GC
1 LJ
0.5 LW
N
147.313 372.5 M
147.313 31.5 L
S
GR
GS
0.873 GC
1 LJ
0.5 LW
N
219.399 372.5 M
219.399 31.5 L
S
GR
GS
0.873 GC
1 LJ
0.5 LW
N
291.485 372.5 M
291.485 31.5 L
S
GR
GS
0.873 GC
1 LJ
0.5 LW
N
363.571 372.5 M
363.571 31.5 L
S
GR
GS
0.873 GC
1 LJ
0.5 LW
N
435.657 372.5 M
435.657 31.5 L
S
GR
GS
0.873 GC
1 LJ
0.5 LW
N
507 335.892 M
73 335.892 L
S
GR
GS
0.873 GC
1 LJ
0.5 LW
N
507 289.018 M
73 289.018 L
S
GR
GS
0.873 GC
1 LJ
0.5 LW
N
507 242.144 M
73 242.144 L
S
GR
GS
0.873 GC
1 LJ
0.5 LW
N
507 195.27 M
73 195.27 L
S
GR
GS
0.873 GC
1 LJ
0.5 LW
N
507 148.396 M
73 148.396 L
S
GR
GS
0.873 GC
1 LJ
0.5 LW
N
507 101.522 M
73 101.522 L
S
GR
GS
0.873 GC
1 LJ
0.5 LW
N
507 54.648 M
73 54.648 L
S
GR
GS
0.149 GC
2 setlinecap
1 LJ
0.5 LW
N
73 372.5 M
507 372.5 L
S
GR
GS
0.149 GC
2 setlinecap
1 LJ
0.5 LW
N
75.227 372.5 M
75.227 368.16 L
S
GR
GS
0.149 GC
2 setlinecap
1 LJ
0.5 LW
N
147.313 372.5 M
147.313 368.16 L
S
GR
GS
0.149 GC
2 setlinecap
1 LJ
0.5 LW
N
219.399 372.5 M
219.399 368.16 L
S
GR
GS
0.149 GC
2 setlinecap
1 LJ
0.5 LW
N
291.485 372.5 M
291.485 368.16 L
S
GR
GS
0.149 GC
2 setlinecap
1 LJ
0.5 LW
N
363.571 372.5 M
363.571 368.16 L
S
GR
GS
0.149 GC
2 setlinecap
1 LJ
0.5 LW
N
435.657 372.5 M
435.657 368.16 L
S
GR
GS
[1 0 0 1 75.22746 377.29999] CT
0.149 GC
/Helvetica 14 F
GS
[1 0 0 1 0 0] CT
-12.5 14 moveto 
1 -1 scale
(-1.8) t 
GR
GR
GS
[1 0 0 1 147.31328 377.29999] CT
0.149 GC
/Helvetica 14 F
GS
[1 0 0 1 0 0] CT
-12.5 14 moveto 
1 -1 scale
(-1.6) t 
GR
GR
GS
[1 0 0 1 219.39912 377.29999] CT
0.149 GC
/Helvetica 14 F
GS
[1 0 0 1 0 0] CT
-12.5 14 moveto 
1 -1 scale
(-1.4) t 
GR
GR
GS
[1 0 0 1 291.48495 377.29999] CT
0.149 GC
/Helvetica 14 F
GS
[1 0 0 1 0 0] CT
-12.5 14 moveto 
1 -1 scale
(-1.2) t 
GR
GR
GS
[1 0 0 1 363.5708 377.29999] CT
0.149 GC
/Helvetica 14 F
GS
[1 0 0 1 0 0] CT
-7 14 moveto 
1 -1 scale
(-1) t 
GR
GR
GS
[1 0 0 1 435.65665 377.29999] CT
0.149 GC
/Helvetica 14 F
GS
[1 0 0 1 0 0] CT
-12.5 14 moveto 
1 -1 scale
(-0.8) t 
GR
GR
GS
[1 0 0 1 239 410] CT
0.149 GC
/Helvetica 15 F
GS
[1 0 0 1 0 0] CT
0 0 moveto 
1 -1 scale
(1/nElem [log) t 
GR
GR
GS
[1 0 0 1 323 417] CT
0.149 GC
/Helvetica 12 F
GS
[1 0 0 1 0 0] CT
0 0 moveto 
1 -1 scale
(10) t 
GR
GR
GS
[1 0 0 1 337 410] CT
0.149 GC
/Helvetica 15 F
GS
[1 0 0 1 0 0] CT
0 0 moveto 
1 -1 scale
(]) t 
GR
GR
GS
0.149 GC
2 setlinecap
1 LJ
0.5 LW
N
73 372.5 M
73 31.5 L
S
GR
GS
0.149 GC
2 setlinecap
1 LJ
0.5 LW
N
73 335.892 M
77.34 335.892 L
S
GR
GS
0.149 GC
2 setlinecap
1 LJ
0.5 LW
N
73 289.018 M
77.34 289.018 L
S
GR
GS
0.149 GC
2 setlinecap
1 LJ
0.5 LW
N
73 242.144 M
77.34 242.144 L
S
GR
GS
0.149 GC
2 setlinecap
1 LJ
0.5 LW
N
73 195.27 M
77.34 195.27 L
S
GR
GS
0.149 GC
2 setlinecap
1 LJ
0.5 LW
N
73 148.396 M
77.34 148.396 L
S
GR
GS
0.149 GC
2 setlinecap
1 LJ
0.5 LW
N
73 101.522 M
77.34 101.522 L
S
GR
GS
0.149 GC
2 setlinecap
1 LJ
0.5 LW
N
73 54.648 M
77.34 54.648 L
S
GR
GS
[1 0 0 1 68.19999 335.89182] CT
0.149 GC
/Helvetica 14 F
GS
[1 0 0 1 0 0] CT
-22 5.5 moveto 
1 -1 scale
(-14) t 
GR
GR
GS
[1 0 0 1 68.19999 289.01791] CT
0.149 GC
/Helvetica 14 F
GS
[1 0 0 1 0 0] CT
-22 5.5 moveto 
1 -1 scale
(-12) t 
GR
GR
GS
[1 0 0 1 68.19999 242.144] CT
0.149 GC
/Helvetica 14 F
GS
[1 0 0 1 0 0] CT
-22 5.5 moveto 
1 -1 scale
(-10) t 
GR
GR
GS
[1 0 0 1 68.19999 195.27008] CT
0.149 GC
/Helvetica 14 F
GS
[1 0 0 1 0 0] CT
-14 5.5 moveto 
1 -1 scale
(-8) t 
GR
GR
GS
[1 0 0 1 68.19999 148.39618] CT
0.149 GC
/Helvetica 14 F
GS
[1 0 0 1 0 0] CT
-14 5.5 moveto 
1 -1 scale
(-6) t 
GR
GR
GS
[1 0 0 1 68.19999 101.52227] CT
0.149 GC
/Helvetica 14 F
GS
[1 0 0 1 0 0] CT
-14 5.5 moveto 
1 -1 scale
(-4) t 
GR
GR
GS
[1 0 0 1 68.19999 54.64836] CT
0.149 GC
/Helvetica 14 F
GS
[1 0 0 1 0 0] CT
-14 5.5 moveto 
1 -1 scale
(-2) t 
GR
GR
GS
[0 -1 1 0 34 281] CT
0.149 GC
/Helvetica 15 F
GS
[1 0 0 1 0 0] CT
0 0 moveto 
1 -1 scale
(Solution L) t 
GR
GR
GS
[0 -1 1 0 41 213] CT
0.149 GC
/Helvetica 12 F
GS
[1 0 0 1 0 0] CT
0 0 moveto 
1 -1 scale
(2) t 
GR
GR
GS
[0 -1 1 0 34 206] CT
0.149 GC
/Helvetica 15 F
GS
[1 0 0 1 0 0] CT
0 0 moveto 
1 -1 scale
( error [log) t 
GR
GR
GS
[0 -1 1 0 41 141] CT
0.149 GC
/Helvetica 12 F
GS
[1 0 0 1 0 0] CT
0 0 moveto 
1 -1 scale
(10) t 
GR
GR
GS
[0 -1 1 0 34 127] CT
0.149 GC
/Helvetica 15 F
GS
[1 0 0 1 0 0] CT
0 0 moveto 
1 -1 scale
(]) t 
GR
GR
GS
[1 0 0 1 290.00027 29.575] CT
/Helvetica-Bold 15.4 F
GS
[1 0 0 1 0 0] CT
-125 -4 moveto 
1 -1 scale
(Q4 grid: Trace Normal Comparison) t 
GR
GR
GS
1 0 0 RC
1 LJ
0.5 LW
N
507 31.5 M
398.5 38.109 L
290 44.937 L
181.5 51.879 L
73 58.877 L
S
GR
GS
1 0 0 RC
1 LJ
N
503 31.5 M
510 31.5 L
S
GR
GS
1 0 0 RC
1 LJ
N
506.5 35 M
506.5 28 L
S
GR
GS
1 0 0 RC
1 LJ
N
395 38.5 M
402 38.5 L
S
GR
GS
1 0 0 RC
1 LJ
N
398.5 42 M
398.5 35 L
S
GR
GS
1 0 0 RC
1 LJ
N
286 44.5 M
293 44.5 L
S
GR
GS
1 0 0 RC
1 LJ
N
289.5 48 M
289.5 41 L
S
GR
GS
1 0 0 RC
1 LJ
N
178 51.5 M
185 51.5 L
S
GR
GS
1 0 0 RC
1 LJ
N
181.5 55 M
181.5 48 L
S
GR
GS
1 0 0 RC
1 LJ
N
70 58.5 M
77 58.5 L
S
GR
GS
1 0 0 RC
1 LJ
N
73.5 62 M
73.5 55 L
S
GR
GS
0 0 1 RC
1 LJ
0.5 LW
N
507 78.211 M
398.5 93.104 L
290 107.43 L
181.5 121.606 L
73 135.739 L
S
GR
GS
0 0 1 RC
1 LJ
N
509.5 78.5 M
508.621 76.379 L
506.5 75.5 L
504.379 76.379 L
503.5 78.5 L
504.379 80.621 L
506.5 81.5 L
508.621 80.621 L
cp
S
GR
GS
0 0 1 RC
1 LJ
N
401.5 93.5 M
400.621 91.379 L
398.5 90.5 L
396.379 91.379 L
395.5 93.5 L
396.379 95.621 L
398.5 96.5 L
400.621 95.621 L
cp
S
GR
GS
0 0 1 RC
1 LJ
N
292.5 107.5 M
291.621 105.379 L
289.5 104.5 L
287.379 105.379 L
286.5 107.5 L
287.379 109.621 L
289.5 110.5 L
291.621 109.621 L
cp
S
GR
GS
0 0 1 RC
1 LJ
N
184.5 121.5 M
183.621 119.379 L
181.5 118.5 L
179.379 119.379 L
178.5 121.5 L
179.379 123.621 L
181.5 124.5 L
183.621 123.621 L
cp
S
GR
GS
0 0 1 RC
1 LJ
N
76.5 135.5 M
75.621 133.379 L
73.5 132.5 L
71.379 133.379 L
70.5 135.5 L
71.379 137.621 L
73.5 138.5 L
75.621 137.621 L
cp
S
GR
GS
1 LJ
0.5 LW
N
507 99.691 M
398.5 121.018 L
290 142.275 L
181.5 163.488 L
73 184.679 L
S
GR
GS
10.0 ML
N
506.5 103.499 M
509.5 99.5 L
506.5 95.501 L
503.5 99.5 L
cp
S
GR
GS
10.0 ML
N
398.5 125.499 M
401.5 121.5 L
398.5 117.501 L
395.5 121.5 L
cp
S
GR
GS
10.0 ML
N
289.5 146.499 M
292.5 142.5 L
289.5 138.501 L
286.5 142.5 L
cp
S
GR
GS
10.0 ML
N
181.5 167.499 M
184.5 163.5 L
181.5 159.501 L
178.5 163.5 L
cp
S
GR
GS
10.0 ML
N
73.5 188.499 M
76.5 184.5 L
73.5 180.501 L
70.5 184.5 L
cp
S
GR
GS
1 0 1 RC
1 LJ
0.5 LW
N
507 163.948 M
398.5 193.998 L
290 222.774 L
181.5 251.141 L
73 279.398 L
S
GR
GS
1 0 1 RC
1 LJ
N
503 163.5 M
510 163.5 L
S
GR
GS
1 0 1 RC
1 LJ
N
506.5 167 M
506.5 160 L
S
GR
GS
1 0 1 RC
1 LJ
N
504 166 M
509 161 L
S
GR
GS
1 0 1 RC
1 LJ
N
504 161 M
509 166 L
S
GR
GS
1 0 1 RC
1 LJ
N
395 193.5 M
402 193.5 L
S
GR
GS
1 0 1 RC
1 LJ
N
398.5 197 M
398.5 190 L
S
GR
GS
1 0 1 RC
1 LJ
N
396 196 M
401 191 L
S
GR
GS
1 0 1 RC
1 LJ
N
396 191 M
401 196 L
S
GR
GS
1 0 1 RC
1 LJ
N
286 222.5 M
293 222.5 L
S
GR
GS
1 0 1 RC
1 LJ
N
289.5 226 M
289.5 219 L
S
GR
GS
1 0 1 RC
1 LJ
N
287 225 M
292 220 L
S
GR
GS
1 0 1 RC
1 LJ
N
287 220 M
292 225 L
S
GR
GS
1 0 1 RC
1 LJ
N
178 251.5 M
185 251.5 L
S
GR
GS
1 0 1 RC
1 LJ
N
181.5 255 M
181.5 248 L
S
GR
GS
1 0 1 RC
1 LJ
N
179 254 M
184 249 L
S
GR
GS
1 0 1 RC
1 LJ
N
179 249 M
184 254 L
S
GR
GS
1 0 1 RC
1 LJ
N
70 279.5 M
77 279.5 L
S
GR
GS
1 0 1 RC
1 LJ
N
73.5 283 M
73.5 276 L
S
GR
GS
1 0 1 RC
1 LJ
N
71 282 M
76 277 L
S
GR
GS
1 0 1 RC
1 LJ
N
71 277 M
76 282 L
S
GR
GS
0 1 0 RC
1 LJ
0.5 LW
N
507 243.068 M
398.5 287.06 L
290 328.988 L
181.5 368.765 L
73 372.261 L
S
GR
GS
0 1 0 RC
1 LJ
N
504 246 M
509 241 L
S
GR
GS
0 1 0 RC
1 LJ
N
504 241 M
509 246 L
S
GR
GS
0 1 0 RC
1 LJ
N
396 290 M
401 285 L
S
GR
GS
0 1 0 RC
1 LJ
N
396 285 M
401 290 L
S
GR
GS
0 1 0 RC
1 LJ
N
287 331 M
292 326 L
S
GR
GS
0 1 0 RC
1 LJ
N
287 326 M
292 331 L
S
GR
GS
0 1 0 RC
1 LJ
N
179 371 M
184 366 L
S
GR
GS
0 1 0 RC
1 LJ
N
179 366 M
184 371 L
S
GR
GS
0 1 0 RC
1 LJ
N
71 375 M
76 370 L
S
GR
GS
0 1 0 RC
1 LJ
N
71 370 M
76 375 L
S
GR
GS
1 0 0 RC
[10 6] 0 setdash
2 LJ
0.5 LW
N
507 31.5 M
398.5 38.109 L
290 44.937 L
181.5 51.879 L
73 58.877 L
S
GR
GS
1 0 0 RC
1 LJ
N
503 31.5 M
510 31.5 L
S
GR
GS
1 0 0 RC
1 LJ
N
506.5 35 M
506.5 28 L
S
GR
GS
1 0 0 RC
1 LJ
N
395 38.5 M
402 38.5 L
S
GR
GS
1 0 0 RC
1 LJ
N
398.5 42 M
398.5 35 L
S
GR
GS
1 0 0 RC
1 LJ
N
286 44.5 M
293 44.5 L
S
GR
GS
1 0 0 RC
1 LJ
N
289.5 48 M
289.5 41 L
S
GR
GS
1 0 0 RC
1 LJ
N
178 51.5 M
185 51.5 L
S
GR
GS
1 0 0 RC
1 LJ
N
181.5 55 M
181.5 48 L
S
GR
GS
1 0 0 RC
1 LJ
N
70 58.5 M
77 58.5 L
S
GR
GS
1 0 0 RC
1 LJ
N
73.5 62 M
73.5 55 L
S
GR
GS
0 0 1 RC
[10 6] 0 setdash
2 LJ
0.5 LW
N
507 78.211 M
398.5 93.104 L
290 107.43 L
181.5 121.606 L
73 135.739 L
S
GR
GS
0 0 1 RC
1 LJ
N
509.5 78.5 M
508.621 76.379 L
506.5 75.5 L
504.379 76.379 L
503.5 78.5 L
504.379 80.621 L
506.5 81.5 L
508.621 80.621 L
cp
S
GR
GS
0 0 1 RC
1 LJ
N
401.5 93.5 M
400.621 91.379 L
398.5 90.5 L
396.379 91.379 L
395.5 93.5 L
396.379 95.621 L
398.5 96.5 L
400.621 95.621 L
cp
S
GR
GS
0 0 1 RC
1 LJ
N
292.5 107.5 M
291.621 105.379 L
289.5 104.5 L
287.379 105.379 L
286.5 107.5 L
287.379 109.621 L
289.5 110.5 L
291.621 109.621 L
cp
S
GR
GS
0 0 1 RC
1 LJ
N
184.5 121.5 M
183.621 119.379 L
181.5 118.5 L
179.379 119.379 L
178.5 121.5 L
179.379 123.621 L
181.5 124.5 L
183.621 123.621 L
cp
S
GR
GS
0 0 1 RC
1 LJ
N
76.5 135.5 M
75.621 133.379 L
73.5 132.5 L
71.379 133.379 L
70.5 135.5 L
71.379 137.621 L
73.5 138.5 L
75.621 137.621 L
cp
S
GR
GS
[10 6] 0 setdash
2 LJ
0.5 LW
N
507 99.691 M
398.5 121.018 L
290 142.275 L
181.5 163.488 L
73 184.679 L
S
GR
GS
10.0 ML
N
506.5 103.499 M
509.5 99.5 L
506.5 95.501 L
503.5 99.5 L
cp
S
GR
GS
10.0 ML
N
398.5 125.499 M
401.5 121.5 L
398.5 117.501 L
395.5 121.5 L
cp
S
GR
GS
10.0 ML
N
289.5 146.499 M
292.5 142.5 L
289.5 138.501 L
286.5 142.5 L
cp
S
GR
GS
10.0 ML
N
181.5 167.499 M
184.5 163.5 L
181.5 159.501 L
178.5 163.5 L
cp
S
GR
GS
10.0 ML
N
73.5 188.499 M
76.5 184.5 L
73.5 180.501 L
70.5 184.5 L
cp
S
GR
GS
1 0 1 RC
[10 6] 0 setdash
2 LJ
0.5 LW
N
507 163.948 M
398.5 193.998 L
290 222.774 L
181.5 251.141 L
73 279.398 L
S
GR
GS
1 0 1 RC
1 LJ
N
503 163.5 M
510 163.5 L
S
GR
GS
1 0 1 RC
1 LJ
N
506.5 167 M
506.5 160 L
S
GR
GS
1 0 1 RC
1 LJ
N
504 166 M
509 161 L
S
GR
GS
1 0 1 RC
1 LJ
N
504 161 M
509 166 L
S
GR
GS
1 0 1 RC
1 LJ
N
395 193.5 M
402 193.5 L
S
GR
GS
1 0 1 RC
1 LJ
N
398.5 197 M
398.5 190 L
S
GR
GS
1 0 1 RC
1 LJ
N
396 196 M
401 191 L
S
GR
GS
1 0 1 RC
1 LJ
N
396 191 M
401 196 L
S
GR
GS
1 0 1 RC
1 LJ
N
286 222.5 M
293 222.5 L
S
GR
GS
1 0 1 RC
1 LJ
N
289.5 226 M
289.5 219 L
S
GR
GS
1 0 1 RC
1 LJ
N
287 225 M
292 220 L
S
GR
GS
1 0 1 RC
1 LJ
N
287 220 M
292 225 L
S
GR
GS
1 0 1 RC
1 LJ
N
178 251.5 M
185 251.5 L
S
GR
GS
1 0 1 RC
1 LJ
N
181.5 255 M
181.5 248 L
S
GR
GS
1 0 1 RC
1 LJ
N
179 254 M
184 249 L
S
GR
GS
1 0 1 RC
1 LJ
N
179 249 M
184 254 L
S
GR
GS
1 0 1 RC
1 LJ
N
70 279.5 M
77 279.5 L
S
GR
GS
1 0 1 RC
1 LJ
N
73.5 283 M
73.5 276 L
S
GR
GS
1 0 1 RC
1 LJ
N
71 282 M
76 277 L
S
GR
GS
1 0 1 RC
1 LJ
N
71 277 M
76 282 L
S
GR
GS
0 1 0 RC
[10 6] 0 setdash
2 LJ
0.5 LW
N
507 243.069 M
398.5 287.06 L
290 328.988 L
181.5 369.123 L
73 372.5 L
S
GR
GS
0 1 0 RC
1 LJ
N
504 246 M
509 241 L
S
GR
GS
0 1 0 RC
1 LJ
N
504 241 M
509 246 L
S
GR
GS
0 1 0 RC
1 LJ
N
396 290 M
401 285 L
S
GR
GS
0 1 0 RC
1 LJ
N
396 285 M
401 290 L
S
GR
GS
0 1 0 RC
1 LJ
N
287 331 M
292 326 L
S
GR
GS
0 1 0 RC
1 LJ
N
287 326 M
292 331 L
S
GR
GS
0 1 0 RC
1 LJ
N
179 372 M
184 367 L
S
GR
GS
0 1 0 RC
1 LJ
N
179 367 M
184 372 L
S
GR
GS
0 1 0 RC
1 LJ
N
71 375 M
76 370 L
S
GR
GS
0 1 0 RC
1 LJ
N
71 370 M
76 375 L
S
GR
GS
1 0 0 RC
[8 3 2 3] 0 setdash
2 LJ
0.5 LW
N
507 31.5 M
398.5 38.109 L
290 44.937 L
181.5 51.879 L
73 58.877 L
S
GR
GS
1 0 0 RC
1 LJ
N
503 31.5 M
510 31.5 L
S
GR
GS
1 0 0 RC
1 LJ
N
506.5 35 M
506.5 28 L
S
GR
GS
1 0 0 RC
1 LJ
N
395 38.5 M
402 38.5 L
S
GR
GS
1 0 0 RC
1 LJ
N
398.5 42 M
398.5 35 L
S
GR
GS
1 0 0 RC
1 LJ
N
286 44.5 M
293 44.5 L
S
GR
GS
1 0 0 RC
1 LJ
N
289.5 48 M
289.5 41 L
S
GR
GS
1 0 0 RC
1 LJ
N
178 51.5 M
185 51.5 L
S
GR
GS
1 0 0 RC
1 LJ
N
181.5 55 M
181.5 48 L
S
GR
GS
1 0 0 RC
1 LJ
N
70 58.5 M
77 58.5 L
S
GR
GS
1 0 0 RC
1 LJ
N
73.5 62 M
73.5 55 L
S
GR
GS
0 0 1 RC
[8 3 2 3] 0 setdash
2 LJ
0.5 LW
N
507 78.211 M
398.5 93.104 L
290 107.43 L
181.5 121.606 L
73 135.739 L
S
GR
GS
0 0 1 RC
1 LJ
N
509.5 78.5 M
508.621 76.379 L
506.5 75.5 L
504.379 76.379 L
503.5 78.5 L
504.379 80.621 L
506.5 81.5 L
508.621 80.621 L
cp
S
GR
GS
0 0 1 RC
1 LJ
N
401.5 93.5 M
400.621 91.379 L
398.5 90.5 L
396.379 91.379 L
395.5 93.5 L
396.379 95.621 L
398.5 96.5 L
400.621 95.621 L
cp
S
GR
GS
0 0 1 RC
1 LJ
N
292.5 107.5 M
291.621 105.379 L
289.5 104.5 L
287.379 105.379 L
286.5 107.5 L
287.379 109.621 L
289.5 110.5 L
291.621 109.621 L
cp
S
GR
GS
0 0 1 RC
1 LJ
N
184.5 121.5 M
183.621 119.379 L
181.5 118.5 L
179.379 119.379 L
178.5 121.5 L
179.379 123.621 L
181.5 124.5 L
183.621 123.621 L
cp
S
GR
GS
0 0 1 RC
1 LJ
N
76.5 135.5 M
75.621 133.379 L
73.5 132.5 L
71.379 133.379 L
70.5 135.5 L
71.379 137.621 L
73.5 138.5 L
75.621 137.621 L
cp
S
GR
GS
[8 3 2 3] 0 setdash
2 LJ
0.5 LW
N
507 99.691 M
398.5 121.018 L
290 142.275 L
181.5 163.488 L
73 184.679 L
S
GR
GS
10.0 ML
N
506.5 103.499 M
509.5 99.5 L
506.5 95.501 L
503.5 99.5 L
cp
S
GR
GS
10.0 ML
N
398.5 125.499 M
401.5 121.5 L
398.5 117.501 L
395.5 121.5 L
cp
S
GR
GS
10.0 ML
N
289.5 146.499 M
292.5 142.5 L
289.5 138.501 L
286.5 142.5 L
cp
S
GR
GS
10.0 ML
N
181.5 167.499 M
184.5 163.5 L
181.5 159.501 L
178.5 163.5 L
cp
S
GR
GS
10.0 ML
N
73.5 188.499 M
76.5 184.5 L
73.5 180.501 L
70.5 184.5 L
cp
S
GR
GS
1 0 1 RC
[8 3 2 3] 0 setdash
2 LJ
0.5 LW
N
507 163.948 M
398.5 193.998 L
290 222.774 L
181.5 251.141 L
73 279.398 L
S
GR
GS
1 0 1 RC
1 LJ
N
503 163.5 M
510 163.5 L
S
GR
GS
1 0 1 RC
1 LJ
N
506.5 167 M
506.5 160 L
S
GR
GS
1 0 1 RC
1 LJ
N
504 166 M
509 161 L
S
GR
GS
1 0 1 RC
1 LJ
N
504 161 M
509 166 L
S
GR
GS
1 0 1 RC
1 LJ
N
395 193.5 M
402 193.5 L
S
GR
GS
1 0 1 RC
1 LJ
N
398.5 197 M
398.5 190 L
S
GR
GS
1 0 1 RC
1 LJ
N
396 196 M
401 191 L
S
GR
GS
1 0 1 RC
1 LJ
N
396 191 M
401 196 L
S
GR
GS
1 0 1 RC
1 LJ
N
286 222.5 M
293 222.5 L
S
GR
GS
1 0 1 RC
1 LJ
N
289.5 226 M
289.5 219 L
S
GR
GS
1 0 1 RC
1 LJ
N
287 225 M
292 220 L
S
GR
GS
1 0 1 RC
1 LJ
N
287 220 M
292 225 L
S
GR
GS
1 0 1 RC
1 LJ
N
178 251.5 M
185 251.5 L
S
GR
GS
1 0 1 RC
1 LJ
N
181.5 255 M
181.5 248 L
S
GR
GS
1 0 1 RC
1 LJ
N
179 254 M
184 249 L
S
GR
GS
1 0 1 RC
1 LJ
N
179 249 M
184 254 L
S
GR
GS
1 0 1 RC
1 LJ
N
70 279.5 M
77 279.5 L
S
GR
GS
1 0 1 RC
1 LJ
N
73.5 283 M
73.5 276 L
S
GR
GS
1 0 1 RC
1 LJ
N
71 282 M
76 277 L
S
GR
GS
1 0 1 RC
1 LJ
N
71 277 M
76 282 L
S
GR
GS
0 1 0 RC
[8 3 2 3] 0 setdash
2 LJ
0.5 LW
N
507 243.069 M
398.5 287.06 L
290 328.988 L
181.5 368.94 L
73 372.446 L
S
GR
GS
0 1 0 RC
1 LJ
N
504 246 M
509 241 L
S
GR
GS
0 1 0 RC
1 LJ
N
504 241 M
509 246 L
S
GR
GS
0 1 0 RC
1 LJ
N
396 290 M
401 285 L
S
GR
GS
0 1 0 RC
1 LJ
N
396 285 M
401 290 L
S
GR
GS
0 1 0 RC
1 LJ
N
287 331 M
292 326 L
S
GR
GS
0 1 0 RC
1 LJ
N
287 326 M
292 331 L
S
GR
GS
0 1 0 RC
1 LJ
N
179 371 M
184 366 L
S
GR
GS
0 1 0 RC
1 LJ
N
179 366 M
184 371 L
S
GR
GS
0 1 0 RC
1 LJ
N
71 375 M
76 370 L
S
GR
GS
0 1 0 RC
1 LJ
N
71 370 M
76 375 L
S
GR
GS
1 GC
N
428.5 356 M
428.5 275 L
498.5 275 L
498.5 356 L
cp
f
GR
GS
[1 0 0 1 465.5 284.5] CT
/Helvetica 12.6 F
GS
[1 0 0 1 0 0] CT
0 5 moveto 
1 -1 scale
(p = 0) t 
GR
GR
GS
1 0 0 RC
1 LJ
0.5 LW
N
432.5 284.5 M
462.5 284.5 L
S
GR
GS
1 0 0 RC
1 LJ
N
444 284.5 M
451 284.5 L
S
GR
GS
1 0 0 RC
1 LJ
N
447.5 288 M
447.5 281 L
S
GR
GS
[1 0 0 1 465.5 300] CT
/Helvetica 12.6 F
GS
[1 0 0 1 0 0] CT
0 5 moveto 
1 -1 scale
(p = 1) t 
GR
GR
GS
0 0 1 RC
1 LJ
0.5 LW
N
432.5 300 M
462.5 300 L
S
GR
GS
0 0 1 RC
1 LJ
N
450.5 299.5 M
449.621 297.379 L
447.5 296.5 L
445.379 297.379 L
444.5 299.5 L
445.379 301.621 L
447.5 302.5 L
449.621 301.621 L
cp
S
GR
GS
[1 0 0 1 465.5 315.5] CT
/Helvetica 12.6 F
GS
[1 0 0 1 0 0] CT
0 5 moveto 
1 -1 scale
(p = 2) t 
GR
GR
GS
1 LJ
0.5 LW
N
432.5 315.5 M
462.5 315.5 L
S
GR
GS
10.0 ML
N
447.5 319.499 M
450.5 315.5 L
447.5 311.501 L
444.5 315.5 L
cp
S
GR
GS
[1 0 0 1 465.5 331] CT
/Helvetica 12.6 F
GS
[1 0 0 1 0 0] CT
0 5 moveto 
1 -1 scale
(p = 3) t 
GR
GR
GS
1 0 1 RC
1 LJ
0.5 LW
N
432.5 331 M
462.5 331 L
S
GR
GS
1 0 1 RC
1 LJ
N
444 331.5 M
451 331.5 L
S
GR
GS
1 0 1 RC
1 LJ
N
447.5 335 M
447.5 328 L
S
GR
GS
1 0 1 RC
1 LJ
N
445 334 M
450 329 L
S
GR
GS
1 0 1 RC
1 LJ
N
445 329 M
450 334 L
S
GR
GS
[1 0 0 1 465.5 346.5] CT
/Helvetica 12.6 F
GS
[1 0 0 1 0 0] CT
0 5 moveto 
1 -1 scale
(p = 4) t 
GR
GR
GS
0 1 0 RC
1 LJ
0.5 LW
N
432.5 346.5 M
462.5 346.5 L
S
GR
GS
0 1 0 RC
1 LJ
N
445 349 M
450 344 L
S
GR
GS
0 1 0 RC
1 LJ
N
445 344 M
450 349 L
S
GR
GS
0.149 GC
10.0 ML
0.5 LW
N
428.5 356 M
428.5 275 L
498.5 275 L
498.5 356 L
cp
S
GR
%%Trailer
%%Pages: 1
%%EOF
