%!PS-Adobe-3.0 EPSF-3.0
%%Creator: (MATLAB, The Mathworks, Inc. Version 9.0.0.341360 \(R2016a\). Operating System: Mac OS X)
%%Title: ./SWE1D_LiftNonconservativePDE_SolnP2.eps
%%CreationDate: 2016-06-21T22:50:28
%%Pages: (atend)
%%BoundingBox:    22     2   519   393
%%LanguageLevel: 2
%%EndComments
%%BeginProlog
%%BeginResource: procset (Apache XML Graphics Std ProcSet) 1.2 0
%%Version: 1.2 0
%%Copyright: (Copyright 2001-2003,2010 The Apache Software Foundation. License terms: http://www.apache.org/licenses/LICENSE-2.0)
/bd{bind def}bind def
/ld{load def}bd
/GR/grestore ld
/M/moveto ld
/LJ/setlinejoin ld
/C/curveto ld
/f/fill ld
/LW/setlinewidth ld
/GC/setgray ld
/t/show ld
/N/newpath ld
/CT/concat ld
/cp/closepath ld
/S/stroke ld
/L/lineto ld
/CC/setcmykcolor ld
/A/ashow ld
/GS/gsave ld
/RC/setrgbcolor ld
/RM/rmoveto ld
/ML/setmiterlimit ld
/re {4 2 roll M
1 index 0 rlineto
0 exch rlineto
neg 0 rlineto
cp } bd
/_ctm matrix def
/_tm matrix def
/BT { _ctm currentmatrix pop matrix _tm copy pop 0 0 moveto } bd
/ET { _ctm setmatrix } bd
/iTm { _ctm setmatrix _tm concat } bd
/Tm { _tm astore pop iTm 0 0 moveto } bd
/ux 0.0 def
/uy 0.0 def
/F {
  /Tp exch def
  /Tf exch def
  Tf findfont Tp scalefont setfont
  /cf Tf def  /cs Tp def
} bd
/ULS {currentpoint /uy exch def /ux exch def} bd
/ULE {
  /Tcx currentpoint pop def
  gsave
  newpath
  cf findfont cs scalefont dup
  /FontMatrix get 0 get /Ts exch def /FontInfo get dup
  /UnderlinePosition get Ts mul /To exch def
  /UnderlineThickness get Ts mul /Tt exch def
  ux uy To add moveto  Tcx uy To add lineto
  Tt setlinewidth stroke
  grestore
} bd
/OLE {
  /Tcx currentpoint pop def
  gsave
  newpath
  cf findfont cs scalefont dup
  /FontMatrix get 0 get /Ts exch def /FontInfo get dup
  /UnderlinePosition get Ts mul /To exch def
  /UnderlineThickness get Ts mul /Tt exch def
  ux uy To add cs add moveto Tcx uy To add cs add lineto
  Tt setlinewidth stroke
  grestore
} bd
/SOE {
  /Tcx currentpoint pop def
  gsave
  newpath
  cf findfont cs scalefont dup
  /FontMatrix get 0 get /Ts exch def /FontInfo get dup
  /UnderlinePosition get Ts mul /To exch def
  /UnderlineThickness get Ts mul /Tt exch def
  ux uy To add cs 10 mul 26 idiv add moveto Tcx uy To add cs 10 mul 26 idiv add lineto
  Tt setlinewidth stroke
  grestore
} bd
/QT {
/Y22 exch store
/X22 exch store
/Y21 exch store
/X21 exch store
currentpoint
/Y21 load 2 mul add 3 div exch
/X21 load 2 mul add 3 div exch
/X21 load 2 mul /X22 load add 3 div
/Y21 load 2 mul /Y22 load add 3 div
/X22 load /Y22 load curveto
} bd
/SSPD {
dup length /d exch dict def
{
/v exch def
/k exch def
currentpagedevice k known {
/cpdv currentpagedevice k get def
v cpdv ne {
/upd false def
/nullv v type /nulltype eq def
/nullcpdv cpdv type /nulltype eq def
nullv nullcpdv or
{
/upd true def
} {
/sametype v type cpdv type eq def
sametype {
v type /arraytype eq {
/vlen v length def
/cpdvlen cpdv length def
vlen cpdvlen eq {
0 1 vlen 1 sub {
/i exch def
/obj v i get def
/cpdobj cpdv i get def
obj cpdobj ne {
/upd true def
exit
} if
} for
} {
/upd true def
} ifelse
} {
v type /dicttype eq {
v {
/dv exch def
/dk exch def
/cpddv cpdv dk get def
dv cpddv ne {
/upd true def
exit
} if
} forall
} {
/upd true def
} ifelse
} ifelse
} if
} ifelse
upd true eq {
d k v put
} if
} if
} if
} forall
d length 0 gt {
d setpagedevice
} if
} bd
%%EndResource
%%BeginResource: procset (Apache XML Graphics EPS ProcSet) 1.0 0
%%Version: 1.0 0
%%Copyright: (Copyright 2002-2003 The Apache Software Foundation. License terms: http://www.apache.org/licenses/LICENSE-2.0)
/BeginEPSF { %def
/b4_Inc_state save def         % Save state for cleanup
/dict_count countdictstack def % Count objects on dict stack
/op_count count 1 sub def      % Count objects on operand stack
userdict begin                 % Push userdict on dict stack
/showpage { } def              % Redefine showpage, { } = null proc
0 setgray 0 setlinecap         % Prepare graphics state
1 setlinewidth 0 setlinejoin
10 setmiterlimit [ ] 0 setdash newpath
/languagelevel where           % If level not equal to 1 then
{pop languagelevel             % set strokeadjust and
1 ne                           % overprint to their defaults.
{false setstrokeadjust false setoverprint
} if
} if
} bd
/EndEPSF { %def
count op_count sub {pop} repeat            % Clean up stacks
countdictstack dict_count sub {end} repeat
b4_Inc_state restore
} bd
%%EndResource
%FOPBeginFontDict
%%IncludeResource: font Courier-Bold
%%IncludeResource: font Helvetica
%%IncludeResource: font Courier-BoldOblique
%%IncludeResource: font Courier-Oblique
%%IncludeResource: font Times-Roman
%%IncludeResource: font Helvetica-BoldOblique
%%IncludeResource: font Helvetica-Bold
%%IncludeResource: font Helvetica-Oblique
%%IncludeResource: font Times-BoldItalic
%%IncludeResource: font Courier
%%IncludeResource: font Times-Italic
%%IncludeResource: font Times-Bold
%%IncludeResource: font Symbol
%%IncludeResource: font ZapfDingbats
%FOPEndFontDict
%%BeginResource: encoding WinAnsiEncoding
/WinAnsiEncoding [
/.notdef /.notdef /.notdef /.notdef /.notdef
/.notdef /.notdef /.notdef /.notdef /.notdef
/.notdef /.notdef /.notdef /.notdef /.notdef
/.notdef /.notdef /.notdef /.notdef /.notdef
/.notdef /.notdef /.notdef /.notdef /.notdef
/.notdef /.notdef /.notdef /.notdef /.notdef
/.notdef /.notdef /space /exclam /quotedbl
/numbersign /dollar /percent /ampersand /quotesingle
/parenleft /parenright /asterisk /plus /comma
/hyphen /period /slash /zero /one
/two /three /four /five /six
/seven /eight /nine /colon /semicolon
/less /equal /greater /question /at
/A /B /C /D /E
/F /G /H /I /J
/K /L /M /N /O
/P /Q /R /S /T
/U /V /W /X /Y
/Z /bracketleft /backslash /bracketright /asciicircum
/underscore /quoteleft /a /b /c
/d /e /f /g /h
/i /j /k /l /m
/n /o /p /q /r
/s /t /u /v /w
/x /y /z /braceleft /bar
/braceright /asciitilde /bullet /Euro /bullet
/quotesinglbase /florin /quotedblbase /ellipsis /dagger
/daggerdbl /circumflex /perthousand /Scaron /guilsinglleft
/OE /bullet /Zcaron /bullet /bullet
/quoteleft /quoteright /quotedblleft /quotedblright /bullet
/endash /emdash /asciitilde /trademark /scaron
/guilsinglright /oe /bullet /zcaron /Ydieresis
/space /exclamdown /cent /sterling /currency
/yen /brokenbar /section /dieresis /copyright
/ordfeminine /guillemotleft /logicalnot /sfthyphen /registered
/macron /degree /plusminus /twosuperior /threesuperior
/acute /mu /paragraph /middot /cedilla
/onesuperior /ordmasculine /guillemotright /onequarter /onehalf
/threequarters /questiondown /Agrave /Aacute /Acircumflex
/Atilde /Adieresis /Aring /AE /Ccedilla
/Egrave /Eacute /Ecircumflex /Edieresis /Igrave
/Iacute /Icircumflex /Idieresis /Eth /Ntilde
/Ograve /Oacute /Ocircumflex /Otilde /Odieresis
/multiply /Oslash /Ugrave /Uacute /Ucircumflex
/Udieresis /Yacute /Thorn /germandbls /agrave
/aacute /acircumflex /atilde /adieresis /aring
/ae /ccedilla /egrave /eacute /ecircumflex
/edieresis /igrave /iacute /icircumflex /idieresis
/eth /ntilde /ograve /oacute /ocircumflex
/otilde /odieresis /divide /oslash /ugrave
/uacute /ucircumflex /udieresis /yacute /thorn
/ydieresis
] def
%%EndResource
%FOPBeginFontReencode
/Courier-Bold findfont
dup length dict begin
  {1 index /FID ne {def} {pop pop} ifelse} forall
  /Encoding WinAnsiEncoding def
  currentdict
end
/Courier-Bold exch definefont pop
/Helvetica findfont
dup length dict begin
  {1 index /FID ne {def} {pop pop} ifelse} forall
  /Encoding WinAnsiEncoding def
  currentdict
end
/Helvetica exch definefont pop
/Courier-BoldOblique findfont
dup length dict begin
  {1 index /FID ne {def} {pop pop} ifelse} forall
  /Encoding WinAnsiEncoding def
  currentdict
end
/Courier-BoldOblique exch definefont pop
/Courier-Oblique findfont
dup length dict begin
  {1 index /FID ne {def} {pop pop} ifelse} forall
  /Encoding WinAnsiEncoding def
  currentdict
end
/Courier-Oblique exch definefont pop
/Times-Roman findfont
dup length dict begin
  {1 index /FID ne {def} {pop pop} ifelse} forall
  /Encoding WinAnsiEncoding def
  currentdict
end
/Times-Roman exch definefont pop
/Helvetica-BoldOblique findfont
dup length dict begin
  {1 index /FID ne {def} {pop pop} ifelse} forall
  /Encoding WinAnsiEncoding def
  currentdict
end
/Helvetica-BoldOblique exch definefont pop
/Helvetica-Bold findfont
dup length dict begin
  {1 index /FID ne {def} {pop pop} ifelse} forall
  /Encoding WinAnsiEncoding def
  currentdict
end
/Helvetica-Bold exch definefont pop
/Helvetica-Oblique findfont
dup length dict begin
  {1 index /FID ne {def} {pop pop} ifelse} forall
  /Encoding WinAnsiEncoding def
  currentdict
end
/Helvetica-Oblique exch definefont pop
/Times-BoldItalic findfont
dup length dict begin
  {1 index /FID ne {def} {pop pop} ifelse} forall
  /Encoding WinAnsiEncoding def
  currentdict
end
/Times-BoldItalic exch definefont pop
/Courier findfont
dup length dict begin
  {1 index /FID ne {def} {pop pop} ifelse} forall
  /Encoding WinAnsiEncoding def
  currentdict
end
/Courier exch definefont pop
/Times-Italic findfont
dup length dict begin
  {1 index /FID ne {def} {pop pop} ifelse} forall
  /Encoding WinAnsiEncoding def
  currentdict
end
/Times-Italic exch definefont pop
/Times-Bold findfont
dup length dict begin
  {1 index /FID ne {def} {pop pop} ifelse} forall
  /Encoding WinAnsiEncoding def
  currentdict
end
/Times-Bold exch definefont pop
%FOPEndFontReencode
%%EndProlog
%%Page: 1 1
%%PageBoundingBox: 0 0 560 420
%%BeginPageSetup
[1 0 0 -1 0 420] CT
%%EndPageSetup
GS
1 GC
N
0 0 560 420 re
f
GR
GS
1 GC
N
0 0 560 420 re
f
GR
GS
1 GC
N
73 372.5 M
507 372.5 L
507 31.5 L
73 31.5 L
cp
f
GR
GS
0.873 GC
1 LJ
0.5 LW
N
73 372.5 M
73 31.5 L
S
GR
GS
0.873 GC
1 LJ
0.5 LW
N
217.667 372.5 M
217.667 31.5 L
S
GR
GS
0.873 GC
1 LJ
0.5 LW
N
362.333 372.5 M
362.333 31.5 L
S
GR
GS
0.873 GC
1 LJ
0.5 LW
N
507 372.5 M
507 31.5 L
S
GR
GS
0.873 GC
1 LJ
0.5 LW
N
507 372.5 M
73 372.5 L
S
GR
GS
0.873 GC
1 LJ
0.5 LW
N
507 334.611 M
73 334.611 L
S
GR
GS
0.873 GC
1 LJ
0.5 LW
N
507 296.722 M
73 296.722 L
S
GR
GS
0.873 GC
1 LJ
0.5 LW
N
507 258.833 M
73 258.833 L
S
GR
GS
0.873 GC
1 LJ
0.5 LW
N
507 220.944 M
73 220.944 L
S
GR
GS
0.873 GC
1 LJ
0.5 LW
N
507 183.056 M
73 183.056 L
S
GR
GS
0.873 GC
1 LJ
0.5 LW
N
507 145.167 M
73 145.167 L
S
GR
GS
0.873 GC
1 LJ
0.5 LW
N
507 107.278 M
73 107.278 L
S
GR
GS
0.873 GC
1 LJ
0.5 LW
N
507 69.389 M
73 69.389 L
S
GR
GS
0.873 GC
1 LJ
0.5 LW
N
507 31.5 M
73 31.5 L
S
GR
GS
0.149 GC
2 setlinecap
1 LJ
0.5 LW
N
73 372.5 M
507 372.5 L
S
GR
GS
0.149 GC
2 setlinecap
1 LJ
0.5 LW
N
73 372.5 M
73 368.16 L
S
GR
GS
0.149 GC
2 setlinecap
1 LJ
0.5 LW
N
217.667 372.5 M
217.667 368.16 L
S
GR
GS
0.149 GC
2 setlinecap
1 LJ
0.5 LW
N
362.333 372.5 M
362.333 368.16 L
S
GR
GS
0.149 GC
2 setlinecap
1 LJ
0.5 LW
N
507 372.5 M
507 368.16 L
S
GR
GS
[1 0 0 1 73 377.29999] CT
0.149 GC
/Helvetica 14 F
GS
[1 0 0 1 0 0] CT
-7 14 moveto 
1 -1 scale
(-2) t 
GR
GR
GS
[1 0 0 1 217.66667 377.29999] CT
0.149 GC
/Helvetica 14 F
GS
[1 0 0 1 0 0] CT
-12.5 14 moveto 
1 -1 scale
(-1.5) t 
GR
GR
GS
[1 0 0 1 362.33334 377.29999] CT
0.149 GC
/Helvetica 14 F
GS
[1 0 0 1 0 0] CT
-7 14 moveto 
1 -1 scale
(-1) t 
GR
GR
GS
[1 0 0 1 507 377.29999] CT
0.149 GC
/Helvetica 14 F
GS
[1 0 0 1 0 0] CT
-12.5 14 moveto 
1 -1 scale
(-0.5) t 
GR
GR
GS
[1 0 0 1 241 410] CT
0.149 GC
/Helvetica 15 F
GS
[1 0 0 1 0 0] CT
0 0 moveto 
1 -1 scale
(log) t 
GR
GR
GS
[1 0 0 1 262 417] CT
0.149 GC
/Helvetica 12 F
GS
[1 0 0 1 0 0] CT
0 0 moveto 
1 -1 scale
(10) t 
GR
GR
GS
[1 0 0 1 276 410] CT
0.149 GC
/Helvetica 15 F
GS
[1 0 0 1 0 0] CT
0 0 moveto 
1 -1 scale
(\(1/nElem\)) t 
GR
GR
GS
0.149 GC
2 setlinecap
1 LJ
0.5 LW
N
73 372.5 M
73 31.5 L
S
GR
GS
0.149 GC
2 setlinecap
1 LJ
0.5 LW
N
73 372.5 M
77.34 372.5 L
S
GR
GS
0.149 GC
2 setlinecap
1 LJ
0.5 LW
N
73 334.611 M
77.34 334.611 L
S
GR
GS
0.149 GC
2 setlinecap
1 LJ
0.5 LW
N
73 296.722 M
77.34 296.722 L
S
GR
GS
0.149 GC
2 setlinecap
1 LJ
0.5 LW
N
73 258.833 M
77.34 258.833 L
S
GR
GS
0.149 GC
2 setlinecap
1 LJ
0.5 LW
N
73 220.944 M
77.34 220.944 L
S
GR
GS
0.149 GC
2 setlinecap
1 LJ
0.5 LW
N
73 183.056 M
77.34 183.056 L
S
GR
GS
0.149 GC
2 setlinecap
1 LJ
0.5 LW
N
73 145.167 M
77.34 145.167 L
S
GR
GS
0.149 GC
2 setlinecap
1 LJ
0.5 LW
N
73 107.278 M
77.34 107.278 L
S
GR
GS
0.149 GC
2 setlinecap
1 LJ
0.5 LW
N
73 69.389 M
77.34 69.389 L
S
GR
GS
0.149 GC
2 setlinecap
1 LJ
0.5 LW
N
73 31.5 M
77.34 31.5 L
S
GR
GS
[1 0 0 1 68.2 372.5] CT
0.149 GC
/Helvetica 14 F
GS
[1 0 0 1 0 0] CT
-22 5.5 moveto 
1 -1 scale
(-18) t 
GR
GR
GS
[1 0 0 1 68.2 334.61111] CT
0.149 GC
/Helvetica 14 F
GS
[1 0 0 1 0 0] CT
-22 5.5 moveto 
1 -1 scale
(-16) t 
GR
GR
GS
[1 0 0 1 68.2 296.72223] CT
0.149 GC
/Helvetica 14 F
GS
[1 0 0 1 0 0] CT
-22 5.5 moveto 
1 -1 scale
(-14) t 
GR
GR
GS
[1 0 0 1 68.2 258.83334] CT
0.149 GC
/Helvetica 14 F
GS
[1 0 0 1 0 0] CT
-22 5.5 moveto 
1 -1 scale
(-12) t 
GR
GR
GS
[1 0 0 1 68.2 220.94444] CT
0.149 GC
/Helvetica 14 F
GS
[1 0 0 1 0 0] CT
-22 5.5 moveto 
1 -1 scale
(-10) t 
GR
GR
GS
[1 0 0 1 68.2 183.05556] CT
0.149 GC
/Helvetica 14 F
GS
[1 0 0 1 0 0] CT
-14 5.5 moveto 
1 -1 scale
(-8) t 
GR
GR
GS
[1 0 0 1 68.2 145.16667] CT
0.149 GC
/Helvetica 14 F
GS
[1 0 0 1 0 0] CT
-14 5.5 moveto 
1 -1 scale
(-6) t 
GR
GR
GS
[1 0 0 1 68.2 107.27778] CT
0.149 GC
/Helvetica 14 F
GS
[1 0 0 1 0 0] CT
-14 5.5 moveto 
1 -1 scale
(-4) t 
GR
GR
GS
[1 0 0 1 68.2 69.38889] CT
0.149 GC
/Helvetica 14 F
GS
[1 0 0 1 0 0] CT
-14 5.5 moveto 
1 -1 scale
(-2) t 
GR
GR
GS
[1 0 0 1 68.2 31.5] CT
0.149 GC
/Helvetica 14 F
GS
[1 0 0 1 0 0] CT
-8 5.5 moveto 
1 -1 scale
(0) t 
GR
GR
GS
[0 -1 1 0 34 279] CT
0.149 GC
/Helvetica 15 F
GS
[1 0 0 1 0 0] CT
0 0 moveto 
1 -1 scale
(log) t 
GR
GR
GS
[0 -1 1 0 41 258] CT
0.149 GC
/Helvetica 12 F
GS
[1 0 0 1 0 0] CT
0 0 moveto 
1 -1 scale
(10) t 
GR
GR
GS
[0 -1 1 0 34 244] CT
0.149 GC
/Helvetica 15 F
GS
[1 0 0 1 0 0] CT
0 0 moveto 
1 -1 scale
(\(Solution L) t 
GR
GR
GS
[0 -1 1 0 41 172] CT
0.149 GC
/Helvetica 12 F
GS
[1 0 0 1 0 0] CT
0 0 moveto 
1 -1 scale
(2) t 
GR
GR
GS
[0 -1 1 0 34 165] CT
0.149 GC
/Helvetica 15 F
GS
[1 0 0 1 0 0] CT
0 0 moveto 
1 -1 scale
( error\)) t 
GR
GR
GS
1 0 0 RC
1 LJ
0.5 LW
N
477.471 100.494 M
390.373 106.258 L
303.275 112.043 L
216.177 117.814 L
129.079 123.563 L
S
GR
GS
1 0 0 RC
1 LJ
N
474 100.5 M
481 100.5 L
S
GR
GS
1 0 0 RC
1 LJ
N
477.5 104 M
477.5 97 L
S
GR
GS
1 0 0 RC
1 LJ
N
387 106.5 M
394 106.5 L
S
GR
GS
1 0 0 RC
1 LJ
N
390.5 110 M
390.5 103 L
S
GR
GS
1 0 0 RC
1 LJ
N
300 112.5 M
307 112.5 L
S
GR
GS
1 0 0 RC
1 LJ
N
303.5 116 M
303.5 109 L
S
GR
GS
1 0 0 RC
1 LJ
N
213 117.5 M
220 117.5 L
S
GR
GS
1 0 0 RC
1 LJ
N
216.5 121 M
216.5 114 L
S
GR
GS
1 0 0 RC
1 LJ
N
126 123.5 M
133 123.5 L
S
GR
GS
1 0 0 RC
1 LJ
N
129.5 127 M
129.5 120 L
S
GR
GS
0 0 1 RC
1 LJ
0.5 LW
N
477.471 132.807 M
390.373 144.249 L
303.275 155.69 L
216.177 167.118 L
129.079 178.536 L
S
GR
GS
0 0 1 RC
1 LJ
N
480.5 132.5 M
479.621 130.379 L
477.5 129.5 L
475.379 130.379 L
474.5 132.5 L
475.379 134.621 L
477.5 135.5 L
479.621 134.621 L
cp
S
GR
GS
0 0 1 RC
1 LJ
N
393.5 144.5 M
392.621 142.379 L
390.5 141.5 L
388.379 142.379 L
387.5 144.5 L
388.379 146.621 L
390.5 147.5 L
392.621 146.621 L
cp
S
GR
GS
0 0 1 RC
1 LJ
N
306.5 155.5 M
305.621 153.379 L
303.5 152.5 L
301.379 153.379 L
300.5 155.5 L
301.379 157.621 L
303.5 158.5 L
305.621 157.621 L
cp
S
GR
GS
0 0 1 RC
1 LJ
N
219.5 167.5 M
218.621 165.379 L
216.5 164.5 L
214.379 165.379 L
213.5 167.5 L
214.379 169.621 L
216.5 170.5 L
218.621 169.621 L
cp
S
GR
GS
0 0 1 RC
1 LJ
N
132.5 178.5 M
131.621 176.379 L
129.5 175.5 L
127.379 176.379 L
126.5 178.5 L
127.379 180.621 L
129.5 181.5 L
131.621 180.621 L
cp
S
GR
GS
1 LJ
0.5 LW
N
477.471 366.865 M
390.373 362.958 L
303.275 364.391 L
216.177 364.165 L
129.079 363.393 L
S
GR
GS
10.0 ML
N
477.5 370.499 M
480.5 366.5 L
477.5 362.501 L
474.5 366.5 L
cp
S
GR
GS
10.0 ML
N
390.5 366.499 M
393.5 362.5 L
390.5 358.501 L
387.5 362.5 L
cp
S
GR
GS
10.0 ML
N
303.5 368.499 M
306.5 364.5 L
303.5 360.501 L
300.5 364.5 L
cp
S
GR
GS
10.0 ML
N
216.5 368.499 M
219.5 364.5 L
216.5 360.501 L
213.5 364.5 L
cp
S
GR
GS
10.0 ML
N
129.5 367.499 M
132.5 363.5 L
129.5 359.501 L
126.5 363.5 L
cp
S
GR
GS
1 0 1 RC
1 LJ
0.5 LW
N
477.471 366.968 M
390.373 362.804 L
303.275 364.301 L
216.177 364.102 L
129.079 363.298 L
S
GR
GS
1 0 1 RC
1 LJ
N
474 366.5 M
481 366.5 L
S
GR
GS
1 0 1 RC
1 LJ
N
477.5 370 M
477.5 363 L
S
GR
GS
1 0 1 RC
1 LJ
N
475 369 M
480 364 L
S
GR
GS
1 0 1 RC
1 LJ
N
475 364 M
480 369 L
S
GR
GS
1 0 1 RC
1 LJ
N
387 362.5 M
394 362.5 L
S
GR
GS
1 0 1 RC
1 LJ
N
390.5 366 M
390.5 359 L
S
GR
GS
1 0 1 RC
1 LJ
N
388 365 M
393 360 L
S
GR
GS
1 0 1 RC
1 LJ
N
388 360 M
393 365 L
S
GR
GS
1 0 1 RC
1 LJ
N
300 364.5 M
307 364.5 L
S
GR
GS
1 0 1 RC
1 LJ
N
303.5 368 M
303.5 361 L
S
GR
GS
1 0 1 RC
1 LJ
N
301 367 M
306 362 L
S
GR
GS
1 0 1 RC
1 LJ
N
301 362 M
306 367 L
S
GR
GS
1 0 1 RC
1 LJ
N
213 364.5 M
220 364.5 L
S
GR
GS
1 0 1 RC
1 LJ
N
216.5 368 M
216.5 361 L
S
GR
GS
1 0 1 RC
1 LJ
N
214 367 M
219 362 L
S
GR
GS
1 0 1 RC
1 LJ
N
214 362 M
219 367 L
S
GR
GS
1 0 1 RC
1 LJ
N
126 363.5 M
133 363.5 L
S
GR
GS
1 0 1 RC
1 LJ
N
129.5 367 M
129.5 360 L
S
GR
GS
1 0 1 RC
1 LJ
N
127 366 M
132 361 L
S
GR
GS
1 0 1 RC
1 LJ
N
127 361 M
132 366 L
S
GR
GS
0 1 0 RC
1 LJ
0.5 LW
N
477.471 366.95 M
390.373 362.778 L
303.275 364.284 L
216.177 364.007 L
129.079 363.314 L
S
GR
GS
0 1 0 RC
1 LJ
N
475 369 M
480 364 L
S
GR
GS
0 1 0 RC
1 LJ
N
475 364 M
480 369 L
S
GR
GS
0 1 0 RC
1 LJ
N
388 365 M
393 360 L
S
GR
GS
0 1 0 RC
1 LJ
N
388 360 M
393 365 L
S
GR
GS
0 1 0 RC
1 LJ
N
301 367 M
306 362 L
S
GR
GS
0 1 0 RC
1 LJ
N
301 362 M
306 367 L
S
GR
GS
0 1 0 RC
1 LJ
N
214 367 M
219 362 L
S
GR
GS
0 1 0 RC
1 LJ
N
214 362 M
219 367 L
S
GR
GS
0 1 0 RC
1 LJ
N
127 366 M
132 361 L
S
GR
GS
0 1 0 RC
1 LJ
N
127 361 M
132 366 L
S
GR
GS
1 0 0 RC
[10 6] 0 setdash
2 LJ
0.5 LW
N
477.471 97.768 M
390.373 100.099 L
303.275 101.167 L
216.177 101.677 L
129.079 101.935 L
S
GR
GS
1 0 0 RC
1 LJ
N
474 97.5 M
481 97.5 L
S
GR
GS
1 0 0 RC
1 LJ
N
477.5 101 M
477.5 94 L
S
GR
GS
1 0 0 RC
1 LJ
N
387 100.5 M
394 100.5 L
S
GR
GS
1 0 0 RC
1 LJ
N
390.5 104 M
390.5 97 L
S
GR
GS
1 0 0 RC
1 LJ
N
300 101.5 M
307 101.5 L
S
GR
GS
1 0 0 RC
1 LJ
N
303.5 105 M
303.5 98 L
S
GR
GS
1 0 0 RC
1 LJ
N
213 101.5 M
220 101.5 L
S
GR
GS
1 0 0 RC
1 LJ
N
216.5 105 M
216.5 98 L
S
GR
GS
1 0 0 RC
1 LJ
N
126 101.5 M
133 101.5 L
S
GR
GS
1 0 0 RC
1 LJ
N
129.5 105 M
129.5 98 L
S
GR
GS
0 0 1 RC
[10 6] 0 setdash
2 LJ
0.5 LW
N
477.471 126.391 M
390.373 134.113 L
303.275 140.866 L
216.177 147.034 L
129.079 152.938 L
S
GR
GS
0 0 1 RC
1 LJ
N
480.5 126.5 M
479.621 124.379 L
477.5 123.5 L
475.379 124.379 L
474.5 126.5 L
475.379 128.621 L
477.5 129.5 L
479.621 128.621 L
cp
S
GR
GS
0 0 1 RC
1 LJ
N
393.5 134.5 M
392.621 132.379 L
390.5 131.5 L
388.379 132.379 L
387.5 134.5 L
388.379 136.621 L
390.5 137.5 L
392.621 136.621 L
cp
S
GR
GS
0 0 1 RC
1 LJ
N
306.5 140.5 M
305.621 138.379 L
303.5 137.5 L
301.379 138.379 L
300.5 140.5 L
301.379 142.621 L
303.5 143.5 L
305.621 142.621 L
cp
S
GR
GS
0 0 1 RC
1 LJ
N
219.5 147.5 M
218.621 145.379 L
216.5 144.5 L
214.379 145.379 L
213.5 147.5 L
214.379 149.621 L
216.5 150.5 L
218.621 149.621 L
cp
S
GR
GS
0 0 1 RC
1 LJ
N
132.5 152.5 M
131.621 150.379 L
129.5 149.5 L
127.379 150.379 L
126.5 152.5 L
127.379 154.621 L
129.5 155.5 L
131.621 154.621 L
cp
S
GR
GS
[10 6] 0 setdash
2 LJ
0.5 LW
N
477.471 366.865 M
390.373 362.958 L
303.275 364.391 L
216.177 364.165 L
129.079 363.393 L
S
GR
GS
10.0 ML
N
477.5 370.499 M
480.5 366.5 L
477.5 362.501 L
474.5 366.5 L
cp
S
GR
GS
10.0 ML
N
390.5 366.499 M
393.5 362.5 L
390.5 358.501 L
387.5 362.5 L
cp
S
GR
GS
10.0 ML
N
303.5 368.499 M
306.5 364.5 L
303.5 360.501 L
300.5 364.5 L
cp
S
GR
GS
10.0 ML
N
216.5 368.499 M
219.5 364.5 L
216.5 360.501 L
213.5 364.5 L
cp
S
GR
GS
10.0 ML
N
129.5 367.499 M
132.5 363.5 L
129.5 359.501 L
126.5 363.5 L
cp
S
GR
GS
1 0 1 RC
[10 6] 0 setdash
2 LJ
0.5 LW
N
477.471 366.968 M
390.373 362.804 L
303.275 364.301 L
216.177 364.102 L
129.079 363.298 L
S
GR
GS
1 0 1 RC
1 LJ
N
474 366.5 M
481 366.5 L
S
GR
GS
1 0 1 RC
1 LJ
N
477.5 370 M
477.5 363 L
S
GR
GS
1 0 1 RC
1 LJ
N
475 369 M
480 364 L
S
GR
GS
1 0 1 RC
1 LJ
N
475 364 M
480 369 L
S
GR
GS
1 0 1 RC
1 LJ
N
387 362.5 M
394 362.5 L
S
GR
GS
1 0 1 RC
1 LJ
N
390.5 366 M
390.5 359 L
S
GR
GS
1 0 1 RC
1 LJ
N
388 365 M
393 360 L
S
GR
GS
1 0 1 RC
1 LJ
N
388 360 M
393 365 L
S
GR
GS
1 0 1 RC
1 LJ
N
300 364.5 M
307 364.5 L
S
GR
GS
1 0 1 RC
1 LJ
N
303.5 368 M
303.5 361 L
S
GR
GS
1 0 1 RC
1 LJ
N
301 367 M
306 362 L
S
GR
GS
1 0 1 RC
1 LJ
N
301 362 M
306 367 L
S
GR
GS
1 0 1 RC
1 LJ
N
213 364.5 M
220 364.5 L
S
GR
GS
1 0 1 RC
1 LJ
N
216.5 368 M
216.5 361 L
S
GR
GS
1 0 1 RC
1 LJ
N
214 367 M
219 362 L
S
GR
GS
1 0 1 RC
1 LJ
N
214 362 M
219 367 L
S
GR
GS
1 0 1 RC
1 LJ
N
126 363.5 M
133 363.5 L
S
GR
GS
1 0 1 RC
1 LJ
N
129.5 367 M
129.5 360 L
S
GR
GS
1 0 1 RC
1 LJ
N
127 366 M
132 361 L
S
GR
GS
1 0 1 RC
1 LJ
N
127 361 M
132 366 L
S
GR
GS
0 1 0 RC
[10 6] 0 setdash
2 LJ
0.5 LW
N
477.471 366.95 M
390.373 362.778 L
303.275 364.284 L
216.177 364.007 L
129.079 363.314 L
S
GR
GS
0 1 0 RC
1 LJ
N
475 369 M
480 364 L
S
GR
GS
0 1 0 RC
1 LJ
N
475 364 M
480 369 L
S
GR
GS
0 1 0 RC
1 LJ
N
388 365 M
393 360 L
S
GR
GS
0 1 0 RC
1 LJ
N
388 360 M
393 365 L
S
GR
GS
0 1 0 RC
1 LJ
N
301 367 M
306 362 L
S
GR
GS
0 1 0 RC
1 LJ
N
301 362 M
306 367 L
S
GR
GS
0 1 0 RC
1 LJ
N
214 367 M
219 362 L
S
GR
GS
0 1 0 RC
1 LJ
N
214 362 M
219 367 L
S
GR
GS
0 1 0 RC
1 LJ
N
127 366 M
132 361 L
S
GR
GS
0 1 0 RC
1 LJ
N
127 361 M
132 366 L
S
GR
GS
1 0 0 RC
[8 3 2 3] 0 setdash
2 LJ
0.5 LW
N
477.471 100.102 M
390.373 106.154 L
303.275 112.118 L
216.177 117.991 L
129.079 123.793 L
S
GR
GS
1 0 0 RC
1 LJ
N
474 100.5 M
481 100.5 L
S
GR
GS
1 0 0 RC
1 LJ
N
477.5 104 M
477.5 97 L
S
GR
GS
1 0 0 RC
1 LJ
N
387 106.5 M
394 106.5 L
S
GR
GS
1 0 0 RC
1 LJ
N
390.5 110 M
390.5 103 L
S
GR
GS
1 0 0 RC
1 LJ
N
300 112.5 M
307 112.5 L
S
GR
GS
1 0 0 RC
1 LJ
N
303.5 116 M
303.5 109 L
S
GR
GS
1 0 0 RC
1 LJ
N
213 117.5 M
220 117.5 L
S
GR
GS
1 0 0 RC
1 LJ
N
216.5 121 M
216.5 114 L
S
GR
GS
1 0 0 RC
1 LJ
N
126 123.5 M
133 123.5 L
S
GR
GS
1 0 0 RC
1 LJ
N
129.5 127 M
129.5 120 L
S
GR
GS
0 0 1 RC
[8 3 2 3] 0 setdash
2 LJ
0.5 LW
N
477.471 130.876 M
390.373 141.976 L
303.275 153.27 L
216.177 164.629 L
129.079 176.014 L
S
GR
GS
0 0 1 RC
1 LJ
N
480.5 130.5 M
479.621 128.379 L
477.5 127.5 L
475.379 128.379 L
474.5 130.5 L
475.379 132.621 L
477.5 133.5 L
479.621 132.621 L
cp
S
GR
GS
0 0 1 RC
1 LJ
N
393.5 141.5 M
392.621 139.379 L
390.5 138.5 L
388.379 139.379 L
387.5 141.5 L
388.379 143.621 L
390.5 144.5 L
392.621 143.621 L
cp
S
GR
GS
0 0 1 RC
1 LJ
N
306.5 153.5 M
305.621 151.379 L
303.5 150.5 L
301.379 151.379 L
300.5 153.5 L
301.379 155.621 L
303.5 156.5 L
305.621 155.621 L
cp
S
GR
GS
0 0 1 RC
1 LJ
N
219.5 164.5 M
218.621 162.379 L
216.5 161.5 L
214.379 162.379 L
213.5 164.5 L
214.379 166.621 L
216.5 167.5 L
218.621 166.621 L
cp
S
GR
GS
0 0 1 RC
1 LJ
N
132.5 176.5 M
131.621 174.379 L
129.5 173.5 L
127.379 174.379 L
126.5 176.5 L
127.379 178.621 L
129.5 179.5 L
131.621 178.621 L
cp
S
GR
GS
[8 3 2 3] 0 setdash
2 LJ
0.5 LW
N
477.471 366.865 M
390.373 362.958 L
303.275 364.391 L
216.177 364.165 L
129.079 363.393 L
S
GR
GS
10.0 ML
N
477.5 370.499 M
480.5 366.5 L
477.5 362.501 L
474.5 366.5 L
cp
S
GR
GS
10.0 ML
N
390.5 366.499 M
393.5 362.5 L
390.5 358.501 L
387.5 362.5 L
cp
S
GR
GS
10.0 ML
N
303.5 368.499 M
306.5 364.5 L
303.5 360.501 L
300.5 364.5 L
cp
S
GR
GS
10.0 ML
N
216.5 368.499 M
219.5 364.5 L
216.5 360.501 L
213.5 364.5 L
cp
S
GR
GS
10.0 ML
N
129.5 367.499 M
132.5 363.5 L
129.5 359.501 L
126.5 363.5 L
cp
S
GR
GS
1 0 1 RC
[8 3 2 3] 0 setdash
2 LJ
0.5 LW
N
477.471 366.968 M
390.373 362.804 L
303.275 364.301 L
216.177 364.102 L
129.079 363.298 L
S
GR
GS
1 0 1 RC
1 LJ
N
474 366.5 M
481 366.5 L
S
GR
GS
1 0 1 RC
1 LJ
N
477.5 370 M
477.5 363 L
S
GR
GS
1 0 1 RC
1 LJ
N
475 369 M
480 364 L
S
GR
GS
1 0 1 RC
1 LJ
N
475 364 M
480 369 L
S
GR
GS
1 0 1 RC
1 LJ
N
387 362.5 M
394 362.5 L
S
GR
GS
1 0 1 RC
1 LJ
N
390.5 366 M
390.5 359 L
S
GR
GS
1 0 1 RC
1 LJ
N
388 365 M
393 360 L
S
GR
GS
1 0 1 RC
1 LJ
N
388 360 M
393 365 L
S
GR
GS
1 0 1 RC
1 LJ
N
300 364.5 M
307 364.5 L
S
GR
GS
1 0 1 RC
1 LJ
N
303.5 368 M
303.5 361 L
S
GR
GS
1 0 1 RC
1 LJ
N
301 367 M
306 362 L
S
GR
GS
1 0 1 RC
1 LJ
N
301 362 M
306 367 L
S
GR
GS
1 0 1 RC
1 LJ
N
213 364.5 M
220 364.5 L
S
GR
GS
1 0 1 RC
1 LJ
N
216.5 368 M
216.5 361 L
S
GR
GS
1 0 1 RC
1 LJ
N
214 367 M
219 362 L
S
GR
GS
1 0 1 RC
1 LJ
N
214 362 M
219 367 L
S
GR
GS
1 0 1 RC
1 LJ
N
126 363.5 M
133 363.5 L
S
GR
GS
1 0 1 RC
1 LJ
N
129.5 367 M
129.5 360 L
S
GR
GS
1 0 1 RC
1 LJ
N
127 366 M
132 361 L
S
GR
GS
1 0 1 RC
1 LJ
N
127 361 M
132 366 L
S
GR
GS
0 1 0 RC
[8 3 2 3] 0 setdash
2 LJ
0.5 LW
N
477.471 366.95 M
390.373 362.778 L
303.275 364.284 L
216.177 364.007 L
129.079 363.314 L
S
GR
GS
0 1 0 RC
1 LJ
N
475 369 M
480 364 L
S
GR
GS
0 1 0 RC
1 LJ
N
475 364 M
480 369 L
S
GR
GS
0 1 0 RC
1 LJ
N
388 365 M
393 360 L
S
GR
GS
0 1 0 RC
1 LJ
N
388 360 M
393 365 L
S
GR
GS
0 1 0 RC
1 LJ
N
301 367 M
306 362 L
S
GR
GS
0 1 0 RC
1 LJ
N
301 362 M
306 367 L
S
GR
GS
0 1 0 RC
1 LJ
N
214 367 M
219 362 L
S
GR
GS
0 1 0 RC
1 LJ
N
214 362 M
219 367 L
S
GR
GS
0 1 0 RC
1 LJ
N
127 366 M
132 361 L
S
GR
GS
0 1 0 RC
1 LJ
N
127 361 M
132 366 L
S
GR
GS
1 GC
N
428.5 242.5 M
428.5 161.5 L
498.5 161.5 L
498.5 242.5 L
cp
f
GR
GS
[1 0 0 1 465.5 171] CT
/Helvetica 12.6 F
GS
[1 0 0 1 0 0] CT
0 5 moveto 
1 -1 scale
(p = 0) t 
GR
GR
GS
1 0 0 RC
1 LJ
0.5 LW
N
432.5 171 M
462.5 171 L
S
GR
GS
1 0 0 RC
1 LJ
N
444 170.5 M
451 170.5 L
S
GR
GS
1 0 0 RC
1 LJ
N
447.5 174 M
447.5 167 L
S
GR
GS
[1 0 0 1 465.5 186.5] CT
/Helvetica 12.6 F
GS
[1 0 0 1 0 0] CT
0 5 moveto 
1 -1 scale
(p = 1) t 
GR
GR
GS
0 0 1 RC
1 LJ
0.5 LW
N
432.5 186.5 M
462.5 186.5 L
S
GR
GS
0 0 1 RC
1 LJ
N
450.5 186.5 M
449.621 184.379 L
447.5 183.5 L
445.379 184.379 L
444.5 186.5 L
445.379 188.621 L
447.5 189.5 L
449.621 188.621 L
cp
S
GR
GS
[1 0 0 1 465.5 202] CT
/Helvetica 12.6 F
GS
[1 0 0 1 0 0] CT
0 5 moveto 
1 -1 scale
(p = 2) t 
GR
GR
GS
1 LJ
0.5 LW
N
432.5 202 M
462.5 202 L
S
GR
GS
10.0 ML
N
447.5 205.499 M
450.5 201.5 L
447.5 197.501 L
444.5 201.5 L
cp
S
GR
GS
[1 0 0 1 465.5 217.5] CT
/Helvetica 12.6 F
GS
[1 0 0 1 0 0] CT
0 5 moveto 
1 -1 scale
(p = 3) t 
GR
GR
GS
1 0 1 RC
1 LJ
0.5 LW
N
432.5 217.5 M
462.5 217.5 L
S
GR
GS
1 0 1 RC
1 LJ
N
444 217.5 M
451 217.5 L
S
GR
GS
1 0 1 RC
1 LJ
N
447.5 221 M
447.5 214 L
S
GR
GS
1 0 1 RC
1 LJ
N
445 220 M
450 215 L
S
GR
GS
1 0 1 RC
1 LJ
N
445 215 M
450 220 L
S
GR
GS
[1 0 0 1 465.5 233] CT
/Helvetica 12.6 F
GS
[1 0 0 1 0 0] CT
0 5 moveto 
1 -1 scale
(p = 4) t 
GR
GR
GS
0 1 0 RC
1 LJ
0.5 LW
N
432.5 233 M
462.5 233 L
S
GR
GS
0 1 0 RC
1 LJ
N
445 236 M
450 231 L
S
GR
GS
0 1 0 RC
1 LJ
N
445 231 M
450 236 L
S
GR
GS
0.149 GC
10.0 ML
0.5 LW
N
428.5 242.5 M
428.5 161.5 L
498.5 161.5 L
498.5 242.5 L
cp
S
GR
%%Trailer
%%Pages: 1
%%EOF
