%!PS-Adobe-3.0 EPSF-3.0
%%Creator: (MATLAB, The Mathworks, Inc. Version 9.0.0.341360 \(R2016a\). Operating System: Mac OS X)
%%Title: ./SWE1D_ConservativePDE.eps
%%CreationDate: 2016-06-20T01:25:31
%%Pages: (atend)
%%BoundingBox:    22     2   519   393
%%LanguageLevel: 2
%%EndComments
%%BeginProlog
%%BeginResource: procset (Apache XML Graphics Std ProcSet) 1.2 0
%%Version: 1.2 0
%%Copyright: (Copyright 2001-2003,2010 The Apache Software Foundation. License terms: http://www.apache.org/licenses/LICENSE-2.0)
/bd{bind def}bind def
/ld{load def}bd
/GR/grestore ld
/M/moveto ld
/LJ/setlinejoin ld
/C/curveto ld
/f/fill ld
/LW/setlinewidth ld
/GC/setgray ld
/t/show ld
/N/newpath ld
/CT/concat ld
/cp/closepath ld
/S/stroke ld
/L/lineto ld
/CC/setcmykcolor ld
/A/ashow ld
/GS/gsave ld
/RC/setrgbcolor ld
/RM/rmoveto ld
/ML/setmiterlimit ld
/re {4 2 roll M
1 index 0 rlineto
0 exch rlineto
neg 0 rlineto
cp } bd
/_ctm matrix def
/_tm matrix def
/BT { _ctm currentmatrix pop matrix _tm copy pop 0 0 moveto } bd
/ET { _ctm setmatrix } bd
/iTm { _ctm setmatrix _tm concat } bd
/Tm { _tm astore pop iTm 0 0 moveto } bd
/ux 0.0 def
/uy 0.0 def
/F {
  /Tp exch def
  /Tf exch def
  Tf findfont Tp scalefont setfont
  /cf Tf def  /cs Tp def
} bd
/ULS {currentpoint /uy exch def /ux exch def} bd
/ULE {
  /Tcx currentpoint pop def
  gsave
  newpath
  cf findfont cs scalefont dup
  /FontMatrix get 0 get /Ts exch def /FontInfo get dup
  /UnderlinePosition get Ts mul /To exch def
  /UnderlineThickness get Ts mul /Tt exch def
  ux uy To add moveto  Tcx uy To add lineto
  Tt setlinewidth stroke
  grestore
} bd
/OLE {
  /Tcx currentpoint pop def
  gsave
  newpath
  cf findfont cs scalefont dup
  /FontMatrix get 0 get /Ts exch def /FontInfo get dup
  /UnderlinePosition get Ts mul /To exch def
  /UnderlineThickness get Ts mul /Tt exch def
  ux uy To add cs add moveto Tcx uy To add cs add lineto
  Tt setlinewidth stroke
  grestore
} bd
/SOE {
  /Tcx currentpoint pop def
  gsave
  newpath
  cf findfont cs scalefont dup
  /FontMatrix get 0 get /Ts exch def /FontInfo get dup
  /UnderlinePosition get Ts mul /To exch def
  /UnderlineThickness get Ts mul /Tt exch def
  ux uy To add cs 10 mul 26 idiv add moveto Tcx uy To add cs 10 mul 26 idiv add lineto
  Tt setlinewidth stroke
  grestore
} bd
/QT {
/Y22 exch store
/X22 exch store
/Y21 exch store
/X21 exch store
currentpoint
/Y21 load 2 mul add 3 div exch
/X21 load 2 mul add 3 div exch
/X21 load 2 mul /X22 load add 3 div
/Y21 load 2 mul /Y22 load add 3 div
/X22 load /Y22 load curveto
} bd
/SSPD {
dup length /d exch dict def
{
/v exch def
/k exch def
currentpagedevice k known {
/cpdv currentpagedevice k get def
v cpdv ne {
/upd false def
/nullv v type /nulltype eq def
/nullcpdv cpdv type /nulltype eq def
nullv nullcpdv or
{
/upd true def
} {
/sametype v type cpdv type eq def
sametype {
v type /arraytype eq {
/vlen v length def
/cpdvlen cpdv length def
vlen cpdvlen eq {
0 1 vlen 1 sub {
/i exch def
/obj v i get def
/cpdobj cpdv i get def
obj cpdobj ne {
/upd true def
exit
} if
} for
} {
/upd true def
} ifelse
} {
v type /dicttype eq {
v {
/dv exch def
/dk exch def
/cpddv cpdv dk get def
dv cpddv ne {
/upd true def
exit
} if
} forall
} {
/upd true def
} ifelse
} ifelse
} if
} ifelse
upd true eq {
d k v put
} if
} if
} if
} forall
d length 0 gt {
d setpagedevice
} if
} bd
%%EndResource
%%BeginResource: procset (Apache XML Graphics EPS ProcSet) 1.0 0
%%Version: 1.0 0
%%Copyright: (Copyright 2002-2003 The Apache Software Foundation. License terms: http://www.apache.org/licenses/LICENSE-2.0)
/BeginEPSF { %def
/b4_Inc_state save def         % Save state for cleanup
/dict_count countdictstack def % Count objects on dict stack
/op_count count 1 sub def      % Count objects on operand stack
userdict begin                 % Push userdict on dict stack
/showpage { } def              % Redefine showpage, { } = null proc
0 setgray 0 setlinecap         % Prepare graphics state
1 setlinewidth 0 setlinejoin
10 setmiterlimit [ ] 0 setdash newpath
/languagelevel where           % If level not equal to 1 then
{pop languagelevel             % set strokeadjust and
1 ne                           % overprint to their defaults.
{false setstrokeadjust false setoverprint
} if
} if
} bd
/EndEPSF { %def
count op_count sub {pop} repeat            % Clean up stacks
countdictstack dict_count sub {end} repeat
b4_Inc_state restore
} bd
%%EndResource
%FOPBeginFontDict
%%IncludeResource: font Courier-Bold
%%IncludeResource: font Helvetica
%%IncludeResource: font Courier-BoldOblique
%%IncludeResource: font Courier-Oblique
%%IncludeResource: font Times-Roman
%%IncludeResource: font Helvetica-BoldOblique
%%IncludeResource: font Helvetica-Bold
%%IncludeResource: font Helvetica-Oblique
%%IncludeResource: font Times-BoldItalic
%%IncludeResource: font Courier
%%IncludeResource: font Times-Italic
%%IncludeResource: font Times-Bold
%%IncludeResource: font Symbol
%%IncludeResource: font ZapfDingbats
%FOPEndFontDict
%%BeginResource: encoding WinAnsiEncoding
/WinAnsiEncoding [
/.notdef /.notdef /.notdef /.notdef /.notdef
/.notdef /.notdef /.notdef /.notdef /.notdef
/.notdef /.notdef /.notdef /.notdef /.notdef
/.notdef /.notdef /.notdef /.notdef /.notdef
/.notdef /.notdef /.notdef /.notdef /.notdef
/.notdef /.notdef /.notdef /.notdef /.notdef
/.notdef /.notdef /space /exclam /quotedbl
/numbersign /dollar /percent /ampersand /quotesingle
/parenleft /parenright /asterisk /plus /comma
/hyphen /period /slash /zero /one
/two /three /four /five /six
/seven /eight /nine /colon /semicolon
/less /equal /greater /question /at
/A /B /C /D /E
/F /G /H /I /J
/K /L /M /N /O
/P /Q /R /S /T
/U /V /W /X /Y
/Z /bracketleft /backslash /bracketright /asciicircum
/underscore /quoteleft /a /b /c
/d /e /f /g /h
/i /j /k /l /m
/n /o /p /q /r
/s /t /u /v /w
/x /y /z /braceleft /bar
/braceright /asciitilde /bullet /Euro /bullet
/quotesinglbase /florin /quotedblbase /ellipsis /dagger
/daggerdbl /circumflex /perthousand /Scaron /guilsinglleft
/OE /bullet /Zcaron /bullet /bullet
/quoteleft /quoteright /quotedblleft /quotedblright /bullet
/endash /emdash /asciitilde /trademark /scaron
/guilsinglright /oe /bullet /zcaron /Ydieresis
/space /exclamdown /cent /sterling /currency
/yen /brokenbar /section /dieresis /copyright
/ordfeminine /guillemotleft /logicalnot /sfthyphen /registered
/macron /degree /plusminus /twosuperior /threesuperior
/acute /mu /paragraph /middot /cedilla
/onesuperior /ordmasculine /guillemotright /onequarter /onehalf
/threequarters /questiondown /Agrave /Aacute /Acircumflex
/Atilde /Adieresis /Aring /AE /Ccedilla
/Egrave /Eacute /Ecircumflex /Edieresis /Igrave
/Iacute /Icircumflex /Idieresis /Eth /Ntilde
/Ograve /Oacute /Ocircumflex /Otilde /Odieresis
/multiply /Oslash /Ugrave /Uacute /Ucircumflex
/Udieresis /Yacute /Thorn /germandbls /agrave
/aacute /acircumflex /atilde /adieresis /aring
/ae /ccedilla /egrave /eacute /ecircumflex
/edieresis /igrave /iacute /icircumflex /idieresis
/eth /ntilde /ograve /oacute /ocircumflex
/otilde /odieresis /divide /oslash /ugrave
/uacute /ucircumflex /udieresis /yacute /thorn
/ydieresis
] def
%%EndResource
%FOPBeginFontReencode
/Courier-Bold findfont
dup length dict begin
  {1 index /FID ne {def} {pop pop} ifelse} forall
  /Encoding WinAnsiEncoding def
  currentdict
end
/Courier-Bold exch definefont pop
/Helvetica findfont
dup length dict begin
  {1 index /FID ne {def} {pop pop} ifelse} forall
  /Encoding WinAnsiEncoding def
  currentdict
end
/Helvetica exch definefont pop
/Courier-BoldOblique findfont
dup length dict begin
  {1 index /FID ne {def} {pop pop} ifelse} forall
  /Encoding WinAnsiEncoding def
  currentdict
end
/Courier-BoldOblique exch definefont pop
/Courier-Oblique findfont
dup length dict begin
  {1 index /FID ne {def} {pop pop} ifelse} forall
  /Encoding WinAnsiEncoding def
  currentdict
end
/Courier-Oblique exch definefont pop
/Times-Roman findfont
dup length dict begin
  {1 index /FID ne {def} {pop pop} ifelse} forall
  /Encoding WinAnsiEncoding def
  currentdict
end
/Times-Roman exch definefont pop
/Helvetica-BoldOblique findfont
dup length dict begin
  {1 index /FID ne {def} {pop pop} ifelse} forall
  /Encoding WinAnsiEncoding def
  currentdict
end
/Helvetica-BoldOblique exch definefont pop
/Helvetica-Bold findfont
dup length dict begin
  {1 index /FID ne {def} {pop pop} ifelse} forall
  /Encoding WinAnsiEncoding def
  currentdict
end
/Helvetica-Bold exch definefont pop
/Helvetica-Oblique findfont
dup length dict begin
  {1 index /FID ne {def} {pop pop} ifelse} forall
  /Encoding WinAnsiEncoding def
  currentdict
end
/Helvetica-Oblique exch definefont pop
/Times-BoldItalic findfont
dup length dict begin
  {1 index /FID ne {def} {pop pop} ifelse} forall
  /Encoding WinAnsiEncoding def
  currentdict
end
/Times-BoldItalic exch definefont pop
/Courier findfont
dup length dict begin
  {1 index /FID ne {def} {pop pop} ifelse} forall
  /Encoding WinAnsiEncoding def
  currentdict
end
/Courier exch definefont pop
/Times-Italic findfont
dup length dict begin
  {1 index /FID ne {def} {pop pop} ifelse} forall
  /Encoding WinAnsiEncoding def
  currentdict
end
/Times-Italic exch definefont pop
/Times-Bold findfont
dup length dict begin
  {1 index /FID ne {def} {pop pop} ifelse} forall
  /Encoding WinAnsiEncoding def
  currentdict
end
/Times-Bold exch definefont pop
%FOPEndFontReencode
%%EndProlog
%%Page: 1 1
%%PageBoundingBox: 0 0 560 420
%%BeginPageSetup
[1 0 0 -1 0 420] CT
%%EndPageSetup
GS
1 GC
N
0 0 560 420 re
f
GR
GS
1 GC
N
0 0 560 420 re
f
GR
GS
1 GC
N
73 372.5 M
507 372.5 L
507 31.5 L
73 31.5 L
cp
f
GR
GS
0.873 GC
1 LJ
0.5 LW
N
73 372.5 M
73 31.5 L
S
GR
GS
0.873 GC
1 LJ
0.5 LW
N
217.667 372.5 M
217.667 31.5 L
S
GR
GS
0.873 GC
1 LJ
0.5 LW
N
362.333 372.5 M
362.333 31.5 L
S
GR
GS
0.873 GC
1 LJ
0.5 LW
N
507 372.5 M
507 31.5 L
S
GR
GS
0.873 GC
1 LJ
0.5 LW
N
507 372.5 M
73 372.5 L
S
GR
GS
0.873 GC
1 LJ
0.5 LW
N
507 329.875 M
73 329.875 L
S
GR
GS
0.873 GC
1 LJ
0.5 LW
N
507 287.25 M
73 287.25 L
S
GR
GS
0.873 GC
1 LJ
0.5 LW
N
507 244.625 M
73 244.625 L
S
GR
GS
0.873 GC
1 LJ
0.5 LW
N
507 202 M
73 202 L
S
GR
GS
0.873 GC
1 LJ
0.5 LW
N
507 159.375 M
73 159.375 L
S
GR
GS
0.873 GC
1 LJ
0.5 LW
N
507 116.75 M
73 116.75 L
S
GR
GS
0.873 GC
1 LJ
0.5 LW
N
507 74.125 M
73 74.125 L
S
GR
GS
0.873 GC
1 LJ
0.5 LW
N
507 31.5 M
73 31.5 L
S
GR
GS
0.149 GC
2 setlinecap
1 LJ
0.5 LW
N
73 372.5 M
507 372.5 L
S
GR
GS
0.149 GC
2 setlinecap
1 LJ
0.5 LW
N
73 372.5 M
73 368.16 L
S
GR
GS
0.149 GC
2 setlinecap
1 LJ
0.5 LW
N
217.667 372.5 M
217.667 368.16 L
S
GR
GS
0.149 GC
2 setlinecap
1 LJ
0.5 LW
N
362.333 372.5 M
362.333 368.16 L
S
GR
GS
0.149 GC
2 setlinecap
1 LJ
0.5 LW
N
507 372.5 M
507 368.16 L
S
GR
GS
[1 0 0 1 73 377.29999] CT
0.149 GC
/Helvetica 14 F
GS
[1 0 0 1 0 0] CT
-7 14 moveto 
1 -1 scale
(-2) t 
GR
GR
GS
[1 0 0 1 217.66667 377.29999] CT
0.149 GC
/Helvetica 14 F
GS
[1 0 0 1 0 0] CT
-12.5 14 moveto 
1 -1 scale
(-1.5) t 
GR
GR
GS
[1 0 0 1 362.33334 377.29999] CT
0.149 GC
/Helvetica 14 F
GS
[1 0 0 1 0 0] CT
-7 14 moveto 
1 -1 scale
(-1) t 
GR
GR
GS
[1 0 0 1 507 377.29999] CT
0.149 GC
/Helvetica 14 F
GS
[1 0 0 1 0 0] CT
-12.5 14 moveto 
1 -1 scale
(-0.5) t 
GR
GR
GS
[1 0 0 1 241 410] CT
0.149 GC
/Helvetica 15 F
GS
[1 0 0 1 0 0] CT
0 0 moveto 
1 -1 scale
(log) t 
GR
GR
GS
[1 0 0 1 262 417] CT
0.149 GC
/Helvetica 12 F
GS
[1 0 0 1 0 0] CT
0 0 moveto 
1 -1 scale
(10) t 
GR
GR
GS
[1 0 0 1 276 410] CT
0.149 GC
/Helvetica 15 F
GS
[1 0 0 1 0 0] CT
0 0 moveto 
1 -1 scale
(\(1/nElem\)) t 
GR
GR
GS
0.149 GC
2 setlinecap
1 LJ
0.5 LW
N
73 372.5 M
73 31.5 L
S
GR
GS
0.149 GC
2 setlinecap
1 LJ
0.5 LW
N
73 372.5 M
77.34 372.5 L
S
GR
GS
0.149 GC
2 setlinecap
1 LJ
0.5 LW
N
73 329.875 M
77.34 329.875 L
S
GR
GS
0.149 GC
2 setlinecap
1 LJ
0.5 LW
N
73 287.25 M
77.34 287.25 L
S
GR
GS
0.149 GC
2 setlinecap
1 LJ
0.5 LW
N
73 244.625 M
77.34 244.625 L
S
GR
GS
0.149 GC
2 setlinecap
1 LJ
0.5 LW
N
73 202 M
77.34 202 L
S
GR
GS
0.149 GC
2 setlinecap
1 LJ
0.5 LW
N
73 159.375 M
77.34 159.375 L
S
GR
GS
0.149 GC
2 setlinecap
1 LJ
0.5 LW
N
73 116.75 M
77.34 116.75 L
S
GR
GS
0.149 GC
2 setlinecap
1 LJ
0.5 LW
N
73 74.125 M
77.34 74.125 L
S
GR
GS
0.149 GC
2 setlinecap
1 LJ
0.5 LW
N
73 31.5 M
77.34 31.5 L
S
GR
GS
[1 0 0 1 68.2 372.5] CT
0.149 GC
/Helvetica 14 F
GS
[1 0 0 1 0 0] CT
-22 5.5 moveto 
1 -1 scale
(-16) t 
GR
GR
GS
[1 0 0 1 68.2 329.875] CT
0.149 GC
/Helvetica 14 F
GS
[1 0 0 1 0 0] CT
-22 5.5 moveto 
1 -1 scale
(-14) t 
GR
GR
GS
[1 0 0 1 68.2 287.25] CT
0.149 GC
/Helvetica 14 F
GS
[1 0 0 1 0 0] CT
-22 5.5 moveto 
1 -1 scale
(-12) t 
GR
GR
GS
[1 0 0 1 68.2 244.625] CT
0.149 GC
/Helvetica 14 F
GS
[1 0 0 1 0 0] CT
-22 5.5 moveto 
1 -1 scale
(-10) t 
GR
GR
GS
[1 0 0 1 68.2 202] CT
0.149 GC
/Helvetica 14 F
GS
[1 0 0 1 0 0] CT
-14 5.5 moveto 
1 -1 scale
(-8) t 
GR
GR
GS
[1 0 0 1 68.2 159.375] CT
0.149 GC
/Helvetica 14 F
GS
[1 0 0 1 0 0] CT
-14 5.5 moveto 
1 -1 scale
(-6) t 
GR
GR
GS
[1 0 0 1 68.2 116.75] CT
0.149 GC
/Helvetica 14 F
GS
[1 0 0 1 0 0] CT
-14 5.5 moveto 
1 -1 scale
(-4) t 
GR
GR
GS
[1 0 0 1 68.2 74.125] CT
0.149 GC
/Helvetica 14 F
GS
[1 0 0 1 0 0] CT
-14 5.5 moveto 
1 -1 scale
(-2) t 
GR
GR
GS
[1 0 0 1 68.2 31.5] CT
0.149 GC
/Helvetica 14 F
GS
[1 0 0 1 0 0] CT
-8 5.5 moveto 
1 -1 scale
(0) t 
GR
GR
GS
[0 -1 1 0 34 279] CT
0.149 GC
/Helvetica 15 F
GS
[1 0 0 1 0 0] CT
0 0 moveto 
1 -1 scale
(log) t 
GR
GR
GS
[0 -1 1 0 41 258] CT
0.149 GC
/Helvetica 12 F
GS
[1 0 0 1 0 0] CT
0 0 moveto 
1 -1 scale
(10) t 
GR
GR
GS
[0 -1 1 0 34 244] CT
0.149 GC
/Helvetica 15 F
GS
[1 0 0 1 0 0] CT
0 0 moveto 
1 -1 scale
(\(Solution L) t 
GR
GR
GS
[0 -1 1 0 41 172] CT
0.149 GC
/Helvetica 12 F
GS
[1 0 0 1 0 0] CT
0 0 moveto 
1 -1 scale
(2) t 
GR
GR
GS
[0 -1 1 0 34 165] CT
0.149 GC
/Helvetica 15 F
GS
[1 0 0 1 0 0] CT
0 0 moveto 
1 -1 scale
( error\)) t 
GR
GR
GS
1 0 0 RC
1 LJ
0.5 LW
N
477.471 64.608 M
390.373 68.369 L
303.275 73.119 L
216.177 78.676 L
129.079 84.663 L
S
GR
GS
1 0 0 RC
1 LJ
N
474 64.5 M
481 64.5 L
S
GR
GS
1 0 0 RC
1 LJ
N
477.5 68 M
477.5 61 L
S
GR
GS
1 0 0 RC
1 LJ
N
387 68.5 M
394 68.5 L
S
GR
GS
1 0 0 RC
1 LJ
N
390.5 72 M
390.5 65 L
S
GR
GS
1 0 0 RC
1 LJ
N
300 73.5 M
307 73.5 L
S
GR
GS
1 0 0 RC
1 LJ
N
303.5 77 M
303.5 70 L
S
GR
GS
1 0 0 RC
1 LJ
N
213 78.5 M
220 78.5 L
S
GR
GS
1 0 0 RC
1 LJ
N
216.5 82 M
216.5 75 L
S
GR
GS
1 0 0 RC
1 LJ
N
126 84.5 M
133 84.5 L
S
GR
GS
1 0 0 RC
1 LJ
N
129.5 88 M
129.5 81 L
S
GR
GS
0 0 1 RC
1 LJ
0.5 LW
N
477.471 107.796 M
390.373 120.782 L
303.275 133.841 L
216.177 146.81 L
129.079 159.71 L
S
GR
GS
0 0 1 RC
1 LJ
N
480.5 107.5 M
479.621 105.379 L
477.5 104.5 L
475.379 105.379 L
474.5 107.5 L
475.379 109.621 L
477.5 110.5 L
479.621 109.621 L
cp
S
GR
GS
0 0 1 RC
1 LJ
N
393.5 120.5 M
392.621 118.379 L
390.5 117.5 L
388.379 118.379 L
387.5 120.5 L
388.379 122.621 L
390.5 123.5 L
392.621 122.621 L
cp
S
GR
GS
0 0 1 RC
1 LJ
N
306.5 133.5 M
305.621 131.379 L
303.5 130.5 L
301.379 131.379 L
300.5 133.5 L
301.379 135.621 L
303.5 136.5 L
305.621 135.621 L
cp
S
GR
GS
0 0 1 RC
1 LJ
N
219.5 146.5 M
218.621 144.379 L
216.5 143.5 L
214.379 144.379 L
213.5 146.5 L
214.379 148.621 L
216.5 149.5 L
218.621 148.621 L
cp
S
GR
GS
0 0 1 RC
1 LJ
N
132.5 159.5 M
131.621 157.379 L
129.5 156.5 L
127.379 157.379 L
126.5 159.5 L
127.379 161.621 L
129.5 162.5 L
131.621 161.621 L
cp
S
GR
GS
1 LJ
0.5 LW
N
477.471 140.807 M
390.373 159.919 L
303.275 179.369 L
216.177 198.649 L
129.079 217.867 L
S
GR
GS
10.0 ML
N
477.5 144.499 M
480.5 140.5 L
477.5 136.501 L
474.5 140.5 L
cp
S
GR
GS
10.0 ML
N
390.5 163.499 M
393.5 159.5 L
390.5 155.501 L
387.5 159.5 L
cp
S
GR
GS
10.0 ML
N
303.5 183.499 M
306.5 179.5 L
303.5 175.501 L
300.5 179.5 L
cp
S
GR
GS
10.0 ML
N
216.5 202.499 M
219.5 198.5 L
216.5 194.501 L
213.5 198.5 L
cp
S
GR
GS
10.0 ML
N
129.5 221.499 M
132.5 217.5 L
129.5 213.501 L
126.5 217.5 L
cp
S
GR
GS
1 0 1 RC
1 LJ
0.5 LW
N
477.471 186.941 M
390.373 212.691 L
303.275 238.502 L
216.177 264.256 L
129.079 289.961 L
S
GR
GS
1 0 1 RC
1 LJ
N
474 186.5 M
481 186.5 L
S
GR
GS
1 0 1 RC
1 LJ
N
477.5 190 M
477.5 183 L
S
GR
GS
1 0 1 RC
1 LJ
N
475 189 M
480 184 L
S
GR
GS
1 0 1 RC
1 LJ
N
475 184 M
480 189 L
S
GR
GS
1 0 1 RC
1 LJ
N
387 212.5 M
394 212.5 L
S
GR
GS
1 0 1 RC
1 LJ
N
390.5 216 M
390.5 209 L
S
GR
GS
1 0 1 RC
1 LJ
N
388 215 M
393 210 L
S
GR
GS
1 0 1 RC
1 LJ
N
388 210 M
393 215 L
S
GR
GS
1 0 1 RC
1 LJ
N
300 238.5 M
307 238.5 L
S
GR
GS
1 0 1 RC
1 LJ
N
303.5 242 M
303.5 235 L
S
GR
GS
1 0 1 RC
1 LJ
N
301 241 M
306 236 L
S
GR
GS
1 0 1 RC
1 LJ
N
301 236 M
306 241 L
S
GR
GS
1 0 1 RC
1 LJ
N
213 264.5 M
220 264.5 L
S
GR
GS
1 0 1 RC
1 LJ
N
216.5 268 M
216.5 261 L
S
GR
GS
1 0 1 RC
1 LJ
N
214 267 M
219 262 L
S
GR
GS
1 0 1 RC
1 LJ
N
214 262 M
219 267 L
S
GR
GS
1 0 1 RC
1 LJ
N
126 289.5 M
133 289.5 L
S
GR
GS
1 0 1 RC
1 LJ
N
129.5 293 M
129.5 286 L
S
GR
GS
1 0 1 RC
1 LJ
N
127 292 M
132 287 L
S
GR
GS
1 0 1 RC
1 LJ
N
127 287 M
132 292 L
S
GR
GS
0 1 0 RC
1 LJ
0.5 LW
N
477.471 225.087 M
390.373 256.353 L
303.275 287.712 L
216.177 319.519 L
129.079 347.769 L
S
GR
GS
0 1 0 RC
1 LJ
N
475 228 M
480 223 L
S
GR
GS
0 1 0 RC
1 LJ
N
475 223 M
480 228 L
S
GR
GS
0 1 0 RC
1 LJ
N
388 259 M
393 254 L
S
GR
GS
0 1 0 RC
1 LJ
N
388 254 M
393 259 L
S
GR
GS
0 1 0 RC
1 LJ
N
301 290 M
306 285 L
S
GR
GS
0 1 0 RC
1 LJ
N
301 285 M
306 290 L
S
GR
GS
0 1 0 RC
1 LJ
N
214 322 M
219 317 L
S
GR
GS
0 1 0 RC
1 LJ
N
214 317 M
219 322 L
S
GR
GS
0 1 0 RC
1 LJ
N
127 350 M
132 345 L
S
GR
GS
0 1 0 RC
1 LJ
N
127 345 M
132 350 L
S
GR
GS
1 GC
N
428.5 356 M
428.5 275 L
498.5 275 L
498.5 356 L
cp
f
GR
GS
[1 0 0 1 465.5 284.5] CT
/Helvetica 12.6 F
GS
[1 0 0 1 0 0] CT
0 5 moveto 
1 -1 scale
(p = 0) t 
GR
GR
GS
1 0 0 RC
1 LJ
0.5 LW
N
432.5 284.5 M
462.5 284.5 L
S
GR
GS
1 0 0 RC
1 LJ
N
444 284.5 M
451 284.5 L
S
GR
GS
1 0 0 RC
1 LJ
N
447.5 288 M
447.5 281 L
S
GR
GS
[1 0 0 1 465.5 300] CT
/Helvetica 12.6 F
GS
[1 0 0 1 0 0] CT
0 5 moveto 
1 -1 scale
(p = 1) t 
GR
GR
GS
0 0 1 RC
1 LJ
0.5 LW
N
432.5 300 M
462.5 300 L
S
GR
GS
0 0 1 RC
1 LJ
N
450.5 299.5 M
449.621 297.379 L
447.5 296.5 L
445.379 297.379 L
444.5 299.5 L
445.379 301.621 L
447.5 302.5 L
449.621 301.621 L
cp
S
GR
GS
[1 0 0 1 465.5 315.5] CT
/Helvetica 12.6 F
GS
[1 0 0 1 0 0] CT
0 5 moveto 
1 -1 scale
(p = 2) t 
GR
GR
GS
1 LJ
0.5 LW
N
432.5 315.5 M
462.5 315.5 L
S
GR
GS
10.0 ML
N
447.5 319.499 M
450.5 315.5 L
447.5 311.501 L
444.5 315.5 L
cp
S
GR
GS
[1 0 0 1 465.5 331] CT
/Helvetica 12.6 F
GS
[1 0 0 1 0 0] CT
0 5 moveto 
1 -1 scale
(p = 3) t 
GR
GR
GS
1 0 1 RC
1 LJ
0.5 LW
N
432.5 331 M
462.5 331 L
S
GR
GS
1 0 1 RC
1 LJ
N
444 331.5 M
451 331.5 L
S
GR
GS
1 0 1 RC
1 LJ
N
447.5 335 M
447.5 328 L
S
GR
GS
1 0 1 RC
1 LJ
N
445 334 M
450 329 L
S
GR
GS
1 0 1 RC
1 LJ
N
445 329 M
450 334 L
S
GR
GS
[1 0 0 1 465.5 346.5] CT
/Helvetica 12.6 F
GS
[1 0 0 1 0 0] CT
0 5 moveto 
1 -1 scale
(p = 4) t 
GR
GR
GS
0 1 0 RC
1 LJ
0.5 LW
N
432.5 346.5 M
462.5 346.5 L
S
GR
GS
0 1 0 RC
1 LJ
N
445 349 M
450 344 L
S
GR
GS
0 1 0 RC
1 LJ
N
445 344 M
450 349 L
S
GR
GS
0.149 GC
10.0 ML
0.5 LW
N
428.5 356 M
428.5 275 L
498.5 275 L
498.5 356 L
cp
S
GR
%%Trailer
%%Pages: 1
%%EOF
