%!PS-Adobe-3.0 EPSF-3.0
%%Creator: (MATLAB, The Mathworks, Inc. Version 9.0.0.341360 \(R2016a\). Operating System: Mac OS X)
%%Title: ./SWE1D_LiftNonconservativePDE_SolnP4.eps
%%CreationDate: 2016-06-21T22:50:29
%%Pages: (atend)
%%BoundingBox:    22     2   519   393
%%LanguageLevel: 2
%%EndComments
%%BeginProlog
%%BeginResource: procset (Apache XML Graphics Std ProcSet) 1.2 0
%%Version: 1.2 0
%%Copyright: (Copyright 2001-2003,2010 The Apache Software Foundation. License terms: http://www.apache.org/licenses/LICENSE-2.0)
/bd{bind def}bind def
/ld{load def}bd
/GR/grestore ld
/M/moveto ld
/LJ/setlinejoin ld
/C/curveto ld
/f/fill ld
/LW/setlinewidth ld
/GC/setgray ld
/t/show ld
/N/newpath ld
/CT/concat ld
/cp/closepath ld
/S/stroke ld
/L/lineto ld
/CC/setcmykcolor ld
/A/ashow ld
/GS/gsave ld
/RC/setrgbcolor ld
/RM/rmoveto ld
/ML/setmiterlimit ld
/re {4 2 roll M
1 index 0 rlineto
0 exch rlineto
neg 0 rlineto
cp } bd
/_ctm matrix def
/_tm matrix def
/BT { _ctm currentmatrix pop matrix _tm copy pop 0 0 moveto } bd
/ET { _ctm setmatrix } bd
/iTm { _ctm setmatrix _tm concat } bd
/Tm { _tm astore pop iTm 0 0 moveto } bd
/ux 0.0 def
/uy 0.0 def
/F {
  /Tp exch def
  /Tf exch def
  Tf findfont Tp scalefont setfont
  /cf Tf def  /cs Tp def
} bd
/ULS {currentpoint /uy exch def /ux exch def} bd
/ULE {
  /Tcx currentpoint pop def
  gsave
  newpath
  cf findfont cs scalefont dup
  /FontMatrix get 0 get /Ts exch def /FontInfo get dup
  /UnderlinePosition get Ts mul /To exch def
  /UnderlineThickness get Ts mul /Tt exch def
  ux uy To add moveto  Tcx uy To add lineto
  Tt setlinewidth stroke
  grestore
} bd
/OLE {
  /Tcx currentpoint pop def
  gsave
  newpath
  cf findfont cs scalefont dup
  /FontMatrix get 0 get /Ts exch def /FontInfo get dup
  /UnderlinePosition get Ts mul /To exch def
  /UnderlineThickness get Ts mul /Tt exch def
  ux uy To add cs add moveto Tcx uy To add cs add lineto
  Tt setlinewidth stroke
  grestore
} bd
/SOE {
  /Tcx currentpoint pop def
  gsave
  newpath
  cf findfont cs scalefont dup
  /FontMatrix get 0 get /Ts exch def /FontInfo get dup
  /UnderlinePosition get Ts mul /To exch def
  /UnderlineThickness get Ts mul /Tt exch def
  ux uy To add cs 10 mul 26 idiv add moveto Tcx uy To add cs 10 mul 26 idiv add lineto
  Tt setlinewidth stroke
  grestore
} bd
/QT {
/Y22 exch store
/X22 exch store
/Y21 exch store
/X21 exch store
currentpoint
/Y21 load 2 mul add 3 div exch
/X21 load 2 mul add 3 div exch
/X21 load 2 mul /X22 load add 3 div
/Y21 load 2 mul /Y22 load add 3 div
/X22 load /Y22 load curveto
} bd
/SSPD {
dup length /d exch dict def
{
/v exch def
/k exch def
currentpagedevice k known {
/cpdv currentpagedevice k get def
v cpdv ne {
/upd false def
/nullv v type /nulltype eq def
/nullcpdv cpdv type /nulltype eq def
nullv nullcpdv or
{
/upd true def
} {
/sametype v type cpdv type eq def
sametype {
v type /arraytype eq {
/vlen v length def
/cpdvlen cpdv length def
vlen cpdvlen eq {
0 1 vlen 1 sub {
/i exch def
/obj v i get def
/cpdobj cpdv i get def
obj cpdobj ne {
/upd true def
exit
} if
} for
} {
/upd true def
} ifelse
} {
v type /dicttype eq {
v {
/dv exch def
/dk exch def
/cpddv cpdv dk get def
dv cpddv ne {
/upd true def
exit
} if
} forall
} {
/upd true def
} ifelse
} ifelse
} if
} ifelse
upd true eq {
d k v put
} if
} if
} if
} forall
d length 0 gt {
d setpagedevice
} if
} bd
%%EndResource
%%BeginResource: procset (Apache XML Graphics EPS ProcSet) 1.0 0
%%Version: 1.0 0
%%Copyright: (Copyright 2002-2003 The Apache Software Foundation. License terms: http://www.apache.org/licenses/LICENSE-2.0)
/BeginEPSF { %def
/b4_Inc_state save def         % Save state for cleanup
/dict_count countdictstack def % Count objects on dict stack
/op_count count 1 sub def      % Count objects on operand stack
userdict begin                 % Push userdict on dict stack
/showpage { } def              % Redefine showpage, { } = null proc
0 setgray 0 setlinecap         % Prepare graphics state
1 setlinewidth 0 setlinejoin
10 setmiterlimit [ ] 0 setdash newpath
/languagelevel where           % If level not equal to 1 then
{pop languagelevel             % set strokeadjust and
1 ne                           % overprint to their defaults.
{false setstrokeadjust false setoverprint
} if
} if
} bd
/EndEPSF { %def
count op_count sub {pop} repeat            % Clean up stacks
countdictstack dict_count sub {end} repeat
b4_Inc_state restore
} bd
%%EndResource
%FOPBeginFontDict
%%IncludeResource: font Courier-Bold
%%IncludeResource: font Helvetica
%%IncludeResource: font Courier-BoldOblique
%%IncludeResource: font Courier-Oblique
%%IncludeResource: font Times-Roman
%%IncludeResource: font Helvetica-BoldOblique
%%IncludeResource: font Helvetica-Bold
%%IncludeResource: font Helvetica-Oblique
%%IncludeResource: font Times-BoldItalic
%%IncludeResource: font Courier
%%IncludeResource: font Times-Italic
%%IncludeResource: font Times-Bold
%%IncludeResource: font Symbol
%%IncludeResource: font ZapfDingbats
%FOPEndFontDict
%%BeginResource: encoding WinAnsiEncoding
/WinAnsiEncoding [
/.notdef /.notdef /.notdef /.notdef /.notdef
/.notdef /.notdef /.notdef /.notdef /.notdef
/.notdef /.notdef /.notdef /.notdef /.notdef
/.notdef /.notdef /.notdef /.notdef /.notdef
/.notdef /.notdef /.notdef /.notdef /.notdef
/.notdef /.notdef /.notdef /.notdef /.notdef
/.notdef /.notdef /space /exclam /quotedbl
/numbersign /dollar /percent /ampersand /quotesingle
/parenleft /parenright /asterisk /plus /comma
/hyphen /period /slash /zero /one
/two /three /four /five /six
/seven /eight /nine /colon /semicolon
/less /equal /greater /question /at
/A /B /C /D /E
/F /G /H /I /J
/K /L /M /N /O
/P /Q /R /S /T
/U /V /W /X /Y
/Z /bracketleft /backslash /bracketright /asciicircum
/underscore /quoteleft /a /b /c
/d /e /f /g /h
/i /j /k /l /m
/n /o /p /q /r
/s /t /u /v /w
/x /y /z /braceleft /bar
/braceright /asciitilde /bullet /Euro /bullet
/quotesinglbase /florin /quotedblbase /ellipsis /dagger
/daggerdbl /circumflex /perthousand /Scaron /guilsinglleft
/OE /bullet /Zcaron /bullet /bullet
/quoteleft /quoteright /quotedblleft /quotedblright /bullet
/endash /emdash /asciitilde /trademark /scaron
/guilsinglright /oe /bullet /zcaron /Ydieresis
/space /exclamdown /cent /sterling /currency
/yen /brokenbar /section /dieresis /copyright
/ordfeminine /guillemotleft /logicalnot /sfthyphen /registered
/macron /degree /plusminus /twosuperior /threesuperior
/acute /mu /paragraph /middot /cedilla
/onesuperior /ordmasculine /guillemotright /onequarter /onehalf
/threequarters /questiondown /Agrave /Aacute /Acircumflex
/Atilde /Adieresis /Aring /AE /Ccedilla
/Egrave /Eacute /Ecircumflex /Edieresis /Igrave
/Iacute /Icircumflex /Idieresis /Eth /Ntilde
/Ograve /Oacute /Ocircumflex /Otilde /Odieresis
/multiply /Oslash /Ugrave /Uacute /Ucircumflex
/Udieresis /Yacute /Thorn /germandbls /agrave
/aacute /acircumflex /atilde /adieresis /aring
/ae /ccedilla /egrave /eacute /ecircumflex
/edieresis /igrave /iacute /icircumflex /idieresis
/eth /ntilde /ograve /oacute /ocircumflex
/otilde /odieresis /divide /oslash /ugrave
/uacute /ucircumflex /udieresis /yacute /thorn
/ydieresis
] def
%%EndResource
%FOPBeginFontReencode
/Courier-Bold findfont
dup length dict begin
  {1 index /FID ne {def} {pop pop} ifelse} forall
  /Encoding WinAnsiEncoding def
  currentdict
end
/Courier-Bold exch definefont pop
/Helvetica findfont
dup length dict begin
  {1 index /FID ne {def} {pop pop} ifelse} forall
  /Encoding WinAnsiEncoding def
  currentdict
end
/Helvetica exch definefont pop
/Courier-BoldOblique findfont
dup length dict begin
  {1 index /FID ne {def} {pop pop} ifelse} forall
  /Encoding WinAnsiEncoding def
  currentdict
end
/Courier-BoldOblique exch definefont pop
/Courier-Oblique findfont
dup length dict begin
  {1 index /FID ne {def} {pop pop} ifelse} forall
  /Encoding WinAnsiEncoding def
  currentdict
end
/Courier-Oblique exch definefont pop
/Times-Roman findfont
dup length dict begin
  {1 index /FID ne {def} {pop pop} ifelse} forall
  /Encoding WinAnsiEncoding def
  currentdict
end
/Times-Roman exch definefont pop
/Helvetica-BoldOblique findfont
dup length dict begin
  {1 index /FID ne {def} {pop pop} ifelse} forall
  /Encoding WinAnsiEncoding def
  currentdict
end
/Helvetica-BoldOblique exch definefont pop
/Helvetica-Bold findfont
dup length dict begin
  {1 index /FID ne {def} {pop pop} ifelse} forall
  /Encoding WinAnsiEncoding def
  currentdict
end
/Helvetica-Bold exch definefont pop
/Helvetica-Oblique findfont
dup length dict begin
  {1 index /FID ne {def} {pop pop} ifelse} forall
  /Encoding WinAnsiEncoding def
  currentdict
end
/Helvetica-Oblique exch definefont pop
/Times-BoldItalic findfont
dup length dict begin
  {1 index /FID ne {def} {pop pop} ifelse} forall
  /Encoding WinAnsiEncoding def
  currentdict
end
/Times-BoldItalic exch definefont pop
/Courier findfont
dup length dict begin
  {1 index /FID ne {def} {pop pop} ifelse} forall
  /Encoding WinAnsiEncoding def
  currentdict
end
/Courier exch definefont pop
/Times-Italic findfont
dup length dict begin
  {1 index /FID ne {def} {pop pop} ifelse} forall
  /Encoding WinAnsiEncoding def
  currentdict
end
/Times-Italic exch definefont pop
/Times-Bold findfont
dup length dict begin
  {1 index /FID ne {def} {pop pop} ifelse} forall
  /Encoding WinAnsiEncoding def
  currentdict
end
/Times-Bold exch definefont pop
%FOPEndFontReencode
%%EndProlog
%%Page: 1 1
%%PageBoundingBox: 0 0 560 420
%%BeginPageSetup
[1 0 0 -1 0 420] CT
%%EndPageSetup
GS
1 GC
N
0 0 560 420 re
f
GR
GS
1 GC
N
0 0 560 420 re
f
GR
GS
1 GC
N
73 372.5 M
507 372.5 L
507 31.5 L
73 31.5 L
cp
f
GR
GS
0.873 GC
1 LJ
0.5 LW
N
73 372.5 M
73 31.5 L
S
GR
GS
0.873 GC
1 LJ
0.5 LW
N
217.667 372.5 M
217.667 31.5 L
S
GR
GS
0.873 GC
1 LJ
0.5 LW
N
362.333 372.5 M
362.333 31.5 L
S
GR
GS
0.873 GC
1 LJ
0.5 LW
N
507 372.5 M
507 31.5 L
S
GR
GS
0.873 GC
1 LJ
0.5 LW
N
507 372.5 M
73 372.5 L
S
GR
GS
0.873 GC
1 LJ
0.5 LW
N
507 334.611 M
73 334.611 L
S
GR
GS
0.873 GC
1 LJ
0.5 LW
N
507 296.722 M
73 296.722 L
S
GR
GS
0.873 GC
1 LJ
0.5 LW
N
507 258.833 M
73 258.833 L
S
GR
GS
0.873 GC
1 LJ
0.5 LW
N
507 220.944 M
73 220.944 L
S
GR
GS
0.873 GC
1 LJ
0.5 LW
N
507 183.056 M
73 183.056 L
S
GR
GS
0.873 GC
1 LJ
0.5 LW
N
507 145.167 M
73 145.167 L
S
GR
GS
0.873 GC
1 LJ
0.5 LW
N
507 107.278 M
73 107.278 L
S
GR
GS
0.873 GC
1 LJ
0.5 LW
N
507 69.389 M
73 69.389 L
S
GR
GS
0.873 GC
1 LJ
0.5 LW
N
507 31.5 M
73 31.5 L
S
GR
GS
0.149 GC
2 setlinecap
1 LJ
0.5 LW
N
73 372.5 M
507 372.5 L
S
GR
GS
0.149 GC
2 setlinecap
1 LJ
0.5 LW
N
73 372.5 M
73 368.16 L
S
GR
GS
0.149 GC
2 setlinecap
1 LJ
0.5 LW
N
217.667 372.5 M
217.667 368.16 L
S
GR
GS
0.149 GC
2 setlinecap
1 LJ
0.5 LW
N
362.333 372.5 M
362.333 368.16 L
S
GR
GS
0.149 GC
2 setlinecap
1 LJ
0.5 LW
N
507 372.5 M
507 368.16 L
S
GR
GS
[1 0 0 1 73 377.29999] CT
0.149 GC
/Helvetica 14 F
GS
[1 0 0 1 0 0] CT
-7 14 moveto 
1 -1 scale
(-2) t 
GR
GR
GS
[1 0 0 1 217.66667 377.29999] CT
0.149 GC
/Helvetica 14 F
GS
[1 0 0 1 0 0] CT
-12.5 14 moveto 
1 -1 scale
(-1.5) t 
GR
GR
GS
[1 0 0 1 362.33334 377.29999] CT
0.149 GC
/Helvetica 14 F
GS
[1 0 0 1 0 0] CT
-7 14 moveto 
1 -1 scale
(-1) t 
GR
GR
GS
[1 0 0 1 507 377.29999] CT
0.149 GC
/Helvetica 14 F
GS
[1 0 0 1 0 0] CT
-12.5 14 moveto 
1 -1 scale
(-0.5) t 
GR
GR
GS
[1 0 0 1 241 410] CT
0.149 GC
/Helvetica 15 F
GS
[1 0 0 1 0 0] CT
0 0 moveto 
1 -1 scale
(log) t 
GR
GR
GS
[1 0 0 1 262 417] CT
0.149 GC
/Helvetica 12 F
GS
[1 0 0 1 0 0] CT
0 0 moveto 
1 -1 scale
(10) t 
GR
GR
GS
[1 0 0 1 276 410] CT
0.149 GC
/Helvetica 15 F
GS
[1 0 0 1 0 0] CT
0 0 moveto 
1 -1 scale
(\(1/nElem\)) t 
GR
GR
GS
0.149 GC
2 setlinecap
1 LJ
0.5 LW
N
73 372.5 M
73 31.5 L
S
GR
GS
0.149 GC
2 setlinecap
1 LJ
0.5 LW
N
73 372.5 M
77.34 372.5 L
S
GR
GS
0.149 GC
2 setlinecap
1 LJ
0.5 LW
N
73 334.611 M
77.34 334.611 L
S
GR
GS
0.149 GC
2 setlinecap
1 LJ
0.5 LW
N
73 296.722 M
77.34 296.722 L
S
GR
GS
0.149 GC
2 setlinecap
1 LJ
0.5 LW
N
73 258.833 M
77.34 258.833 L
S
GR
GS
0.149 GC
2 setlinecap
1 LJ
0.5 LW
N
73 220.944 M
77.34 220.944 L
S
GR
GS
0.149 GC
2 setlinecap
1 LJ
0.5 LW
N
73 183.056 M
77.34 183.056 L
S
GR
GS
0.149 GC
2 setlinecap
1 LJ
0.5 LW
N
73 145.167 M
77.34 145.167 L
S
GR
GS
0.149 GC
2 setlinecap
1 LJ
0.5 LW
N
73 107.278 M
77.34 107.278 L
S
GR
GS
0.149 GC
2 setlinecap
1 LJ
0.5 LW
N
73 69.389 M
77.34 69.389 L
S
GR
GS
0.149 GC
2 setlinecap
1 LJ
0.5 LW
N
73 31.5 M
77.34 31.5 L
S
GR
GS
[1 0 0 1 68.2 372.5] CT
0.149 GC
/Helvetica 14 F
GS
[1 0 0 1 0 0] CT
-22 5.5 moveto 
1 -1 scale
(-18) t 
GR
GR
GS
[1 0 0 1 68.2 334.61111] CT
0.149 GC
/Helvetica 14 F
GS
[1 0 0 1 0 0] CT
-22 5.5 moveto 
1 -1 scale
(-16) t 
GR
GR
GS
[1 0 0 1 68.2 296.72223] CT
0.149 GC
/Helvetica 14 F
GS
[1 0 0 1 0 0] CT
-22 5.5 moveto 
1 -1 scale
(-14) t 
GR
GR
GS
[1 0 0 1 68.2 258.83334] CT
0.149 GC
/Helvetica 14 F
GS
[1 0 0 1 0 0] CT
-22 5.5 moveto 
1 -1 scale
(-12) t 
GR
GR
GS
[1 0 0 1 68.2 220.94444] CT
0.149 GC
/Helvetica 14 F
GS
[1 0 0 1 0 0] CT
-22 5.5 moveto 
1 -1 scale
(-10) t 
GR
GR
GS
[1 0 0 1 68.2 183.05556] CT
0.149 GC
/Helvetica 14 F
GS
[1 0 0 1 0 0] CT
-14 5.5 moveto 
1 -1 scale
(-8) t 
GR
GR
GS
[1 0 0 1 68.2 145.16667] CT
0.149 GC
/Helvetica 14 F
GS
[1 0 0 1 0 0] CT
-14 5.5 moveto 
1 -1 scale
(-6) t 
GR
GR
GS
[1 0 0 1 68.2 107.27778] CT
0.149 GC
/Helvetica 14 F
GS
[1 0 0 1 0 0] CT
-14 5.5 moveto 
1 -1 scale
(-4) t 
GR
GR
GS
[1 0 0 1 68.2 69.38889] CT
0.149 GC
/Helvetica 14 F
GS
[1 0 0 1 0 0] CT
-14 5.5 moveto 
1 -1 scale
(-2) t 
GR
GR
GS
[1 0 0 1 68.2 31.5] CT
0.149 GC
/Helvetica 14 F
GS
[1 0 0 1 0 0] CT
-8 5.5 moveto 
1 -1 scale
(0) t 
GR
GR
GS
[0 -1 1 0 34 279] CT
0.149 GC
/Helvetica 15 F
GS
[1 0 0 1 0 0] CT
0 0 moveto 
1 -1 scale
(log) t 
GR
GR
GS
[0 -1 1 0 41 258] CT
0.149 GC
/Helvetica 12 F
GS
[1 0 0 1 0 0] CT
0 0 moveto 
1 -1 scale
(10) t 
GR
GR
GS
[0 -1 1 0 34 244] CT
0.149 GC
/Helvetica 15 F
GS
[1 0 0 1 0 0] CT
0 0 moveto 
1 -1 scale
(\(Solution L) t 
GR
GR
GS
[0 -1 1 0 41 172] CT
0.149 GC
/Helvetica 12 F
GS
[1 0 0 1 0 0] CT
0 0 moveto 
1 -1 scale
(2) t 
GR
GR
GS
[0 -1 1 0 34 165] CT
0.149 GC
/Helvetica 15 F
GS
[1 0 0 1 0 0] CT
0 0 moveto 
1 -1 scale
( error\)) t 
GR
GR
GS
1 0 0 RC
1 LJ
0.5 LW
N
477.471 99.986 M
390.373 105.803 L
303.275 111.637 L
216.177 117.443 L
129.079 123.215 L
S
GR
GS
1 0 0 RC
1 LJ
N
474 99.5 M
481 99.5 L
S
GR
GS
1 0 0 RC
1 LJ
N
477.5 103 M
477.5 96 L
S
GR
GS
1 0 0 RC
1 LJ
N
387 105.5 M
394 105.5 L
S
GR
GS
1 0 0 RC
1 LJ
N
390.5 109 M
390.5 102 L
S
GR
GS
1 0 0 RC
1 LJ
N
300 111.5 M
307 111.5 L
S
GR
GS
1 0 0 RC
1 LJ
N
303.5 115 M
303.5 108 L
S
GR
GS
1 0 0 RC
1 LJ
N
213 117.5 M
220 117.5 L
S
GR
GS
1 0 0 RC
1 LJ
N
216.5 121 M
216.5 114 L
S
GR
GS
1 0 0 RC
1 LJ
N
126 123.5 M
133 123.5 L
S
GR
GS
1 0 0 RC
1 LJ
N
129.5 127 M
129.5 120 L
S
GR
GS
0 0 1 RC
1 LJ
0.5 LW
N
477.471 130.12 M
390.373 141.574 L
303.275 153.018 L
216.177 164.445 L
129.079 175.863 L
S
GR
GS
0 0 1 RC
1 LJ
N
480.5 130.5 M
479.621 128.379 L
477.5 127.5 L
475.379 128.379 L
474.5 130.5 L
475.379 132.621 L
477.5 133.5 L
479.621 132.621 L
cp
S
GR
GS
0 0 1 RC
1 LJ
N
393.5 141.5 M
392.621 139.379 L
390.5 138.5 L
388.379 139.379 L
387.5 141.5 L
388.379 143.621 L
390.5 144.5 L
392.621 143.621 L
cp
S
GR
GS
0 0 1 RC
1 LJ
N
306.5 153.5 M
305.621 151.379 L
303.5 150.5 L
301.379 151.379 L
300.5 153.5 L
301.379 155.621 L
303.5 156.5 L
305.621 155.621 L
cp
S
GR
GS
0 0 1 RC
1 LJ
N
219.5 164.5 M
218.621 162.379 L
216.5 161.5 L
214.379 162.379 L
213.5 164.5 L
214.379 166.621 L
216.5 167.5 L
218.621 166.621 L
cp
S
GR
GS
0 0 1 RC
1 LJ
N
132.5 175.5 M
131.621 173.379 L
129.5 172.5 L
127.379 173.379 L
126.5 175.5 L
127.379 177.621 L
129.5 178.5 L
131.621 177.621 L
cp
S
GR
GS
1 LJ
0.5 LW
N
477.471 169.091 M
390.373 186.743 L
303.275 204.29 L
216.177 221.671 L
129.079 238.931 L
S
GR
GS
10.0 ML
N
477.5 173.499 M
480.5 169.5 L
477.5 165.501 L
474.5 169.5 L
cp
S
GR
GS
10.0 ML
N
390.5 190.499 M
393.5 186.5 L
390.5 182.501 L
387.5 186.5 L
cp
S
GR
GS
10.0 ML
N
303.5 208.499 M
306.5 204.5 L
303.5 200.501 L
300.5 204.5 L
cp
S
GR
GS
10.0 ML
N
216.5 225.499 M
219.5 221.5 L
216.5 217.501 L
213.5 221.5 L
cp
S
GR
GS
10.0 ML
N
129.5 242.499 M
132.5 238.5 L
129.5 234.501 L
126.5 238.5 L
cp
S
GR
GS
1 0 1 RC
1 LJ
0.5 LW
N
477.471 205.333 M
390.373 228.122 L
303.275 250.928 L
216.177 273.739 L
129.079 296.546 L
S
GR
GS
1 0 1 RC
1 LJ
N
474 205.5 M
481 205.5 L
S
GR
GS
1 0 1 RC
1 LJ
N
477.5 209 M
477.5 202 L
S
GR
GS
1 0 1 RC
1 LJ
N
475 208 M
480 203 L
S
GR
GS
1 0 1 RC
1 LJ
N
475 203 M
480 208 L
S
GR
GS
1 0 1 RC
1 LJ
N
387 228.5 M
394 228.5 L
S
GR
GS
1 0 1 RC
1 LJ
N
390.5 232 M
390.5 225 L
S
GR
GS
1 0 1 RC
1 LJ
N
388 231 M
393 226 L
S
GR
GS
1 0 1 RC
1 LJ
N
388 226 M
393 231 L
S
GR
GS
1 0 1 RC
1 LJ
N
300 250.5 M
307 250.5 L
S
GR
GS
1 0 1 RC
1 LJ
N
303.5 254 M
303.5 247 L
S
GR
GS
1 0 1 RC
1 LJ
N
301 253 M
306 248 L
S
GR
GS
1 0 1 RC
1 LJ
N
301 248 M
306 253 L
S
GR
GS
1 0 1 RC
1 LJ
N
213 273.5 M
220 273.5 L
S
GR
GS
1 0 1 RC
1 LJ
N
216.5 277 M
216.5 270 L
S
GR
GS
1 0 1 RC
1 LJ
N
214 276 M
219 271 L
S
GR
GS
1 0 1 RC
1 LJ
N
214 271 M
219 276 L
S
GR
GS
1 0 1 RC
1 LJ
N
126 296.5 M
133 296.5 L
S
GR
GS
1 0 1 RC
1 LJ
N
129.5 300 M
129.5 293 L
S
GR
GS
1 0 1 RC
1 LJ
N
127 299 M
132 294 L
S
GR
GS
1 0 1 RC
1 LJ
N
127 294 M
132 299 L
S
GR
GS
0 1 0 RC
1 LJ
0.5 LW
N
477.471 363.062 M
390.373 363.51 L
303.275 363.721 L
216.177 362.345 L
129.079 362.39 L
S
GR
GS
0 1 0 RC
1 LJ
N
475 366 M
480 361 L
S
GR
GS
0 1 0 RC
1 LJ
N
475 361 M
480 366 L
S
GR
GS
0 1 0 RC
1 LJ
N
388 366 M
393 361 L
S
GR
GS
0 1 0 RC
1 LJ
N
388 361 M
393 366 L
S
GR
GS
0 1 0 RC
1 LJ
N
301 366 M
306 361 L
S
GR
GS
0 1 0 RC
1 LJ
N
301 361 M
306 366 L
S
GR
GS
0 1 0 RC
1 LJ
N
214 365 M
219 360 L
S
GR
GS
0 1 0 RC
1 LJ
N
214 360 M
219 365 L
S
GR
GS
0 1 0 RC
1 LJ
N
127 365 M
132 360 L
S
GR
GS
0 1 0 RC
1 LJ
N
127 360 M
132 365 L
S
GR
GS
1 0 0 RC
[10 6] 0 setdash
2 LJ
0.5 LW
N
477.471 97.42 M
390.373 99.858 L
303.275 100.958 L
216.177 101.475 L
129.079 101.735 L
S
GR
GS
1 0 0 RC
1 LJ
N
474 97.5 M
481 97.5 L
S
GR
GS
1 0 0 RC
1 LJ
N
477.5 101 M
477.5 94 L
S
GR
GS
1 0 0 RC
1 LJ
N
387 99.5 M
394 99.5 L
S
GR
GS
1 0 0 RC
1 LJ
N
390.5 103 M
390.5 96 L
S
GR
GS
1 0 0 RC
1 LJ
N
300 100.5 M
307 100.5 L
S
GR
GS
1 0 0 RC
1 LJ
N
303.5 104 M
303.5 97 L
S
GR
GS
1 0 0 RC
1 LJ
N
213 101.5 M
220 101.5 L
S
GR
GS
1 0 0 RC
1 LJ
N
216.5 105 M
216.5 98 L
S
GR
GS
1 0 0 RC
1 LJ
N
126 101.5 M
133 101.5 L
S
GR
GS
1 0 0 RC
1 LJ
N
129.5 105 M
129.5 98 L
S
GR
GS
0 0 1 RC
[10 6] 0 setdash
2 LJ
0.5 LW
N
477.471 123.724 M
390.373 131.636 L
303.275 138.516 L
216.177 144.75 L
129.079 150.687 L
S
GR
GS
0 0 1 RC
1 LJ
N
480.5 123.5 M
479.621 121.379 L
477.5 120.5 L
475.379 121.379 L
474.5 123.5 L
475.379 125.621 L
477.5 126.5 L
479.621 125.621 L
cp
S
GR
GS
0 0 1 RC
1 LJ
N
393.5 131.5 M
392.621 129.379 L
390.5 128.5 L
388.379 129.379 L
387.5 131.5 L
388.379 133.621 L
390.5 134.5 L
392.621 133.621 L
cp
S
GR
GS
0 0 1 RC
1 LJ
N
306.5 138.5 M
305.621 136.379 L
303.5 135.5 L
301.379 136.379 L
300.5 138.5 L
301.379 140.621 L
303.5 141.5 L
305.621 140.621 L
cp
S
GR
GS
0 0 1 RC
1 LJ
N
219.5 144.5 M
218.621 142.379 L
216.5 141.5 L
214.379 142.379 L
213.5 144.5 L
214.379 146.621 L
216.5 147.5 L
218.621 146.621 L
cp
S
GR
GS
0 0 1 RC
1 LJ
N
132.5 150.5 M
131.621 148.379 L
129.5 147.5 L
127.379 148.379 L
126.5 150.5 L
127.379 152.621 L
129.5 153.5 L
131.621 152.621 L
cp
S
GR
GS
[10 6] 0 setdash
2 LJ
0.5 LW
N
477.471 164.35 M
390.373 178.904 L
303.275 191.886 L
216.177 203.966 L
129.079 215.659 L
S
GR
GS
10.0 ML
N
477.5 168.499 M
480.5 164.5 L
477.5 160.501 L
474.5 164.5 L
cp
S
GR
GS
10.0 ML
N
390.5 182.499 M
393.5 178.5 L
390.5 174.501 L
387.5 178.5 L
cp
S
GR
GS
10.0 ML
N
303.5 195.499 M
306.5 191.5 L
303.5 187.501 L
300.5 191.5 L
cp
S
GR
GS
10.0 ML
N
216.5 207.499 M
219.5 203.5 L
216.5 199.501 L
213.5 203.5 L
cp
S
GR
GS
10.0 ML
N
129.5 219.499 M
132.5 215.5 L
129.5 211.501 L
126.5 215.5 L
cp
S
GR
GS
1 0 1 RC
[10 6] 0 setdash
2 LJ
0.5 LW
N
477.471 196.711 M
390.373 215.379 L
303.275 233.314 L
216.177 250.813 L
129.079 268.102 L
S
GR
GS
1 0 1 RC
1 LJ
N
474 196.5 M
481 196.5 L
S
GR
GS
1 0 1 RC
1 LJ
N
477.5 200 M
477.5 193 L
S
GR
GS
1 0 1 RC
1 LJ
N
475 199 M
480 194 L
S
GR
GS
1 0 1 RC
1 LJ
N
475 194 M
480 199 L
S
GR
GS
1 0 1 RC
1 LJ
N
387 215.5 M
394 215.5 L
S
GR
GS
1 0 1 RC
1 LJ
N
390.5 219 M
390.5 212 L
S
GR
GS
1 0 1 RC
1 LJ
N
388 218 M
393 213 L
S
GR
GS
1 0 1 RC
1 LJ
N
388 213 M
393 218 L
S
GR
GS
1 0 1 RC
1 LJ
N
300 233.5 M
307 233.5 L
S
GR
GS
1 0 1 RC
1 LJ
N
303.5 237 M
303.5 230 L
S
GR
GS
1 0 1 RC
1 LJ
N
301 236 M
306 231 L
S
GR
GS
1 0 1 RC
1 LJ
N
301 231 M
306 236 L
S
GR
GS
1 0 1 RC
1 LJ
N
213 250.5 M
220 250.5 L
S
GR
GS
1 0 1 RC
1 LJ
N
216.5 254 M
216.5 247 L
S
GR
GS
1 0 1 RC
1 LJ
N
214 253 M
219 248 L
S
GR
GS
1 0 1 RC
1 LJ
N
214 248 M
219 253 L
S
GR
GS
1 0 1 RC
1 LJ
N
126 268.5 M
133 268.5 L
S
GR
GS
1 0 1 RC
1 LJ
N
129.5 272 M
129.5 265 L
S
GR
GS
1 0 1 RC
1 LJ
N
127 271 M
132 266 L
S
GR
GS
1 0 1 RC
1 LJ
N
127 266 M
132 271 L
S
GR
GS
0 1 0 RC
[10 6] 0 setdash
2 LJ
0.5 LW
N
477.471 363.062 M
390.373 363.51 L
303.275 363.721 L
216.177 362.345 L
129.079 362.39 L
S
GR
GS
0 1 0 RC
1 LJ
N
475 366 M
480 361 L
S
GR
GS
0 1 0 RC
1 LJ
N
475 361 M
480 366 L
S
GR
GS
0 1 0 RC
1 LJ
N
388 366 M
393 361 L
S
GR
GS
0 1 0 RC
1 LJ
N
388 361 M
393 366 L
S
GR
GS
0 1 0 RC
1 LJ
N
301 366 M
306 361 L
S
GR
GS
0 1 0 RC
1 LJ
N
301 361 M
306 366 L
S
GR
GS
0 1 0 RC
1 LJ
N
214 365 M
219 360 L
S
GR
GS
0 1 0 RC
1 LJ
N
214 360 M
219 365 L
S
GR
GS
0 1 0 RC
1 LJ
N
127 365 M
132 360 L
S
GR
GS
0 1 0 RC
1 LJ
N
127 360 M
132 365 L
S
GR
GS
1 0 0 RC
[8 3 2 3] 0 setdash
2 LJ
0.5 LW
N
477.471 99.574 M
390.373 105.688 L
303.275 111.704 L
216.177 117.613 L
129.079 123.438 L
S
GR
GS
1 0 0 RC
1 LJ
N
474 99.5 M
481 99.5 L
S
GR
GS
1 0 0 RC
1 LJ
N
477.5 103 M
477.5 96 L
S
GR
GS
1 0 0 RC
1 LJ
N
387 105.5 M
394 105.5 L
S
GR
GS
1 0 0 RC
1 LJ
N
390.5 109 M
390.5 102 L
S
GR
GS
1 0 0 RC
1 LJ
N
300 111.5 M
307 111.5 L
S
GR
GS
1 0 0 RC
1 LJ
N
303.5 115 M
303.5 108 L
S
GR
GS
1 0 0 RC
1 LJ
N
213 117.5 M
220 117.5 L
S
GR
GS
1 0 0 RC
1 LJ
N
216.5 121 M
216.5 114 L
S
GR
GS
1 0 0 RC
1 LJ
N
126 123.5 M
133 123.5 L
S
GR
GS
1 0 0 RC
1 LJ
N
129.5 127 M
129.5 120 L
S
GR
GS
0 0 1 RC
[8 3 2 3] 0 setdash
2 LJ
0.5 LW
N
477.471 128.135 M
390.373 139.28 L
303.275 150.588 L
216.177 161.952 L
129.079 173.338 L
S
GR
GS
0 0 1 RC
1 LJ
N
480.5 128.5 M
479.621 126.379 L
477.5 125.5 L
475.379 126.379 L
474.5 128.5 L
475.379 130.621 L
477.5 131.5 L
479.621 130.621 L
cp
S
GR
GS
0 0 1 RC
1 LJ
N
393.5 139.5 M
392.621 137.379 L
390.5 136.5 L
388.379 137.379 L
387.5 139.5 L
388.379 141.621 L
390.5 142.5 L
392.621 141.621 L
cp
S
GR
GS
0 0 1 RC
1 LJ
N
306.5 150.5 M
305.621 148.379 L
303.5 147.5 L
301.379 148.379 L
300.5 150.5 L
301.379 152.621 L
303.5 153.5 L
305.621 152.621 L
cp
S
GR
GS
0 0 1 RC
1 LJ
N
219.5 161.5 M
218.621 159.379 L
216.5 158.5 L
214.379 159.379 L
213.5 161.5 L
214.379 163.621 L
216.5 164.5 L
218.621 163.621 L
cp
S
GR
GS
0 0 1 RC
1 LJ
N
132.5 173.5 M
131.621 171.379 L
129.5 170.5 L
127.379 171.379 L
126.5 173.5 L
127.379 175.621 L
129.5 176.5 L
131.621 175.621 L
cp
S
GR
GS
[8 3 2 3] 0 setdash
2 LJ
0.5 LW
N
477.471 169.61 M
390.373 187.326 L
303.275 204.836 L
216.177 222.176 L
129.079 239.409 L
S
GR
GS
10.0 ML
N
477.5 173.499 M
480.5 169.5 L
477.5 165.501 L
474.5 169.5 L
cp
S
GR
GS
10.0 ML
N
390.5 191.499 M
393.5 187.5 L
390.5 183.501 L
387.5 187.5 L
cp
S
GR
GS
10.0 ML
N
303.5 208.499 M
306.5 204.5 L
303.5 200.501 L
300.5 204.5 L
cp
S
GR
GS
10.0 ML
N
216.5 226.499 M
219.5 222.5 L
216.5 218.501 L
213.5 222.5 L
cp
S
GR
GS
10.0 ML
N
129.5 243.499 M
132.5 239.5 L
129.5 235.501 L
126.5 239.5 L
cp
S
GR
GS
1 0 1 RC
[8 3 2 3] 0 setdash
2 LJ
0.5 LW
N
477.471 203.475 M
390.373 225.984 L
303.275 248.668 L
216.177 271.421 L
129.079 294.201 L
S
GR
GS
1 0 1 RC
1 LJ
N
474 203.5 M
481 203.5 L
S
GR
GS
1 0 1 RC
1 LJ
N
477.5 207 M
477.5 200 L
S
GR
GS
1 0 1 RC
1 LJ
N
475 206 M
480 201 L
S
GR
GS
1 0 1 RC
1 LJ
N
475 201 M
480 206 L
S
GR
GS
1 0 1 RC
1 LJ
N
387 225.5 M
394 225.5 L
S
GR
GS
1 0 1 RC
1 LJ
N
390.5 229 M
390.5 222 L
S
GR
GS
1 0 1 RC
1 LJ
N
388 228 M
393 223 L
S
GR
GS
1 0 1 RC
1 LJ
N
388 223 M
393 228 L
S
GR
GS
1 0 1 RC
1 LJ
N
300 248.5 M
307 248.5 L
S
GR
GS
1 0 1 RC
1 LJ
N
303.5 252 M
303.5 245 L
S
GR
GS
1 0 1 RC
1 LJ
N
301 251 M
306 246 L
S
GR
GS
1 0 1 RC
1 LJ
N
301 246 M
306 251 L
S
GR
GS
1 0 1 RC
1 LJ
N
213 271.5 M
220 271.5 L
S
GR
GS
1 0 1 RC
1 LJ
N
216.5 275 M
216.5 268 L
S
GR
GS
1 0 1 RC
1 LJ
N
214 274 M
219 269 L
S
GR
GS
1 0 1 RC
1 LJ
N
214 269 M
219 274 L
S
GR
GS
1 0 1 RC
1 LJ
N
126 294.5 M
133 294.5 L
S
GR
GS
1 0 1 RC
1 LJ
N
129.5 298 M
129.5 291 L
S
GR
GS
1 0 1 RC
1 LJ
N
127 297 M
132 292 L
S
GR
GS
1 0 1 RC
1 LJ
N
127 292 M
132 297 L
S
GR
GS
0 1 0 RC
[8 3 2 3] 0 setdash
2 LJ
0.5 LW
N
477.471 363.062 M
390.373 363.51 L
303.275 363.721 L
216.177 362.345 L
129.079 362.39 L
S
GR
GS
0 1 0 RC
1 LJ
N
475 366 M
480 361 L
S
GR
GS
0 1 0 RC
1 LJ
N
475 361 M
480 366 L
S
GR
GS
0 1 0 RC
1 LJ
N
388 366 M
393 361 L
S
GR
GS
0 1 0 RC
1 LJ
N
388 361 M
393 366 L
S
GR
GS
0 1 0 RC
1 LJ
N
301 366 M
306 361 L
S
GR
GS
0 1 0 RC
1 LJ
N
301 361 M
306 366 L
S
GR
GS
0 1 0 RC
1 LJ
N
214 365 M
219 360 L
S
GR
GS
0 1 0 RC
1 LJ
N
214 360 M
219 365 L
S
GR
GS
0 1 0 RC
1 LJ
N
127 365 M
132 360 L
S
GR
GS
0 1 0 RC
1 LJ
N
127 360 M
132 365 L
S
GR
GS
1 GC
N
428.5 356 M
428.5 275 L
498.5 275 L
498.5 356 L
cp
f
GR
GS
[1 0 0 1 465.5 284.5] CT
/Helvetica 12.6 F
GS
[1 0 0 1 0 0] CT
0 5 moveto 
1 -1 scale
(p = 0) t 
GR
GR
GS
1 0 0 RC
1 LJ
0.5 LW
N
432.5 284.5 M
462.5 284.5 L
S
GR
GS
1 0 0 RC
1 LJ
N
444 284.5 M
451 284.5 L
S
GR
GS
1 0 0 RC
1 LJ
N
447.5 288 M
447.5 281 L
S
GR
GS
[1 0 0 1 465.5 300] CT
/Helvetica 12.6 F
GS
[1 0 0 1 0 0] CT
0 5 moveto 
1 -1 scale
(p = 1) t 
GR
GR
GS
0 0 1 RC
1 LJ
0.5 LW
N
432.5 300 M
462.5 300 L
S
GR
GS
0 0 1 RC
1 LJ
N
450.5 299.5 M
449.621 297.379 L
447.5 296.5 L
445.379 297.379 L
444.5 299.5 L
445.379 301.621 L
447.5 302.5 L
449.621 301.621 L
cp
S
GR
GS
[1 0 0 1 465.5 315.5] CT
/Helvetica 12.6 F
GS
[1 0 0 1 0 0] CT
0 5 moveto 
1 -1 scale
(p = 2) t 
GR
GR
GS
1 LJ
0.5 LW
N
432.5 315.5 M
462.5 315.5 L
S
GR
GS
10.0 ML
N
447.5 319.499 M
450.5 315.5 L
447.5 311.501 L
444.5 315.5 L
cp
S
GR
GS
[1 0 0 1 465.5 331] CT
/Helvetica 12.6 F
GS
[1 0 0 1 0 0] CT
0 5 moveto 
1 -1 scale
(p = 3) t 
GR
GR
GS
1 0 1 RC
1 LJ
0.5 LW
N
432.5 331 M
462.5 331 L
S
GR
GS
1 0 1 RC
1 LJ
N
444 331.5 M
451 331.5 L
S
GR
GS
1 0 1 RC
1 LJ
N
447.5 335 M
447.5 328 L
S
GR
GS
1 0 1 RC
1 LJ
N
445 334 M
450 329 L
S
GR
GS
1 0 1 RC
1 LJ
N
445 329 M
450 334 L
S
GR
GS
[1 0 0 1 465.5 346.5] CT
/Helvetica 12.6 F
GS
[1 0 0 1 0 0] CT
0 5 moveto 
1 -1 scale
(p = 4) t 
GR
GR
GS
0 1 0 RC
1 LJ
0.5 LW
N
432.5 346.5 M
462.5 346.5 L
S
GR
GS
0 1 0 RC
1 LJ
N
445 349 M
450 344 L
S
GR
GS
0 1 0 RC
1 LJ
N
445 344 M
450 349 L
S
GR
GS
0.149 GC
10.0 ML
0.5 LW
N
428.5 356 M
428.5 275 L
498.5 275 L
498.5 356 L
cp
S
GR
%%Trailer
%%Pages: 1
%%EOF
