%!PS-Adobe-3.0 EPSF-3.0
%%Creator: (MATLAB, The Mathworks, Inc. Version 9.0.0.341360 \(R2016a\). Operating System: Mac OS X)
%%Title: ./SWE1D_LiftNonconservativePDE_SolnP5.eps
%%CreationDate: 2016-06-21T22:50:30
%%Pages: (atend)
%%BoundingBox:    22     2   519   393
%%LanguageLevel: 2
%%EndComments
%%BeginProlog
%%BeginResource: procset (Apache XML Graphics Std ProcSet) 1.2 0
%%Version: 1.2 0
%%Copyright: (Copyright 2001-2003,2010 The Apache Software Foundation. License terms: http://www.apache.org/licenses/LICENSE-2.0)
/bd{bind def}bind def
/ld{load def}bd
/GR/grestore ld
/M/moveto ld
/LJ/setlinejoin ld
/C/curveto ld
/f/fill ld
/LW/setlinewidth ld
/GC/setgray ld
/t/show ld
/N/newpath ld
/CT/concat ld
/cp/closepath ld
/S/stroke ld
/L/lineto ld
/CC/setcmykcolor ld
/A/ashow ld
/GS/gsave ld
/RC/setrgbcolor ld
/RM/rmoveto ld
/ML/setmiterlimit ld
/re {4 2 roll M
1 index 0 rlineto
0 exch rlineto
neg 0 rlineto
cp } bd
/_ctm matrix def
/_tm matrix def
/BT { _ctm currentmatrix pop matrix _tm copy pop 0 0 moveto } bd
/ET { _ctm setmatrix } bd
/iTm { _ctm setmatrix _tm concat } bd
/Tm { _tm astore pop iTm 0 0 moveto } bd
/ux 0.0 def
/uy 0.0 def
/F {
  /Tp exch def
  /Tf exch def
  Tf findfont Tp scalefont setfont
  /cf Tf def  /cs Tp def
} bd
/ULS {currentpoint /uy exch def /ux exch def} bd
/ULE {
  /Tcx currentpoint pop def
  gsave
  newpath
  cf findfont cs scalefont dup
  /FontMatrix get 0 get /Ts exch def /FontInfo get dup
  /UnderlinePosition get Ts mul /To exch def
  /UnderlineThickness get Ts mul /Tt exch def
  ux uy To add moveto  Tcx uy To add lineto
  Tt setlinewidth stroke
  grestore
} bd
/OLE {
  /Tcx currentpoint pop def
  gsave
  newpath
  cf findfont cs scalefont dup
  /FontMatrix get 0 get /Ts exch def /FontInfo get dup
  /UnderlinePosition get Ts mul /To exch def
  /UnderlineThickness get Ts mul /Tt exch def
  ux uy To add cs add moveto Tcx uy To add cs add lineto
  Tt setlinewidth stroke
  grestore
} bd
/SOE {
  /Tcx currentpoint pop def
  gsave
  newpath
  cf findfont cs scalefont dup
  /FontMatrix get 0 get /Ts exch def /FontInfo get dup
  /UnderlinePosition get Ts mul /To exch def
  /UnderlineThickness get Ts mul /Tt exch def
  ux uy To add cs 10 mul 26 idiv add moveto Tcx uy To add cs 10 mul 26 idiv add lineto
  Tt setlinewidth stroke
  grestore
} bd
/QT {
/Y22 exch store
/X22 exch store
/Y21 exch store
/X21 exch store
currentpoint
/Y21 load 2 mul add 3 div exch
/X21 load 2 mul add 3 div exch
/X21 load 2 mul /X22 load add 3 div
/Y21 load 2 mul /Y22 load add 3 div
/X22 load /Y22 load curveto
} bd
/SSPD {
dup length /d exch dict def
{
/v exch def
/k exch def
currentpagedevice k known {
/cpdv currentpagedevice k get def
v cpdv ne {
/upd false def
/nullv v type /nulltype eq def
/nullcpdv cpdv type /nulltype eq def
nullv nullcpdv or
{
/upd true def
} {
/sametype v type cpdv type eq def
sametype {
v type /arraytype eq {
/vlen v length def
/cpdvlen cpdv length def
vlen cpdvlen eq {
0 1 vlen 1 sub {
/i exch def
/obj v i get def
/cpdobj cpdv i get def
obj cpdobj ne {
/upd true def
exit
} if
} for
} {
/upd true def
} ifelse
} {
v type /dicttype eq {
v {
/dv exch def
/dk exch def
/cpddv cpdv dk get def
dv cpddv ne {
/upd true def
exit
} if
} forall
} {
/upd true def
} ifelse
} ifelse
} if
} ifelse
upd true eq {
d k v put
} if
} if
} if
} forall
d length 0 gt {
d setpagedevice
} if
} bd
%%EndResource
%%BeginResource: procset (Apache XML Graphics EPS ProcSet) 1.0 0
%%Version: 1.0 0
%%Copyright: (Copyright 2002-2003 The Apache Software Foundation. License terms: http://www.apache.org/licenses/LICENSE-2.0)
/BeginEPSF { %def
/b4_Inc_state save def         % Save state for cleanup
/dict_count countdictstack def % Count objects on dict stack
/op_count count 1 sub def      % Count objects on operand stack
userdict begin                 % Push userdict on dict stack
/showpage { } def              % Redefine showpage, { } = null proc
0 setgray 0 setlinecap         % Prepare graphics state
1 setlinewidth 0 setlinejoin
10 setmiterlimit [ ] 0 setdash newpath
/languagelevel where           % If level not equal to 1 then
{pop languagelevel             % set strokeadjust and
1 ne                           % overprint to their defaults.
{false setstrokeadjust false setoverprint
} if
} if
} bd
/EndEPSF { %def
count op_count sub {pop} repeat            % Clean up stacks
countdictstack dict_count sub {end} repeat
b4_Inc_state restore
} bd
%%EndResource
%FOPBeginFontDict
%%IncludeResource: font Courier-Bold
%%IncludeResource: font Helvetica
%%IncludeResource: font Courier-BoldOblique
%%IncludeResource: font Courier-Oblique
%%IncludeResource: font Times-Roman
%%IncludeResource: font Helvetica-BoldOblique
%%IncludeResource: font Helvetica-Bold
%%IncludeResource: font Helvetica-Oblique
%%IncludeResource: font Times-BoldItalic
%%IncludeResource: font Courier
%%IncludeResource: font Times-Italic
%%IncludeResource: font Times-Bold
%%IncludeResource: font Symbol
%%IncludeResource: font ZapfDingbats
%FOPEndFontDict
%%BeginResource: encoding WinAnsiEncoding
/WinAnsiEncoding [
/.notdef /.notdef /.notdef /.notdef /.notdef
/.notdef /.notdef /.notdef /.notdef /.notdef
/.notdef /.notdef /.notdef /.notdef /.notdef
/.notdef /.notdef /.notdef /.notdef /.notdef
/.notdef /.notdef /.notdef /.notdef /.notdef
/.notdef /.notdef /.notdef /.notdef /.notdef
/.notdef /.notdef /space /exclam /quotedbl
/numbersign /dollar /percent /ampersand /quotesingle
/parenleft /parenright /asterisk /plus /comma
/hyphen /period /slash /zero /one
/two /three /four /five /six
/seven /eight /nine /colon /semicolon
/less /equal /greater /question /at
/A /B /C /D /E
/F /G /H /I /J
/K /L /M /N /O
/P /Q /R /S /T
/U /V /W /X /Y
/Z /bracketleft /backslash /bracketright /asciicircum
/underscore /quoteleft /a /b /c
/d /e /f /g /h
/i /j /k /l /m
/n /o /p /q /r
/s /t /u /v /w
/x /y /z /braceleft /bar
/braceright /asciitilde /bullet /Euro /bullet
/quotesinglbase /florin /quotedblbase /ellipsis /dagger
/daggerdbl /circumflex /perthousand /Scaron /guilsinglleft
/OE /bullet /Zcaron /bullet /bullet
/quoteleft /quoteright /quotedblleft /quotedblright /bullet
/endash /emdash /asciitilde /trademark /scaron
/guilsinglright /oe /bullet /zcaron /Ydieresis
/space /exclamdown /cent /sterling /currency
/yen /brokenbar /section /dieresis /copyright
/ordfeminine /guillemotleft /logicalnot /sfthyphen /registered
/macron /degree /plusminus /twosuperior /threesuperior
/acute /mu /paragraph /middot /cedilla
/onesuperior /ordmasculine /guillemotright /onequarter /onehalf
/threequarters /questiondown /Agrave /Aacute /Acircumflex
/Atilde /Adieresis /Aring /AE /Ccedilla
/Egrave /Eacute /Ecircumflex /Edieresis /Igrave
/Iacute /Icircumflex /Idieresis /Eth /Ntilde
/Ograve /Oacute /Ocircumflex /Otilde /Odieresis
/multiply /Oslash /Ugrave /Uacute /Ucircumflex
/Udieresis /Yacute /Thorn /germandbls /agrave
/aacute /acircumflex /atilde /adieresis /aring
/ae /ccedilla /egrave /eacute /ecircumflex
/edieresis /igrave /iacute /icircumflex /idieresis
/eth /ntilde /ograve /oacute /ocircumflex
/otilde /odieresis /divide /oslash /ugrave
/uacute /ucircumflex /udieresis /yacute /thorn
/ydieresis
] def
%%EndResource
%FOPBeginFontReencode
/Courier-Bold findfont
dup length dict begin
  {1 index /FID ne {def} {pop pop} ifelse} forall
  /Encoding WinAnsiEncoding def
  currentdict
end
/Courier-Bold exch definefont pop
/Helvetica findfont
dup length dict begin
  {1 index /FID ne {def} {pop pop} ifelse} forall
  /Encoding WinAnsiEncoding def
  currentdict
end
/Helvetica exch definefont pop
/Courier-BoldOblique findfont
dup length dict begin
  {1 index /FID ne {def} {pop pop} ifelse} forall
  /Encoding WinAnsiEncoding def
  currentdict
end
/Courier-BoldOblique exch definefont pop
/Courier-Oblique findfont
dup length dict begin
  {1 index /FID ne {def} {pop pop} ifelse} forall
  /Encoding WinAnsiEncoding def
  currentdict
end
/Courier-Oblique exch definefont pop
/Times-Roman findfont
dup length dict begin
  {1 index /FID ne {def} {pop pop} ifelse} forall
  /Encoding WinAnsiEncoding def
  currentdict
end
/Times-Roman exch definefont pop
/Helvetica-BoldOblique findfont
dup length dict begin
  {1 index /FID ne {def} {pop pop} ifelse} forall
  /Encoding WinAnsiEncoding def
  currentdict
end
/Helvetica-BoldOblique exch definefont pop
/Helvetica-Bold findfont
dup length dict begin
  {1 index /FID ne {def} {pop pop} ifelse} forall
  /Encoding WinAnsiEncoding def
  currentdict
end
/Helvetica-Bold exch definefont pop
/Helvetica-Oblique findfont
dup length dict begin
  {1 index /FID ne {def} {pop pop} ifelse} forall
  /Encoding WinAnsiEncoding def
  currentdict
end
/Helvetica-Oblique exch definefont pop
/Times-BoldItalic findfont
dup length dict begin
  {1 index /FID ne {def} {pop pop} ifelse} forall
  /Encoding WinAnsiEncoding def
  currentdict
end
/Times-BoldItalic exch definefont pop
/Courier findfont
dup length dict begin
  {1 index /FID ne {def} {pop pop} ifelse} forall
  /Encoding WinAnsiEncoding def
  currentdict
end
/Courier exch definefont pop
/Times-Italic findfont
dup length dict begin
  {1 index /FID ne {def} {pop pop} ifelse} forall
  /Encoding WinAnsiEncoding def
  currentdict
end
/Times-Italic exch definefont pop
/Times-Bold findfont
dup length dict begin
  {1 index /FID ne {def} {pop pop} ifelse} forall
  /Encoding WinAnsiEncoding def
  currentdict
end
/Times-Bold exch definefont pop
%FOPEndFontReencode
%%EndProlog
%%Page: 1 1
%%PageBoundingBox: 0 0 560 420
%%BeginPageSetup
[1 0 0 -1 0 420] CT
%%EndPageSetup
GS
1 GC
N
0 0 560 420 re
f
GR
GS
1 GC
N
0 0 560 420 re
f
GR
GS
1 GC
N
73 372.5 M
507 372.5 L
507 31.5 L
73 31.5 L
cp
f
GR
GS
0.873 GC
1 LJ
0.5 LW
N
73 372.5 M
73 31.5 L
S
GR
GS
0.873 GC
1 LJ
0.5 LW
N
217.667 372.5 M
217.667 31.5 L
S
GR
GS
0.873 GC
1 LJ
0.5 LW
N
362.333 372.5 M
362.333 31.5 L
S
GR
GS
0.873 GC
1 LJ
0.5 LW
N
507 372.5 M
507 31.5 L
S
GR
GS
0.873 GC
1 LJ
0.5 LW
N
507 372.5 M
73 372.5 L
S
GR
GS
0.873 GC
1 LJ
0.5 LW
N
507 334.611 M
73 334.611 L
S
GR
GS
0.873 GC
1 LJ
0.5 LW
N
507 296.722 M
73 296.722 L
S
GR
GS
0.873 GC
1 LJ
0.5 LW
N
507 258.833 M
73 258.833 L
S
GR
GS
0.873 GC
1 LJ
0.5 LW
N
507 220.944 M
73 220.944 L
S
GR
GS
0.873 GC
1 LJ
0.5 LW
N
507 183.056 M
73 183.056 L
S
GR
GS
0.873 GC
1 LJ
0.5 LW
N
507 145.167 M
73 145.167 L
S
GR
GS
0.873 GC
1 LJ
0.5 LW
N
507 107.278 M
73 107.278 L
S
GR
GS
0.873 GC
1 LJ
0.5 LW
N
507 69.389 M
73 69.389 L
S
GR
GS
0.873 GC
1 LJ
0.5 LW
N
507 31.5 M
73 31.5 L
S
GR
GS
0.149 GC
2 setlinecap
1 LJ
0.5 LW
N
73 372.5 M
507 372.5 L
S
GR
GS
0.149 GC
2 setlinecap
1 LJ
0.5 LW
N
73 372.5 M
73 368.16 L
S
GR
GS
0.149 GC
2 setlinecap
1 LJ
0.5 LW
N
217.667 372.5 M
217.667 368.16 L
S
GR
GS
0.149 GC
2 setlinecap
1 LJ
0.5 LW
N
362.333 372.5 M
362.333 368.16 L
S
GR
GS
0.149 GC
2 setlinecap
1 LJ
0.5 LW
N
507 372.5 M
507 368.16 L
S
GR
GS
[1 0 0 1 73 377.29999] CT
0.149 GC
/Helvetica 14 F
GS
[1 0 0 1 0 0] CT
-7 14 moveto 
1 -1 scale
(-2) t 
GR
GR
GS
[1 0 0 1 217.66667 377.29999] CT
0.149 GC
/Helvetica 14 F
GS
[1 0 0 1 0 0] CT
-12.5 14 moveto 
1 -1 scale
(-1.5) t 
GR
GR
GS
[1 0 0 1 362.33334 377.29999] CT
0.149 GC
/Helvetica 14 F
GS
[1 0 0 1 0 0] CT
-7 14 moveto 
1 -1 scale
(-1) t 
GR
GR
GS
[1 0 0 1 507 377.29999] CT
0.149 GC
/Helvetica 14 F
GS
[1 0 0 1 0 0] CT
-12.5 14 moveto 
1 -1 scale
(-0.5) t 
GR
GR
GS
[1 0 0 1 241 410] CT
0.149 GC
/Helvetica 15 F
GS
[1 0 0 1 0 0] CT
0 0 moveto 
1 -1 scale
(log) t 
GR
GR
GS
[1 0 0 1 262 417] CT
0.149 GC
/Helvetica 12 F
GS
[1 0 0 1 0 0] CT
0 0 moveto 
1 -1 scale
(10) t 
GR
GR
GS
[1 0 0 1 276 410] CT
0.149 GC
/Helvetica 15 F
GS
[1 0 0 1 0 0] CT
0 0 moveto 
1 -1 scale
(\(1/nElem\)) t 
GR
GR
GS
0.149 GC
2 setlinecap
1 LJ
0.5 LW
N
73 372.5 M
73 31.5 L
S
GR
GS
0.149 GC
2 setlinecap
1 LJ
0.5 LW
N
73 372.5 M
77.34 372.5 L
S
GR
GS
0.149 GC
2 setlinecap
1 LJ
0.5 LW
N
73 334.611 M
77.34 334.611 L
S
GR
GS
0.149 GC
2 setlinecap
1 LJ
0.5 LW
N
73 296.722 M
77.34 296.722 L
S
GR
GS
0.149 GC
2 setlinecap
1 LJ
0.5 LW
N
73 258.833 M
77.34 258.833 L
S
GR
GS
0.149 GC
2 setlinecap
1 LJ
0.5 LW
N
73 220.944 M
77.34 220.944 L
S
GR
GS
0.149 GC
2 setlinecap
1 LJ
0.5 LW
N
73 183.056 M
77.34 183.056 L
S
GR
GS
0.149 GC
2 setlinecap
1 LJ
0.5 LW
N
73 145.167 M
77.34 145.167 L
S
GR
GS
0.149 GC
2 setlinecap
1 LJ
0.5 LW
N
73 107.278 M
77.34 107.278 L
S
GR
GS
0.149 GC
2 setlinecap
1 LJ
0.5 LW
N
73 69.389 M
77.34 69.389 L
S
GR
GS
0.149 GC
2 setlinecap
1 LJ
0.5 LW
N
73 31.5 M
77.34 31.5 L
S
GR
GS
[1 0 0 1 68.2 372.5] CT
0.149 GC
/Helvetica 14 F
GS
[1 0 0 1 0 0] CT
-22 5.5 moveto 
1 -1 scale
(-18) t 
GR
GR
GS
[1 0 0 1 68.2 334.61111] CT
0.149 GC
/Helvetica 14 F
GS
[1 0 0 1 0 0] CT
-22 5.5 moveto 
1 -1 scale
(-16) t 
GR
GR
GS
[1 0 0 1 68.2 296.72223] CT
0.149 GC
/Helvetica 14 F
GS
[1 0 0 1 0 0] CT
-22 5.5 moveto 
1 -1 scale
(-14) t 
GR
GR
GS
[1 0 0 1 68.2 258.83334] CT
0.149 GC
/Helvetica 14 F
GS
[1 0 0 1 0 0] CT
-22 5.5 moveto 
1 -1 scale
(-12) t 
GR
GR
GS
[1 0 0 1 68.2 220.94444] CT
0.149 GC
/Helvetica 14 F
GS
[1 0 0 1 0 0] CT
-22 5.5 moveto 
1 -1 scale
(-10) t 
GR
GR
GS
[1 0 0 1 68.2 183.05556] CT
0.149 GC
/Helvetica 14 F
GS
[1 0 0 1 0 0] CT
-14 5.5 moveto 
1 -1 scale
(-8) t 
GR
GR
GS
[1 0 0 1 68.2 145.16667] CT
0.149 GC
/Helvetica 14 F
GS
[1 0 0 1 0 0] CT
-14 5.5 moveto 
1 -1 scale
(-6) t 
GR
GR
GS
[1 0 0 1 68.2 107.27778] CT
0.149 GC
/Helvetica 14 F
GS
[1 0 0 1 0 0] CT
-14 5.5 moveto 
1 -1 scale
(-4) t 
GR
GR
GS
[1 0 0 1 68.2 69.38889] CT
0.149 GC
/Helvetica 14 F
GS
[1 0 0 1 0 0] CT
-14 5.5 moveto 
1 -1 scale
(-2) t 
GR
GR
GS
[1 0 0 1 68.2 31.5] CT
0.149 GC
/Helvetica 14 F
GS
[1 0 0 1 0 0] CT
-8 5.5 moveto 
1 -1 scale
(0) t 
GR
GR
GS
[0 -1 1 0 34 279] CT
0.149 GC
/Helvetica 15 F
GS
[1 0 0 1 0 0] CT
0 0 moveto 
1 -1 scale
(log) t 
GR
GR
GS
[0 -1 1 0 41 258] CT
0.149 GC
/Helvetica 12 F
GS
[1 0 0 1 0 0] CT
0 0 moveto 
1 -1 scale
(10) t 
GR
GR
GS
[0 -1 1 0 34 244] CT
0.149 GC
/Helvetica 15 F
GS
[1 0 0 1 0 0] CT
0 0 moveto 
1 -1 scale
(\(Solution L) t 
GR
GR
GS
[0 -1 1 0 41 172] CT
0.149 GC
/Helvetica 12 F
GS
[1 0 0 1 0 0] CT
0 0 moveto 
1 -1 scale
(2) t 
GR
GR
GS
[0 -1 1 0 34 165] CT
0.149 GC
/Helvetica 15 F
GS
[1 0 0 1 0 0] CT
0 0 moveto 
1 -1 scale
( error\)) t 
GR
GR
GS
1 0 0 RC
1 LJ
0.5 LW
N
477.471 99.966 M
390.373 105.785 L
303.275 111.621 L
216.177 117.43 L
129.079 123.203 L
S
GR
GS
1 0 0 RC
1 LJ
N
474 99.5 M
481 99.5 L
S
GR
GS
1 0 0 RC
1 LJ
N
477.5 103 M
477.5 96 L
S
GR
GS
1 0 0 RC
1 LJ
N
387 105.5 M
394 105.5 L
S
GR
GS
1 0 0 RC
1 LJ
N
390.5 109 M
390.5 102 L
S
GR
GS
1 0 0 RC
1 LJ
N
300 111.5 M
307 111.5 L
S
GR
GS
1 0 0 RC
1 LJ
N
303.5 115 M
303.5 108 L
S
GR
GS
1 0 0 RC
1 LJ
N
213 117.5 M
220 117.5 L
S
GR
GS
1 0 0 RC
1 LJ
N
216.5 121 M
216.5 114 L
S
GR
GS
1 0 0 RC
1 LJ
N
126 123.5 M
133 123.5 L
S
GR
GS
1 0 0 RC
1 LJ
N
129.5 127 M
129.5 120 L
S
GR
GS
0 0 1 RC
1 LJ
0.5 LW
N
477.471 129.992 M
390.373 141.443 L
303.275 152.885 L
216.177 164.312 L
129.079 175.729 L
S
GR
GS
0 0 1 RC
1 LJ
N
480.5 129.5 M
479.621 127.379 L
477.5 126.5 L
475.379 127.379 L
474.5 129.5 L
475.379 131.621 L
477.5 132.5 L
479.621 131.621 L
cp
S
GR
GS
0 0 1 RC
1 LJ
N
393.5 141.5 M
392.621 139.379 L
390.5 138.5 L
388.379 139.379 L
387.5 141.5 L
388.379 143.621 L
390.5 144.5 L
392.621 143.621 L
cp
S
GR
GS
0 0 1 RC
1 LJ
N
306.5 152.5 M
305.621 150.379 L
303.5 149.5 L
301.379 150.379 L
300.5 152.5 L
301.379 154.621 L
303.5 155.5 L
305.621 154.621 L
cp
S
GR
GS
0 0 1 RC
1 LJ
N
219.5 164.5 M
218.621 162.379 L
216.5 161.5 L
214.379 162.379 L
213.5 164.5 L
214.379 166.621 L
216.5 167.5 L
218.621 166.621 L
cp
S
GR
GS
0 0 1 RC
1 LJ
N
132.5 175.5 M
131.621 173.379 L
129.5 172.5 L
127.379 173.379 L
126.5 175.5 L
127.379 177.621 L
129.5 178.5 L
131.621 177.621 L
cp
S
GR
GS
1 LJ
0.5 LW
N
477.471 168.277 M
390.373 185.973 L
303.275 203.573 L
216.177 220.994 L
129.079 238.278 L
S
GR
GS
10.0 ML
N
477.5 172.499 M
480.5 168.5 L
477.5 164.501 L
474.5 168.5 L
cp
S
GR
GS
10.0 ML
N
390.5 189.499 M
393.5 185.5 L
390.5 181.501 L
387.5 185.5 L
cp
S
GR
GS
10.0 ML
N
303.5 207.499 M
306.5 203.5 L
303.5 199.501 L
300.5 203.5 L
cp
S
GR
GS
10.0 ML
N
216.5 224.499 M
219.5 220.5 L
216.5 216.501 L
213.5 220.5 L
cp
S
GR
GS
10.0 ML
N
129.5 242.499 M
132.5 238.5 L
129.5 234.501 L
126.5 238.5 L
cp
S
GR
GS
1 0 1 RC
1 LJ
0.5 LW
N
477.471 202.104 M
390.373 224.922 L
303.275 247.741 L
216.177 270.557 L
129.079 293.37 L
S
GR
GS
1 0 1 RC
1 LJ
N
474 202.5 M
481 202.5 L
S
GR
GS
1 0 1 RC
1 LJ
N
477.5 206 M
477.5 199 L
S
GR
GS
1 0 1 RC
1 LJ
N
475 205 M
480 200 L
S
GR
GS
1 0 1 RC
1 LJ
N
475 200 M
480 205 L
S
GR
GS
1 0 1 RC
1 LJ
N
387 224.5 M
394 224.5 L
S
GR
GS
1 0 1 RC
1 LJ
N
390.5 228 M
390.5 221 L
S
GR
GS
1 0 1 RC
1 LJ
N
388 227 M
393 222 L
S
GR
GS
1 0 1 RC
1 LJ
N
388 222 M
393 227 L
S
GR
GS
1 0 1 RC
1 LJ
N
300 247.5 M
307 247.5 L
S
GR
GS
1 0 1 RC
1 LJ
N
303.5 251 M
303.5 244 L
S
GR
GS
1 0 1 RC
1 LJ
N
301 250 M
306 245 L
S
GR
GS
1 0 1 RC
1 LJ
N
301 245 M
306 250 L
S
GR
GS
1 0 1 RC
1 LJ
N
213 270.5 M
220 270.5 L
S
GR
GS
1 0 1 RC
1 LJ
N
216.5 274 M
216.5 267 L
S
GR
GS
1 0 1 RC
1 LJ
N
214 273 M
219 268 L
S
GR
GS
1 0 1 RC
1 LJ
N
214 268 M
219 273 L
S
GR
GS
1 0 1 RC
1 LJ
N
126 293.5 M
133 293.5 L
S
GR
GS
1 0 1 RC
1 LJ
N
129.5 297 M
129.5 290 L
S
GR
GS
1 0 1 RC
1 LJ
N
127 296 M
132 291 L
S
GR
GS
1 0 1 RC
1 LJ
N
127 291 M
132 296 L
S
GR
GS
0 1 0 RC
1 LJ
0.5 LW
N
477.471 242.833 M
390.373 271.626 L
303.275 300.352 L
216.177 332.456 L
129.079 358.604 L
S
GR
GS
0 1 0 RC
1 LJ
N
475 245 M
480 240 L
S
GR
GS
0 1 0 RC
1 LJ
N
475 240 M
480 245 L
S
GR
GS
0 1 0 RC
1 LJ
N
388 274 M
393 269 L
S
GR
GS
0 1 0 RC
1 LJ
N
388 269 M
393 274 L
S
GR
GS
0 1 0 RC
1 LJ
N
301 303 M
306 298 L
S
GR
GS
0 1 0 RC
1 LJ
N
301 298 M
306 303 L
S
GR
GS
0 1 0 RC
1 LJ
N
214 335 M
219 330 L
S
GR
GS
0 1 0 RC
1 LJ
N
214 330 M
219 335 L
S
GR
GS
0 1 0 RC
1 LJ
N
127 361 M
132 356 L
S
GR
GS
0 1 0 RC
1 LJ
N
127 356 M
132 361 L
S
GR
GS
1 0 0 RC
[10 6] 0 setdash
2 LJ
0.5 LW
N
477.471 97.407 M
390.373 99.851 L
303.275 100.952 L
216.177 101.47 L
129.079 101.73 L
S
GR
GS
1 0 0 RC
1 LJ
N
474 97.5 M
481 97.5 L
S
GR
GS
1 0 0 RC
1 LJ
N
477.5 101 M
477.5 94 L
S
GR
GS
1 0 0 RC
1 LJ
N
387 99.5 M
394 99.5 L
S
GR
GS
1 0 0 RC
1 LJ
N
390.5 103 M
390.5 96 L
S
GR
GS
1 0 0 RC
1 LJ
N
300 100.5 M
307 100.5 L
S
GR
GS
1 0 0 RC
1 LJ
N
303.5 104 M
303.5 97 L
S
GR
GS
1 0 0 RC
1 LJ
N
213 101.5 M
220 101.5 L
S
GR
GS
1 0 0 RC
1 LJ
N
216.5 105 M
216.5 98 L
S
GR
GS
1 0 0 RC
1 LJ
N
126 101.5 M
133 101.5 L
S
GR
GS
1 0 0 RC
1 LJ
N
129.5 105 M
129.5 98 L
S
GR
GS
0 0 1 RC
[10 6] 0 setdash
2 LJ
0.5 LW
N
477.471 123.606 M
390.373 131.531 L
303.275 138.423 L
216.177 144.664 L
129.079 150.604 L
S
GR
GS
0 0 1 RC
1 LJ
N
480.5 123.5 M
479.621 121.379 L
477.5 120.5 L
475.379 121.379 L
474.5 123.5 L
475.379 125.621 L
477.5 126.5 L
479.621 125.621 L
cp
S
GR
GS
0 0 1 RC
1 LJ
N
393.5 131.5 M
392.621 129.379 L
390.5 128.5 L
388.379 129.379 L
387.5 131.5 L
388.379 133.621 L
390.5 134.5 L
392.621 133.621 L
cp
S
GR
GS
0 0 1 RC
1 LJ
N
306.5 138.5 M
305.621 136.379 L
303.5 135.5 L
301.379 136.379 L
300.5 138.5 L
301.379 140.621 L
303.5 141.5 L
305.621 140.621 L
cp
S
GR
GS
0 0 1 RC
1 LJ
N
219.5 144.5 M
218.621 142.379 L
216.5 141.5 L
214.379 142.379 L
213.5 144.5 L
214.379 146.621 L
216.5 147.5 L
218.621 146.621 L
cp
S
GR
GS
0 0 1 RC
1 LJ
N
132.5 150.5 M
131.621 148.379 L
129.5 147.5 L
127.379 148.379 L
126.5 150.5 L
127.379 152.621 L
129.5 153.5 L
131.621 152.621 L
cp
S
GR
GS
[10 6] 0 setdash
2 LJ
0.5 LW
N
477.471 163.618 M
390.373 178.311 L
303.275 191.331 L
216.177 203.4 L
129.079 215.078 L
S
GR
GS
10.0 ML
N
477.5 167.499 M
480.5 163.5 L
477.5 159.501 L
474.5 163.5 L
cp
S
GR
GS
10.0 ML
N
390.5 182.499 M
393.5 178.5 L
390.5 174.501 L
387.5 178.5 L
cp
S
GR
GS
10.0 ML
N
303.5 195.499 M
306.5 191.5 L
303.5 187.501 L
300.5 191.5 L
cp
S
GR
GS
10.0 ML
N
216.5 207.499 M
219.5 203.5 L
216.5 199.501 L
213.5 203.5 L
cp
S
GR
GS
10.0 ML
N
129.5 219.499 M
132.5 215.5 L
129.5 211.501 L
126.5 215.5 L
cp
S
GR
GS
1 0 1 RC
[10 6] 0 setdash
2 LJ
0.5 LW
N
477.471 193.425 M
390.373 212.259 L
303.275 230.285 L
216.177 247.83 L
129.079 265.144 L
S
GR
GS
1 0 1 RC
1 LJ
N
474 193.5 M
481 193.5 L
S
GR
GS
1 0 1 RC
1 LJ
N
477.5 197 M
477.5 190 L
S
GR
GS
1 0 1 RC
1 LJ
N
475 196 M
480 191 L
S
GR
GS
1 0 1 RC
1 LJ
N
475 191 M
480 196 L
S
GR
GS
1 0 1 RC
1 LJ
N
387 212.5 M
394 212.5 L
S
GR
GS
1 0 1 RC
1 LJ
N
390.5 216 M
390.5 209 L
S
GR
GS
1 0 1 RC
1 LJ
N
388 215 M
393 210 L
S
GR
GS
1 0 1 RC
1 LJ
N
388 210 M
393 215 L
S
GR
GS
1 0 1 RC
1 LJ
N
300 230.5 M
307 230.5 L
S
GR
GS
1 0 1 RC
1 LJ
N
303.5 234 M
303.5 227 L
S
GR
GS
1 0 1 RC
1 LJ
N
301 233 M
306 228 L
S
GR
GS
1 0 1 RC
1 LJ
N
301 228 M
306 233 L
S
GR
GS
1 0 1 RC
1 LJ
N
213 247.5 M
220 247.5 L
S
GR
GS
1 0 1 RC
1 LJ
N
216.5 251 M
216.5 244 L
S
GR
GS
1 0 1 RC
1 LJ
N
214 250 M
219 245 L
S
GR
GS
1 0 1 RC
1 LJ
N
214 245 M
219 250 L
S
GR
GS
1 0 1 RC
1 LJ
N
126 265.5 M
133 265.5 L
S
GR
GS
1 0 1 RC
1 LJ
N
129.5 269 M
129.5 262 L
S
GR
GS
1 0 1 RC
1 LJ
N
127 268 M
132 263 L
S
GR
GS
1 0 1 RC
1 LJ
N
127 263 M
132 268 L
S
GR
GS
0 1 0 RC
[10 6] 0 setdash
2 LJ
0.5 LW
N
477.471 237.414 M
390.373 262.877 L
303.275 287.123 L
216.177 332.456 L
129.079 358.604 L
S
GR
GS
0 1 0 RC
1 LJ
N
475 240 M
480 235 L
S
GR
GS
0 1 0 RC
1 LJ
N
475 235 M
480 240 L
S
GR
GS
0 1 0 RC
1 LJ
N
388 265 M
393 260 L
S
GR
GS
0 1 0 RC
1 LJ
N
388 260 M
393 265 L
S
GR
GS
0 1 0 RC
1 LJ
N
301 290 M
306 285 L
S
GR
GS
0 1 0 RC
1 LJ
N
301 285 M
306 290 L
S
GR
GS
0 1 0 RC
1 LJ
N
214 335 M
219 330 L
S
GR
GS
0 1 0 RC
1 LJ
N
214 330 M
219 335 L
S
GR
GS
0 1 0 RC
1 LJ
N
127 361 M
132 356 L
S
GR
GS
0 1 0 RC
1 LJ
N
127 356 M
132 361 L
S
GR
GS
1 0 0 RC
[8 3 2 3] 0 setdash
2 LJ
0.5 LW
N
477.471 99.552 M
390.373 105.669 L
303.275 111.688 L
216.177 117.599 L
129.079 123.425 L
S
GR
GS
1 0 0 RC
1 LJ
N
474 99.5 M
481 99.5 L
S
GR
GS
1 0 0 RC
1 LJ
N
477.5 103 M
477.5 96 L
S
GR
GS
1 0 0 RC
1 LJ
N
387 105.5 M
394 105.5 L
S
GR
GS
1 0 0 RC
1 LJ
N
390.5 109 M
390.5 102 L
S
GR
GS
1 0 0 RC
1 LJ
N
300 111.5 M
307 111.5 L
S
GR
GS
1 0 0 RC
1 LJ
N
303.5 115 M
303.5 108 L
S
GR
GS
1 0 0 RC
1 LJ
N
213 117.5 M
220 117.5 L
S
GR
GS
1 0 0 RC
1 LJ
N
216.5 121 M
216.5 114 L
S
GR
GS
1 0 0 RC
1 LJ
N
126 123.5 M
133 123.5 L
S
GR
GS
1 0 0 RC
1 LJ
N
129.5 127 M
129.5 120 L
S
GR
GS
0 0 1 RC
[8 3 2 3] 0 setdash
2 LJ
0.5 LW
N
477.471 128.01 M
390.373 139.153 L
303.275 150.458 L
216.177 161.82 L
129.079 173.206 L
S
GR
GS
0 0 1 RC
1 LJ
N
480.5 128.5 M
479.621 126.379 L
477.5 125.5 L
475.379 126.379 L
474.5 128.5 L
475.379 130.621 L
477.5 131.5 L
479.621 130.621 L
cp
S
GR
GS
0 0 1 RC
1 LJ
N
393.5 139.5 M
392.621 137.379 L
390.5 136.5 L
388.379 137.379 L
387.5 139.5 L
388.379 141.621 L
390.5 142.5 L
392.621 141.621 L
cp
S
GR
GS
0 0 1 RC
1 LJ
N
306.5 150.5 M
305.621 148.379 L
303.5 147.5 L
301.379 148.379 L
300.5 150.5 L
301.379 152.621 L
303.5 153.5 L
305.621 152.621 L
cp
S
GR
GS
0 0 1 RC
1 LJ
N
219.5 161.5 M
218.621 159.379 L
216.5 158.5 L
214.379 159.379 L
213.5 161.5 L
214.379 163.621 L
216.5 164.5 L
218.621 163.621 L
cp
S
GR
GS
0 0 1 RC
1 LJ
N
132.5 173.5 M
131.621 171.379 L
129.5 170.5 L
127.379 171.379 L
126.5 173.5 L
127.379 175.621 L
129.5 176.5 L
131.621 175.621 L
cp
S
GR
GS
[8 3 2 3] 0 setdash
2 LJ
0.5 LW
N
477.471 168.706 M
390.373 186.487 L
303.275 204.057 L
216.177 221.437 L
129.079 238.693 L
S
GR
GS
10.0 ML
N
477.5 172.499 M
480.5 168.5 L
477.5 164.501 L
474.5 168.5 L
cp
S
GR
GS
10.0 ML
N
390.5 190.499 M
393.5 186.5 L
390.5 182.501 L
387.5 186.5 L
cp
S
GR
GS
10.0 ML
N
303.5 208.499 M
306.5 204.5 L
303.5 200.501 L
300.5 204.5 L
cp
S
GR
GS
10.0 ML
N
216.5 225.499 M
219.5 221.5 L
216.5 217.501 L
213.5 221.5 L
cp
S
GR
GS
10.0 ML
N
129.5 242.499 M
132.5 238.5 L
129.5 234.501 L
126.5 238.5 L
cp
S
GR
GS
1 0 1 RC
[8 3 2 3] 0 setdash
2 LJ
0.5 LW
N
477.471 200.171 M
390.373 222.729 L
303.275 245.436 L
216.177 268.2 L
129.079 290.988 L
S
GR
GS
1 0 1 RC
1 LJ
N
474 200.5 M
481 200.5 L
S
GR
GS
1 0 1 RC
1 LJ
N
477.5 204 M
477.5 197 L
S
GR
GS
1 0 1 RC
1 LJ
N
475 203 M
480 198 L
S
GR
GS
1 0 1 RC
1 LJ
N
475 198 M
480 203 L
S
GR
GS
1 0 1 RC
1 LJ
N
387 222.5 M
394 222.5 L
S
GR
GS
1 0 1 RC
1 LJ
N
390.5 226 M
390.5 219 L
S
GR
GS
1 0 1 RC
1 LJ
N
388 225 M
393 220 L
S
GR
GS
1 0 1 RC
1 LJ
N
388 220 M
393 225 L
S
GR
GS
1 0 1 RC
1 LJ
N
300 245.5 M
307 245.5 L
S
GR
GS
1 0 1 RC
1 LJ
N
303.5 249 M
303.5 242 L
S
GR
GS
1 0 1 RC
1 LJ
N
301 248 M
306 243 L
S
GR
GS
1 0 1 RC
1 LJ
N
301 243 M
306 248 L
S
GR
GS
1 0 1 RC
1 LJ
N
213 268.5 M
220 268.5 L
S
GR
GS
1 0 1 RC
1 LJ
N
216.5 272 M
216.5 265 L
S
GR
GS
1 0 1 RC
1 LJ
N
214 271 M
219 266 L
S
GR
GS
1 0 1 RC
1 LJ
N
214 266 M
219 271 L
S
GR
GS
1 0 1 RC
1 LJ
N
126 290.5 M
133 290.5 L
S
GR
GS
1 0 1 RC
1 LJ
N
129.5 294 M
129.5 287 L
S
GR
GS
1 0 1 RC
1 LJ
N
127 293 M
132 288 L
S
GR
GS
1 0 1 RC
1 LJ
N
127 288 M
132 293 L
S
GR
GS
0 1 0 RC
[8 3 2 3] 0 setdash
2 LJ
0.5 LW
N
477.471 243.754 M
390.373 272.598 L
303.275 301.313 L
216.177 332.456 L
129.079 358.604 L
S
GR
GS
0 1 0 RC
1 LJ
N
475 246 M
480 241 L
S
GR
GS
0 1 0 RC
1 LJ
N
475 241 M
480 246 L
S
GR
GS
0 1 0 RC
1 LJ
N
388 275 M
393 270 L
S
GR
GS
0 1 0 RC
1 LJ
N
388 270 M
393 275 L
S
GR
GS
0 1 0 RC
1 LJ
N
301 304 M
306 299 L
S
GR
GS
0 1 0 RC
1 LJ
N
301 299 M
306 304 L
S
GR
GS
0 1 0 RC
1 LJ
N
214 335 M
219 330 L
S
GR
GS
0 1 0 RC
1 LJ
N
214 330 M
219 335 L
S
GR
GS
0 1 0 RC
1 LJ
N
127 361 M
132 356 L
S
GR
GS
0 1 0 RC
1 LJ
N
127 356 M
132 361 L
S
GR
GS
1 GC
N
428.5 356 M
428.5 275 L
498.5 275 L
498.5 356 L
cp
f
GR
GS
[1 0 0 1 465.5 284.5] CT
/Helvetica 12.6 F
GS
[1 0 0 1 0 0] CT
0 5 moveto 
1 -1 scale
(p = 0) t 
GR
GR
GS
1 0 0 RC
1 LJ
0.5 LW
N
432.5 284.5 M
462.5 284.5 L
S
GR
GS
1 0 0 RC
1 LJ
N
444 284.5 M
451 284.5 L
S
GR
GS
1 0 0 RC
1 LJ
N
447.5 288 M
447.5 281 L
S
GR
GS
[1 0 0 1 465.5 300] CT
/Helvetica 12.6 F
GS
[1 0 0 1 0 0] CT
0 5 moveto 
1 -1 scale
(p = 1) t 
GR
GR
GS
0 0 1 RC
1 LJ
0.5 LW
N
432.5 300 M
462.5 300 L
S
GR
GS
0 0 1 RC
1 LJ
N
450.5 299.5 M
449.621 297.379 L
447.5 296.5 L
445.379 297.379 L
444.5 299.5 L
445.379 301.621 L
447.5 302.5 L
449.621 301.621 L
cp
S
GR
GS
[1 0 0 1 465.5 315.5] CT
/Helvetica 12.6 F
GS
[1 0 0 1 0 0] CT
0 5 moveto 
1 -1 scale
(p = 2) t 
GR
GR
GS
1 LJ
0.5 LW
N
432.5 315.5 M
462.5 315.5 L
S
GR
GS
10.0 ML
N
447.5 319.499 M
450.5 315.5 L
447.5 311.501 L
444.5 315.5 L
cp
S
GR
GS
[1 0 0 1 465.5 331] CT
/Helvetica 12.6 F
GS
[1 0 0 1 0 0] CT
0 5 moveto 
1 -1 scale
(p = 3) t 
GR
GR
GS
1 0 1 RC
1 LJ
0.5 LW
N
432.5 331 M
462.5 331 L
S
GR
GS
1 0 1 RC
1 LJ
N
444 331.5 M
451 331.5 L
S
GR
GS
1 0 1 RC
1 LJ
N
447.5 335 M
447.5 328 L
S
GR
GS
1 0 1 RC
1 LJ
N
445 334 M
450 329 L
S
GR
GS
1 0 1 RC
1 LJ
N
445 329 M
450 334 L
S
GR
GS
[1 0 0 1 465.5 346.5] CT
/Helvetica 12.6 F
GS
[1 0 0 1 0 0] CT
0 5 moveto 
1 -1 scale
(p = 4) t 
GR
GR
GS
0 1 0 RC
1 LJ
0.5 LW
N
432.5 346.5 M
462.5 346.5 L
S
GR
GS
0 1 0 RC
1 LJ
N
445 349 M
450 344 L
S
GR
GS
0 1 0 RC
1 LJ
N
445 344 M
450 349 L
S
GR
GS
0.149 GC
10.0 ML
0.5 LW
N
428.5 356 M
428.5 275 L
498.5 275 L
498.5 356 L
cp
S
GR
%%Trailer
%%Pages: 1
%%EOF
