%!PS-Adobe-3.0 EPSF-3.0
%%Creator: (MATLAB, The Mathworks, Inc. Version 9.0.0.341360 \(R2016a\). Operating System: Mac OS X)
%%Title: ./SWE2D_Ellipse_Line_manifold_Q3.eps
%%CreationDate: 2016-07-08T16:30:41
%%Pages: (atend)
%%BoundingBox:    22     2   519   393
%%LanguageLevel: 2
%%EndComments
%%BeginProlog
%%BeginResource: procset (Apache XML Graphics Std ProcSet) 1.2 0
%%Version: 1.2 0
%%Copyright: (Copyright 2001-2003,2010 The Apache Software Foundation. License terms: http://www.apache.org/licenses/LICENSE-2.0)
/bd{bind def}bind def
/ld{load def}bd
/GR/grestore ld
/M/moveto ld
/LJ/setlinejoin ld
/C/curveto ld
/f/fill ld
/LW/setlinewidth ld
/GC/setgray ld
/t/show ld
/N/newpath ld
/CT/concat ld
/cp/closepath ld
/S/stroke ld
/L/lineto ld
/CC/setcmykcolor ld
/A/ashow ld
/GS/gsave ld
/RC/setrgbcolor ld
/RM/rmoveto ld
/ML/setmiterlimit ld
/re {4 2 roll M
1 index 0 rlineto
0 exch rlineto
neg 0 rlineto
cp } bd
/_ctm matrix def
/_tm matrix def
/BT { _ctm currentmatrix pop matrix _tm copy pop 0 0 moveto } bd
/ET { _ctm setmatrix } bd
/iTm { _ctm setmatrix _tm concat } bd
/Tm { _tm astore pop iTm 0 0 moveto } bd
/ux 0.0 def
/uy 0.0 def
/F {
  /Tp exch def
  /Tf exch def
  Tf findfont Tp scalefont setfont
  /cf Tf def  /cs Tp def
} bd
/ULS {currentpoint /uy exch def /ux exch def} bd
/ULE {
  /Tcx currentpoint pop def
  gsave
  newpath
  cf findfont cs scalefont dup
  /FontMatrix get 0 get /Ts exch def /FontInfo get dup
  /UnderlinePosition get Ts mul /To exch def
  /UnderlineThickness get Ts mul /Tt exch def
  ux uy To add moveto  Tcx uy To add lineto
  Tt setlinewidth stroke
  grestore
} bd
/OLE {
  /Tcx currentpoint pop def
  gsave
  newpath
  cf findfont cs scalefont dup
  /FontMatrix get 0 get /Ts exch def /FontInfo get dup
  /UnderlinePosition get Ts mul /To exch def
  /UnderlineThickness get Ts mul /Tt exch def
  ux uy To add cs add moveto Tcx uy To add cs add lineto
  Tt setlinewidth stroke
  grestore
} bd
/SOE {
  /Tcx currentpoint pop def
  gsave
  newpath
  cf findfont cs scalefont dup
  /FontMatrix get 0 get /Ts exch def /FontInfo get dup
  /UnderlinePosition get Ts mul /To exch def
  /UnderlineThickness get Ts mul /Tt exch def
  ux uy To add cs 10 mul 26 idiv add moveto Tcx uy To add cs 10 mul 26 idiv add lineto
  Tt setlinewidth stroke
  grestore
} bd
/QT {
/Y22 exch store
/X22 exch store
/Y21 exch store
/X21 exch store
currentpoint
/Y21 load 2 mul add 3 div exch
/X21 load 2 mul add 3 div exch
/X21 load 2 mul /X22 load add 3 div
/Y21 load 2 mul /Y22 load add 3 div
/X22 load /Y22 load curveto
} bd
/SSPD {
dup length /d exch dict def
{
/v exch def
/k exch def
currentpagedevice k known {
/cpdv currentpagedevice k get def
v cpdv ne {
/upd false def
/nullv v type /nulltype eq def
/nullcpdv cpdv type /nulltype eq def
nullv nullcpdv or
{
/upd true def
} {
/sametype v type cpdv type eq def
sametype {
v type /arraytype eq {
/vlen v length def
/cpdvlen cpdv length def
vlen cpdvlen eq {
0 1 vlen 1 sub {
/i exch def
/obj v i get def
/cpdobj cpdv i get def
obj cpdobj ne {
/upd true def
exit
} if
} for
} {
/upd true def
} ifelse
} {
v type /dicttype eq {
v {
/dv exch def
/dk exch def
/cpddv cpdv dk get def
dv cpddv ne {
/upd true def
exit
} if
} forall
} {
/upd true def
} ifelse
} ifelse
} if
} ifelse
upd true eq {
d k v put
} if
} if
} if
} forall
d length 0 gt {
d setpagedevice
} if
} bd
%%EndResource
%%BeginResource: procset (Apache XML Graphics EPS ProcSet) 1.0 0
%%Version: 1.0 0
%%Copyright: (Copyright 2002-2003 The Apache Software Foundation. License terms: http://www.apache.org/licenses/LICENSE-2.0)
/BeginEPSF { %def
/b4_Inc_state save def         % Save state for cleanup
/dict_count countdictstack def % Count objects on dict stack
/op_count count 1 sub def      % Count objects on operand stack
userdict begin                 % Push userdict on dict stack
/showpage { } def              % Redefine showpage, { } = null proc
0 setgray 0 setlinecap         % Prepare graphics state
1 setlinewidth 0 setlinejoin
10 setmiterlimit [ ] 0 setdash newpath
/languagelevel where           % If level not equal to 1 then
{pop languagelevel             % set strokeadjust and
1 ne                           % overprint to their defaults.
{false setstrokeadjust false setoverprint
} if
} if
} bd
/EndEPSF { %def
count op_count sub {pop} repeat            % Clean up stacks
countdictstack dict_count sub {end} repeat
b4_Inc_state restore
} bd
%%EndResource
%FOPBeginFontDict
%%IncludeResource: font Courier-Bold
%%IncludeResource: font Helvetica
%%IncludeResource: font Courier-BoldOblique
%%IncludeResource: font Courier-Oblique
%%IncludeResource: font Times-Roman
%%IncludeResource: font Helvetica-BoldOblique
%%IncludeResource: font Helvetica-Bold
%%IncludeResource: font Helvetica-Oblique
%%IncludeResource: font Times-BoldItalic
%%IncludeResource: font Courier
%%IncludeResource: font Times-Italic
%%IncludeResource: font Times-Bold
%%IncludeResource: font Symbol
%%IncludeResource: font ZapfDingbats
%FOPEndFontDict
%%BeginResource: encoding WinAnsiEncoding
/WinAnsiEncoding [
/.notdef /.notdef /.notdef /.notdef /.notdef
/.notdef /.notdef /.notdef /.notdef /.notdef
/.notdef /.notdef /.notdef /.notdef /.notdef
/.notdef /.notdef /.notdef /.notdef /.notdef
/.notdef /.notdef /.notdef /.notdef /.notdef
/.notdef /.notdef /.notdef /.notdef /.notdef
/.notdef /.notdef /space /exclam /quotedbl
/numbersign /dollar /percent /ampersand /quotesingle
/parenleft /parenright /asterisk /plus /comma
/hyphen /period /slash /zero /one
/two /three /four /five /six
/seven /eight /nine /colon /semicolon
/less /equal /greater /question /at
/A /B /C /D /E
/F /G /H /I /J
/K /L /M /N /O
/P /Q /R /S /T
/U /V /W /X /Y
/Z /bracketleft /backslash /bracketright /asciicircum
/underscore /quoteleft /a /b /c
/d /e /f /g /h
/i /j /k /l /m
/n /o /p /q /r
/s /t /u /v /w
/x /y /z /braceleft /bar
/braceright /asciitilde /bullet /Euro /bullet
/quotesinglbase /florin /quotedblbase /ellipsis /dagger
/daggerdbl /circumflex /perthousand /Scaron /guilsinglleft
/OE /bullet /Zcaron /bullet /bullet
/quoteleft /quoteright /quotedblleft /quotedblright /bullet
/endash /emdash /asciitilde /trademark /scaron
/guilsinglright /oe /bullet /zcaron /Ydieresis
/space /exclamdown /cent /sterling /currency
/yen /brokenbar /section /dieresis /copyright
/ordfeminine /guillemotleft /logicalnot /sfthyphen /registered
/macron /degree /plusminus /twosuperior /threesuperior
/acute /mu /paragraph /middot /cedilla
/onesuperior /ordmasculine /guillemotright /onequarter /onehalf
/threequarters /questiondown /Agrave /Aacute /Acircumflex
/Atilde /Adieresis /Aring /AE /Ccedilla
/Egrave /Eacute /Ecircumflex /Edieresis /Igrave
/Iacute /Icircumflex /Idieresis /Eth /Ntilde
/Ograve /Oacute /Ocircumflex /Otilde /Odieresis
/multiply /Oslash /Ugrave /Uacute /Ucircumflex
/Udieresis /Yacute /Thorn /germandbls /agrave
/aacute /acircumflex /atilde /adieresis /aring
/ae /ccedilla /egrave /eacute /ecircumflex
/edieresis /igrave /iacute /icircumflex /idieresis
/eth /ntilde /ograve /oacute /ocircumflex
/otilde /odieresis /divide /oslash /ugrave
/uacute /ucircumflex /udieresis /yacute /thorn
/ydieresis
] def
%%EndResource
%FOPBeginFontReencode
/Courier-Bold findfont
dup length dict begin
  {1 index /FID ne {def} {pop pop} ifelse} forall
  /Encoding WinAnsiEncoding def
  currentdict
end
/Courier-Bold exch definefont pop
/Helvetica findfont
dup length dict begin
  {1 index /FID ne {def} {pop pop} ifelse} forall
  /Encoding WinAnsiEncoding def
  currentdict
end
/Helvetica exch definefont pop
/Courier-BoldOblique findfont
dup length dict begin
  {1 index /FID ne {def} {pop pop} ifelse} forall
  /Encoding WinAnsiEncoding def
  currentdict
end
/Courier-BoldOblique exch definefont pop
/Courier-Oblique findfont
dup length dict begin
  {1 index /FID ne {def} {pop pop} ifelse} forall
  /Encoding WinAnsiEncoding def
  currentdict
end
/Courier-Oblique exch definefont pop
/Times-Roman findfont
dup length dict begin
  {1 index /FID ne {def} {pop pop} ifelse} forall
  /Encoding WinAnsiEncoding def
  currentdict
end
/Times-Roman exch definefont pop
/Helvetica-BoldOblique findfont
dup length dict begin
  {1 index /FID ne {def} {pop pop} ifelse} forall
  /Encoding WinAnsiEncoding def
  currentdict
end
/Helvetica-BoldOblique exch definefont pop
/Helvetica-Bold findfont
dup length dict begin
  {1 index /FID ne {def} {pop pop} ifelse} forall
  /Encoding WinAnsiEncoding def
  currentdict
end
/Helvetica-Bold exch definefont pop
/Helvetica-Oblique findfont
dup length dict begin
  {1 index /FID ne {def} {pop pop} ifelse} forall
  /Encoding WinAnsiEncoding def
  currentdict
end
/Helvetica-Oblique exch definefont pop
/Times-BoldItalic findfont
dup length dict begin
  {1 index /FID ne {def} {pop pop} ifelse} forall
  /Encoding WinAnsiEncoding def
  currentdict
end
/Times-BoldItalic exch definefont pop
/Courier findfont
dup length dict begin
  {1 index /FID ne {def} {pop pop} ifelse} forall
  /Encoding WinAnsiEncoding def
  currentdict
end
/Courier exch definefont pop
/Times-Italic findfont
dup length dict begin
  {1 index /FID ne {def} {pop pop} ifelse} forall
  /Encoding WinAnsiEncoding def
  currentdict
end
/Times-Italic exch definefont pop
/Times-Bold findfont
dup length dict begin
  {1 index /FID ne {def} {pop pop} ifelse} forall
  /Encoding WinAnsiEncoding def
  currentdict
end
/Times-Bold exch definefont pop
%FOPEndFontReencode
%%EndProlog
%%Page: 1 1
%%PageBoundingBox: 0 0 560 420
%%BeginPageSetup
[1 0 0 -1 0 420] CT
%%EndPageSetup
GS
1 GC
N
0 0 560 420 re
f
GR
GS
1 GC
N
0 0 560 420 re
f
GR
GS
1 GC
N
73 372.5 M
507 372.5 L
507 31.5 L
73 31.5 L
cp
f
GR
GS
0.873 GC
1 LJ
0.5 LW
N
73 372.5 M
73 31.5 L
S
GR
GS
0.873 GC
1 LJ
0.5 LW
N
217.667 372.5 M
217.667 31.5 L
S
GR
GS
0.873 GC
1 LJ
0.5 LW
N
362.333 372.5 M
362.333 31.5 L
S
GR
GS
0.873 GC
1 LJ
0.5 LW
N
507 372.5 M
507 31.5 L
S
GR
GS
0.873 GC
1 LJ
0.5 LW
N
507 372.5 M
73 372.5 L
S
GR
GS
0.873 GC
1 LJ
0.5 LW
N
507 334.611 M
73 334.611 L
S
GR
GS
0.873 GC
1 LJ
0.5 LW
N
507 296.722 M
73 296.722 L
S
GR
GS
0.873 GC
1 LJ
0.5 LW
N
507 258.833 M
73 258.833 L
S
GR
GS
0.873 GC
1 LJ
0.5 LW
N
507 220.944 M
73 220.944 L
S
GR
GS
0.873 GC
1 LJ
0.5 LW
N
507 183.056 M
73 183.056 L
S
GR
GS
0.873 GC
1 LJ
0.5 LW
N
507 145.167 M
73 145.167 L
S
GR
GS
0.873 GC
1 LJ
0.5 LW
N
507 107.278 M
73 107.278 L
S
GR
GS
0.873 GC
1 LJ
0.5 LW
N
507 69.389 M
73 69.389 L
S
GR
GS
0.873 GC
1 LJ
0.5 LW
N
507 31.5 M
73 31.5 L
S
GR
GS
0.149 GC
2 setlinecap
1 LJ
0.5 LW
N
73 372.5 M
507 372.5 L
S
GR
GS
0.149 GC
2 setlinecap
1 LJ
0.5 LW
N
73 372.5 M
73 368.16 L
S
GR
GS
0.149 GC
2 setlinecap
1 LJ
0.5 LW
N
217.667 372.5 M
217.667 368.16 L
S
GR
GS
0.149 GC
2 setlinecap
1 LJ
0.5 LW
N
362.333 372.5 M
362.333 368.16 L
S
GR
GS
0.149 GC
2 setlinecap
1 LJ
0.5 LW
N
507 372.5 M
507 368.16 L
S
GR
GS
[1 0 0 1 73 377.29999] CT
0.149 GC
/Helvetica 14 F
GS
[1 0 0 1 0 0] CT
-7 14 moveto 
1 -1 scale
(-2) t 
GR
GR
GS
[1 0 0 1 217.66667 377.29999] CT
0.149 GC
/Helvetica 14 F
GS
[1 0 0 1 0 0] CT
-12.5 14 moveto 
1 -1 scale
(-1.5) t 
GR
GR
GS
[1 0 0 1 362.33334 377.29999] CT
0.149 GC
/Helvetica 14 F
GS
[1 0 0 1 0 0] CT
-7 14 moveto 
1 -1 scale
(-1) t 
GR
GR
GS
[1 0 0 1 507 377.29999] CT
0.149 GC
/Helvetica 14 F
GS
[1 0 0 1 0 0] CT
-12.5 14 moveto 
1 -1 scale
(-0.5) t 
GR
GR
GS
[1 0 0 1 241 410] CT
0.149 GC
/Helvetica 15 F
GS
[1 0 0 1 0 0] CT
0 0 moveto 
1 -1 scale
(log) t 
GR
GR
GS
[1 0 0 1 262 417] CT
0.149 GC
/Helvetica 12 F
GS
[1 0 0 1 0 0] CT
0 0 moveto 
1 -1 scale
(10) t 
GR
GR
GS
[1 0 0 1 276 410] CT
0.149 GC
/Helvetica 15 F
GS
[1 0 0 1 0 0] CT
0 0 moveto 
1 -1 scale
(\(1/nElem\)) t 
GR
GR
GS
0.149 GC
2 setlinecap
1 LJ
0.5 LW
N
73 372.5 M
73 31.5 L
S
GR
GS
0.149 GC
2 setlinecap
1 LJ
0.5 LW
N
73 372.5 M
77.34 372.5 L
S
GR
GS
0.149 GC
2 setlinecap
1 LJ
0.5 LW
N
73 334.611 M
77.34 334.611 L
S
GR
GS
0.149 GC
2 setlinecap
1 LJ
0.5 LW
N
73 296.722 M
77.34 296.722 L
S
GR
GS
0.149 GC
2 setlinecap
1 LJ
0.5 LW
N
73 258.833 M
77.34 258.833 L
S
GR
GS
0.149 GC
2 setlinecap
1 LJ
0.5 LW
N
73 220.944 M
77.34 220.944 L
S
GR
GS
0.149 GC
2 setlinecap
1 LJ
0.5 LW
N
73 183.056 M
77.34 183.056 L
S
GR
GS
0.149 GC
2 setlinecap
1 LJ
0.5 LW
N
73 145.167 M
77.34 145.167 L
S
GR
GS
0.149 GC
2 setlinecap
1 LJ
0.5 LW
N
73 107.278 M
77.34 107.278 L
S
GR
GS
0.149 GC
2 setlinecap
1 LJ
0.5 LW
N
73 69.389 M
77.34 69.389 L
S
GR
GS
0.149 GC
2 setlinecap
1 LJ
0.5 LW
N
73 31.5 M
77.34 31.5 L
S
GR
GS
[1 0 0 1 68.2 372.5] CT
0.149 GC
/Helvetica 14 F
GS
[1 0 0 1 0 0] CT
-22 5.5 moveto 
1 -1 scale
(-18) t 
GR
GR
GS
[1 0 0 1 68.2 334.61111] CT
0.149 GC
/Helvetica 14 F
GS
[1 0 0 1 0 0] CT
-22 5.5 moveto 
1 -1 scale
(-16) t 
GR
GR
GS
[1 0 0 1 68.2 296.72223] CT
0.149 GC
/Helvetica 14 F
GS
[1 0 0 1 0 0] CT
-22 5.5 moveto 
1 -1 scale
(-14) t 
GR
GR
GS
[1 0 0 1 68.2 258.83334] CT
0.149 GC
/Helvetica 14 F
GS
[1 0 0 1 0 0] CT
-22 5.5 moveto 
1 -1 scale
(-12) t 
GR
GR
GS
[1 0 0 1 68.2 220.94444] CT
0.149 GC
/Helvetica 14 F
GS
[1 0 0 1 0 0] CT
-22 5.5 moveto 
1 -1 scale
(-10) t 
GR
GR
GS
[1 0 0 1 68.2 183.05556] CT
0.149 GC
/Helvetica 14 F
GS
[1 0 0 1 0 0] CT
-14 5.5 moveto 
1 -1 scale
(-8) t 
GR
GR
GS
[1 0 0 1 68.2 145.16667] CT
0.149 GC
/Helvetica 14 F
GS
[1 0 0 1 0 0] CT
-14 5.5 moveto 
1 -1 scale
(-6) t 
GR
GR
GS
[1 0 0 1 68.2 107.27778] CT
0.149 GC
/Helvetica 14 F
GS
[1 0 0 1 0 0] CT
-14 5.5 moveto 
1 -1 scale
(-4) t 
GR
GR
GS
[1 0 0 1 68.2 69.38889] CT
0.149 GC
/Helvetica 14 F
GS
[1 0 0 1 0 0] CT
-14 5.5 moveto 
1 -1 scale
(-2) t 
GR
GR
GS
[1 0 0 1 68.2 31.5] CT
0.149 GC
/Helvetica 14 F
GS
[1 0 0 1 0 0] CT
-8 5.5 moveto 
1 -1 scale
(0) t 
GR
GR
GS
[0 -1 1 0 34 279] CT
0.149 GC
/Helvetica 15 F
GS
[1 0 0 1 0 0] CT
0 0 moveto 
1 -1 scale
(log) t 
GR
GR
GS
[0 -1 1 0 41 258] CT
0.149 GC
/Helvetica 12 F
GS
[1 0 0 1 0 0] CT
0 0 moveto 
1 -1 scale
(10) t 
GR
GR
GS
[0 -1 1 0 34 244] CT
0.149 GC
/Helvetica 15 F
GS
[1 0 0 1 0 0] CT
0 0 moveto 
1 -1 scale
(\(Solution L) t 
GR
GR
GS
[0 -1 1 0 41 172] CT
0.149 GC
/Helvetica 12 F
GS
[1 0 0 1 0 0] CT
0 0 moveto 
1 -1 scale
(2) t 
GR
GR
GS
[0 -1 1 0 34 165] CT
0.149 GC
/Helvetica 15 F
GS
[1 0 0 1 0 0] CT
0 0 moveto 
1 -1 scale
( error\)) t 
GR
GR
GS
1 0 0 RC
1 LJ
0.5 LW
N
477.471 65.669 M
390.373 72.266 L
303.275 79.249 L
216.177 85.979 L
129.079 92.38 L
S
GR
GS
1 0 0 RC
1 LJ
N
474 65.5 M
481 65.5 L
S
GR
GS
1 0 0 RC
1 LJ
N
477.5 69 M
477.5 62 L
S
GR
GS
1 0 0 RC
1 LJ
N
387 72.5 M
394 72.5 L
S
GR
GS
1 0 0 RC
1 LJ
N
390.5 76 M
390.5 69 L
S
GR
GS
1 0 0 RC
1 LJ
N
300 79.5 M
307 79.5 L
S
GR
GS
1 0 0 RC
1 LJ
N
303.5 83 M
303.5 76 L
S
GR
GS
1 0 0 RC
1 LJ
N
213 85.5 M
220 85.5 L
S
GR
GS
1 0 0 RC
1 LJ
N
216.5 89 M
216.5 82 L
S
GR
GS
1 0 0 RC
1 LJ
N
126 92.5 M
133 92.5 L
S
GR
GS
1 0 0 RC
1 LJ
N
129.5 96 M
129.5 89 L
S
GR
GS
0 0 1 RC
1 LJ
0.5 LW
N
477.471 99.023 M
390.373 110.606 L
303.275 122.137 L
216.177 133.602 L
129.079 145.036 L
S
GR
GS
0 0 1 RC
1 LJ
N
480.5 99.5 M
479.621 97.379 L
477.5 96.5 L
475.379 97.379 L
474.5 99.5 L
475.379 101.621 L
477.5 102.5 L
479.621 101.621 L
cp
S
GR
GS
0 0 1 RC
1 LJ
N
393.5 110.5 M
392.621 108.379 L
390.5 107.5 L
388.379 108.379 L
387.5 110.5 L
388.379 112.621 L
390.5 113.5 L
392.621 112.621 L
cp
S
GR
GS
0 0 1 RC
1 LJ
N
306.5 122.5 M
305.621 120.379 L
303.5 119.5 L
301.379 120.379 L
300.5 122.5 L
301.379 124.621 L
303.5 125.5 L
305.621 124.621 L
cp
S
GR
GS
0 0 1 RC
1 LJ
N
219.5 133.5 M
218.621 131.379 L
216.5 130.5 L
214.379 131.379 L
213.5 133.5 L
214.379 135.621 L
216.5 136.5 L
218.621 135.621 L
cp
S
GR
GS
0 0 1 RC
1 LJ
N
132.5 145.5 M
131.621 143.379 L
129.5 142.5 L
127.379 143.379 L
126.5 145.5 L
127.379 147.621 L
129.5 148.5 L
131.621 147.621 L
cp
S
GR
GS
1 LJ
0.5 LW
N
477.471 133.834 M
390.373 151.236 L
303.275 168.565 L
216.177 185.772 L
129.079 202.926 L
S
GR
GS
10.0 ML
N
477.5 137.499 M
480.5 133.5 L
477.5 129.501 L
474.5 133.5 L
cp
S
GR
GS
10.0 ML
N
390.5 155.499 M
393.5 151.5 L
390.5 147.501 L
387.5 151.5 L
cp
S
GR
GS
10.0 ML
N
303.5 172.499 M
306.5 168.5 L
303.5 164.501 L
300.5 168.5 L
cp
S
GR
GS
10.0 ML
N
216.5 189.499 M
219.5 185.5 L
216.5 181.501 L
213.5 185.5 L
cp
S
GR
GS
10.0 ML
N
129.5 206.499 M
132.5 202.5 L
129.5 198.501 L
126.5 202.5 L
cp
S
GR
GS
1 0 1 RC
1 LJ
0.5 LW
N
477.471 172.966 M
390.373 196.121 L
303.275 219.128 L
216.177 242.032 L
129.079 264.877 L
S
GR
GS
1 0 1 RC
1 LJ
N
474 172.5 M
481 172.5 L
S
GR
GS
1 0 1 RC
1 LJ
N
477.5 176 M
477.5 169 L
S
GR
GS
1 0 1 RC
1 LJ
N
475 175 M
480 170 L
S
GR
GS
1 0 1 RC
1 LJ
N
475 170 M
480 175 L
S
GR
GS
1 0 1 RC
1 LJ
N
387 196.5 M
394 196.5 L
S
GR
GS
1 0 1 RC
1 LJ
N
390.5 200 M
390.5 193 L
S
GR
GS
1 0 1 RC
1 LJ
N
388 199 M
393 194 L
S
GR
GS
1 0 1 RC
1 LJ
N
388 194 M
393 199 L
S
GR
GS
1 0 1 RC
1 LJ
N
300 219.5 M
307 219.5 L
S
GR
GS
1 0 1 RC
1 LJ
N
303.5 223 M
303.5 216 L
S
GR
GS
1 0 1 RC
1 LJ
N
301 222 M
306 217 L
S
GR
GS
1 0 1 RC
1 LJ
N
301 217 M
306 222 L
S
GR
GS
1 0 1 RC
1 LJ
N
213 242.5 M
220 242.5 L
S
GR
GS
1 0 1 RC
1 LJ
N
216.5 246 M
216.5 239 L
S
GR
GS
1 0 1 RC
1 LJ
N
214 245 M
219 240 L
S
GR
GS
1 0 1 RC
1 LJ
N
214 240 M
219 245 L
S
GR
GS
1 0 1 RC
1 LJ
N
126 264.5 M
133 264.5 L
S
GR
GS
1 0 1 RC
1 LJ
N
129.5 268 M
129.5 261 L
S
GR
GS
1 0 1 RC
1 LJ
N
127 267 M
132 262 L
S
GR
GS
1 0 1 RC
1 LJ
N
127 262 M
132 267 L
S
GR
GS
0 1 0 RC
1 LJ
0.5 LW
N
477.471 215.227 M
390.373 243.324 L
303.275 271.473 L
216.177 298.652 L
129.079 314.281 L
S
GR
GS
0 1 0 RC
1 LJ
N
475 218 M
480 213 L
S
GR
GS
0 1 0 RC
1 LJ
N
475 213 M
480 218 L
S
GR
GS
0 1 0 RC
1 LJ
N
388 246 M
393 241 L
S
GR
GS
0 1 0 RC
1 LJ
N
388 241 M
393 246 L
S
GR
GS
0 1 0 RC
1 LJ
N
301 274 M
306 269 L
S
GR
GS
0 1 0 RC
1 LJ
N
301 269 M
306 274 L
S
GR
GS
0 1 0 RC
1 LJ
N
214 301 M
219 296 L
S
GR
GS
0 1 0 RC
1 LJ
N
214 296 M
219 301 L
S
GR
GS
0 1 0 RC
1 LJ
N
127 317 M
132 312 L
S
GR
GS
0 1 0 RC
1 LJ
N
127 312 M
132 317 L
S
GR
GS
1 0 0 RC
[10 6] 0 setdash
2 LJ
0.5 LW
N
477.471 65.669 M
390.373 72.266 L
303.275 79.249 L
216.177 85.979 L
129.079 92.38 L
S
GR
GS
1 0 0 RC
1 LJ
N
474 65.5 M
481 65.5 L
S
GR
GS
1 0 0 RC
1 LJ
N
477.5 69 M
477.5 62 L
S
GR
GS
1 0 0 RC
1 LJ
N
387 72.5 M
394 72.5 L
S
GR
GS
1 0 0 RC
1 LJ
N
390.5 76 M
390.5 69 L
S
GR
GS
1 0 0 RC
1 LJ
N
300 79.5 M
307 79.5 L
S
GR
GS
1 0 0 RC
1 LJ
N
303.5 83 M
303.5 76 L
S
GR
GS
1 0 0 RC
1 LJ
N
213 85.5 M
220 85.5 L
S
GR
GS
1 0 0 RC
1 LJ
N
216.5 89 M
216.5 82 L
S
GR
GS
1 0 0 RC
1 LJ
N
126 92.5 M
133 92.5 L
S
GR
GS
1 0 0 RC
1 LJ
N
129.5 96 M
129.5 89 L
S
GR
GS
0 0 1 RC
[10 6] 0 setdash
2 LJ
0.5 LW
N
477.471 99.023 M
390.373 110.606 L
303.275 122.137 L
216.177 133.602 L
129.079 145.036 L
S
GR
GS
0 0 1 RC
1 LJ
N
480.5 99.5 M
479.621 97.379 L
477.5 96.5 L
475.379 97.379 L
474.5 99.5 L
475.379 101.621 L
477.5 102.5 L
479.621 101.621 L
cp
S
GR
GS
0 0 1 RC
1 LJ
N
393.5 110.5 M
392.621 108.379 L
390.5 107.5 L
388.379 108.379 L
387.5 110.5 L
388.379 112.621 L
390.5 113.5 L
392.621 112.621 L
cp
S
GR
GS
0 0 1 RC
1 LJ
N
306.5 122.5 M
305.621 120.379 L
303.5 119.5 L
301.379 120.379 L
300.5 122.5 L
301.379 124.621 L
303.5 125.5 L
305.621 124.621 L
cp
S
GR
GS
0 0 1 RC
1 LJ
N
219.5 133.5 M
218.621 131.379 L
216.5 130.5 L
214.379 131.379 L
213.5 133.5 L
214.379 135.621 L
216.5 136.5 L
218.621 135.621 L
cp
S
GR
GS
0 0 1 RC
1 LJ
N
132.5 145.5 M
131.621 143.379 L
129.5 142.5 L
127.379 143.379 L
126.5 145.5 L
127.379 147.621 L
129.5 148.5 L
131.621 147.621 L
cp
S
GR
GS
[10 6] 0 setdash
2 LJ
0.5 LW
N
477.471 133.834 M
390.373 151.236 L
303.275 168.565 L
216.177 185.772 L
129.079 202.926 L
S
GR
GS
10.0 ML
N
477.5 137.499 M
480.5 133.5 L
477.5 129.501 L
474.5 133.5 L
cp
S
GR
GS
10.0 ML
N
390.5 155.499 M
393.5 151.5 L
390.5 147.501 L
387.5 151.5 L
cp
S
GR
GS
10.0 ML
N
303.5 172.499 M
306.5 168.5 L
303.5 164.501 L
300.5 168.5 L
cp
S
GR
GS
10.0 ML
N
216.5 189.499 M
219.5 185.5 L
216.5 181.501 L
213.5 185.5 L
cp
S
GR
GS
10.0 ML
N
129.5 206.499 M
132.5 202.5 L
129.5 198.501 L
126.5 202.5 L
cp
S
GR
GS
1 0 1 RC
[10 6] 0 setdash
2 LJ
0.5 LW
N
477.471 172.966 M
390.373 196.121 L
303.275 219.128 L
216.177 242.033 L
129.079 264.862 L
S
GR
GS
1 0 1 RC
1 LJ
N
474 172.5 M
481 172.5 L
S
GR
GS
1 0 1 RC
1 LJ
N
477.5 176 M
477.5 169 L
S
GR
GS
1 0 1 RC
1 LJ
N
475 175 M
480 170 L
S
GR
GS
1 0 1 RC
1 LJ
N
475 170 M
480 175 L
S
GR
GS
1 0 1 RC
1 LJ
N
387 196.5 M
394 196.5 L
S
GR
GS
1 0 1 RC
1 LJ
N
390.5 200 M
390.5 193 L
S
GR
GS
1 0 1 RC
1 LJ
N
388 199 M
393 194 L
S
GR
GS
1 0 1 RC
1 LJ
N
388 194 M
393 199 L
S
GR
GS
1 0 1 RC
1 LJ
N
300 219.5 M
307 219.5 L
S
GR
GS
1 0 1 RC
1 LJ
N
303.5 223 M
303.5 216 L
S
GR
GS
1 0 1 RC
1 LJ
N
301 222 M
306 217 L
S
GR
GS
1 0 1 RC
1 LJ
N
301 217 M
306 222 L
S
GR
GS
1 0 1 RC
1 LJ
N
213 242.5 M
220 242.5 L
S
GR
GS
1 0 1 RC
1 LJ
N
216.5 246 M
216.5 239 L
S
GR
GS
1 0 1 RC
1 LJ
N
214 245 M
219 240 L
S
GR
GS
1 0 1 RC
1 LJ
N
214 240 M
219 245 L
S
GR
GS
1 0 1 RC
1 LJ
N
126 264.5 M
133 264.5 L
S
GR
GS
1 0 1 RC
1 LJ
N
129.5 268 M
129.5 261 L
S
GR
GS
1 0 1 RC
1 LJ
N
127 267 M
132 262 L
S
GR
GS
1 0 1 RC
1 LJ
N
127 262 M
132 267 L
S
GR
GS
0 1 0 RC
[10 6] 0 setdash
2 LJ
0.5 LW
N
477.471 215.227 M
390.373 243.324 L
303.275 271.497 L
216.177 299.147 L
129.079 318.177 L
S
GR
GS
0 1 0 RC
1 LJ
N
475 218 M
480 213 L
S
GR
GS
0 1 0 RC
1 LJ
N
475 213 M
480 218 L
S
GR
GS
0 1 0 RC
1 LJ
N
388 246 M
393 241 L
S
GR
GS
0 1 0 RC
1 LJ
N
388 241 M
393 246 L
S
GR
GS
0 1 0 RC
1 LJ
N
301 274 M
306 269 L
S
GR
GS
0 1 0 RC
1 LJ
N
301 269 M
306 274 L
S
GR
GS
0 1 0 RC
1 LJ
N
214 302 M
219 297 L
S
GR
GS
0 1 0 RC
1 LJ
N
214 297 M
219 302 L
S
GR
GS
0 1 0 RC
1 LJ
N
127 321 M
132 316 L
S
GR
GS
0 1 0 RC
1 LJ
N
127 316 M
132 321 L
S
GR
GS
1 0 0 RC
[8 3 2 3] 0 setdash
2 LJ
0.5 LW
N
477.471 65.669 M
390.373 72.266 L
303.275 79.249 L
216.177 85.979 L
129.079 92.38 L
S
GR
GS
1 0 0 RC
1 LJ
N
474 65.5 M
481 65.5 L
S
GR
GS
1 0 0 RC
1 LJ
N
477.5 69 M
477.5 62 L
S
GR
GS
1 0 0 RC
1 LJ
N
387 72.5 M
394 72.5 L
S
GR
GS
1 0 0 RC
1 LJ
N
390.5 76 M
390.5 69 L
S
GR
GS
1 0 0 RC
1 LJ
N
300 79.5 M
307 79.5 L
S
GR
GS
1 0 0 RC
1 LJ
N
303.5 83 M
303.5 76 L
S
GR
GS
1 0 0 RC
1 LJ
N
213 85.5 M
220 85.5 L
S
GR
GS
1 0 0 RC
1 LJ
N
216.5 89 M
216.5 82 L
S
GR
GS
1 0 0 RC
1 LJ
N
126 92.5 M
133 92.5 L
S
GR
GS
1 0 0 RC
1 LJ
N
129.5 96 M
129.5 89 L
S
GR
GS
0 0 1 RC
[8 3 2 3] 0 setdash
2 LJ
0.5 LW
N
477.471 99.021 M
390.373 110.605 L
303.275 122.137 L
216.177 133.602 L
129.079 145.036 L
S
GR
GS
0 0 1 RC
1 LJ
N
480.5 99.5 M
479.621 97.379 L
477.5 96.5 L
475.379 97.379 L
474.5 99.5 L
475.379 101.621 L
477.5 102.5 L
479.621 101.621 L
cp
S
GR
GS
0 0 1 RC
1 LJ
N
393.5 110.5 M
392.621 108.379 L
390.5 107.5 L
388.379 108.379 L
387.5 110.5 L
388.379 112.621 L
390.5 113.5 L
392.621 112.621 L
cp
S
GR
GS
0 0 1 RC
1 LJ
N
306.5 122.5 M
305.621 120.379 L
303.5 119.5 L
301.379 120.379 L
300.5 122.5 L
301.379 124.621 L
303.5 125.5 L
305.621 124.621 L
cp
S
GR
GS
0 0 1 RC
1 LJ
N
219.5 133.5 M
218.621 131.379 L
216.5 130.5 L
214.379 131.379 L
213.5 133.5 L
214.379 135.621 L
216.5 136.5 L
218.621 135.621 L
cp
S
GR
GS
0 0 1 RC
1 LJ
N
132.5 145.5 M
131.621 143.379 L
129.5 142.5 L
127.379 143.379 L
126.5 145.5 L
127.379 147.621 L
129.5 148.5 L
131.621 147.621 L
cp
S
GR
GS
[8 3 2 3] 0 setdash
2 LJ
0.5 LW
N
477.471 132.053 M
390.373 149.398 L
303.275 166.703 L
216.177 183.897 L
129.079 201.045 L
S
GR
GS
10.0 ML
N
477.5 136.499 M
480.5 132.5 L
477.5 128.501 L
474.5 132.5 L
cp
S
GR
GS
10.0 ML
N
390.5 153.499 M
393.5 149.5 L
390.5 145.501 L
387.5 149.5 L
cp
S
GR
GS
10.0 ML
N
303.5 170.499 M
306.5 166.5 L
303.5 162.501 L
300.5 166.5 L
cp
S
GR
GS
10.0 ML
N
216.5 187.499 M
219.5 183.5 L
216.5 179.501 L
213.5 183.5 L
cp
S
GR
GS
10.0 ML
N
129.5 205.499 M
132.5 201.5 L
129.5 197.501 L
126.5 201.5 L
cp
S
GR
GS
1 0 1 RC
[8 3 2 3] 0 setdash
2 LJ
0.5 LW
N
477.471 170.899 M
390.373 194.034 L
303.275 217.027 L
216.177 239.926 L
129.079 262.763 L
S
GR
GS
1 0 1 RC
1 LJ
N
474 170.5 M
481 170.5 L
S
GR
GS
1 0 1 RC
1 LJ
N
477.5 174 M
477.5 167 L
S
GR
GS
1 0 1 RC
1 LJ
N
475 173 M
480 168 L
S
GR
GS
1 0 1 RC
1 LJ
N
475 168 M
480 173 L
S
GR
GS
1 0 1 RC
1 LJ
N
387 194.5 M
394 194.5 L
S
GR
GS
1 0 1 RC
1 LJ
N
390.5 198 M
390.5 191 L
S
GR
GS
1 0 1 RC
1 LJ
N
388 197 M
393 192 L
S
GR
GS
1 0 1 RC
1 LJ
N
388 192 M
393 197 L
S
GR
GS
1 0 1 RC
1 LJ
N
300 217.5 M
307 217.5 L
S
GR
GS
1 0 1 RC
1 LJ
N
303.5 221 M
303.5 214 L
S
GR
GS
1 0 1 RC
1 LJ
N
301 220 M
306 215 L
S
GR
GS
1 0 1 RC
1 LJ
N
301 215 M
306 220 L
S
GR
GS
1 0 1 RC
1 LJ
N
213 239.5 M
220 239.5 L
S
GR
GS
1 0 1 RC
1 LJ
N
216.5 243 M
216.5 236 L
S
GR
GS
1 0 1 RC
1 LJ
N
214 242 M
219 237 L
S
GR
GS
1 0 1 RC
1 LJ
N
214 237 M
219 242 L
S
GR
GS
1 0 1 RC
1 LJ
N
126 262.5 M
133 262.5 L
S
GR
GS
1 0 1 RC
1 LJ
N
129.5 266 M
129.5 259 L
S
GR
GS
1 0 1 RC
1 LJ
N
127 265 M
132 260 L
S
GR
GS
1 0 1 RC
1 LJ
N
127 260 M
132 265 L
S
GR
GS
0 1 0 RC
[8 3 2 3] 0 setdash
2 LJ
0.5 LW
N
477.471 200.967 M
390.373 223.939 L
303.275 246.902 L
216.177 269.815 L
129.079 293.077 L
S
GR
GS
0 1 0 RC
1 LJ
N
475 203 M
480 198 L
S
GR
GS
0 1 0 RC
1 LJ
N
475 198 M
480 203 L
S
GR
GS
0 1 0 RC
1 LJ
N
388 226 M
393 221 L
S
GR
GS
0 1 0 RC
1 LJ
N
388 221 M
393 226 L
S
GR
GS
0 1 0 RC
1 LJ
N
301 249 M
306 244 L
S
GR
GS
0 1 0 RC
1 LJ
N
301 244 M
306 249 L
S
GR
GS
0 1 0 RC
1 LJ
N
214 272 M
219 267 L
S
GR
GS
0 1 0 RC
1 LJ
N
214 267 M
219 272 L
S
GR
GS
0 1 0 RC
1 LJ
N
127 296 M
132 291 L
S
GR
GS
0 1 0 RC
1 LJ
N
127 291 M
132 296 L
S
GR
GS
1 0 0 RC
[1 3] 0 setdash
2 LJ
0.5 LW
N
477.471 65.669 M
390.373 72.266 L
303.275 79.249 L
216.177 85.979 L
129.079 92.38 L
S
GR
GS
1 0 0 RC
1 LJ
N
474 65.5 M
481 65.5 L
S
GR
GS
1 0 0 RC
1 LJ
N
477.5 69 M
477.5 62 L
S
GR
GS
1 0 0 RC
1 LJ
N
387 72.5 M
394 72.5 L
S
GR
GS
1 0 0 RC
1 LJ
N
390.5 76 M
390.5 69 L
S
GR
GS
1 0 0 RC
1 LJ
N
300 79.5 M
307 79.5 L
S
GR
GS
1 0 0 RC
1 LJ
N
303.5 83 M
303.5 76 L
S
GR
GS
1 0 0 RC
1 LJ
N
213 85.5 M
220 85.5 L
S
GR
GS
1 0 0 RC
1 LJ
N
216.5 89 M
216.5 82 L
S
GR
GS
1 0 0 RC
1 LJ
N
126 92.5 M
133 92.5 L
S
GR
GS
1 0 0 RC
1 LJ
N
129.5 96 M
129.5 89 L
S
GR
GS
0 0 1 RC
[1 3] 0 setdash
2 LJ
0.5 LW
N
477.471 99.023 M
390.373 110.606 L
303.275 122.137 L
216.177 133.602 L
129.079 145.036 L
S
GR
GS
0 0 1 RC
1 LJ
N
480.5 99.5 M
479.621 97.379 L
477.5 96.5 L
475.379 97.379 L
474.5 99.5 L
475.379 101.621 L
477.5 102.5 L
479.621 101.621 L
cp
S
GR
GS
0 0 1 RC
1 LJ
N
393.5 110.5 M
392.621 108.379 L
390.5 107.5 L
388.379 108.379 L
387.5 110.5 L
388.379 112.621 L
390.5 113.5 L
392.621 112.621 L
cp
S
GR
GS
0 0 1 RC
1 LJ
N
306.5 122.5 M
305.621 120.379 L
303.5 119.5 L
301.379 120.379 L
300.5 122.5 L
301.379 124.621 L
303.5 125.5 L
305.621 124.621 L
cp
S
GR
GS
0 0 1 RC
1 LJ
N
219.5 133.5 M
218.621 131.379 L
216.5 130.5 L
214.379 131.379 L
213.5 133.5 L
214.379 135.621 L
216.5 136.5 L
218.621 135.621 L
cp
S
GR
GS
0 0 1 RC
1 LJ
N
132.5 145.5 M
131.621 143.379 L
129.5 142.5 L
127.379 143.379 L
126.5 145.5 L
127.379 147.621 L
129.5 148.5 L
131.621 147.621 L
cp
S
GR
GS
[1 3] 0 setdash
2 LJ
0.5 LW
N
477.471 133.833 M
390.373 151.236 L
303.275 168.565 L
216.177 185.772 L
129.079 202.926 L
S
GR
GS
10.0 ML
N
477.5 137.499 M
480.5 133.5 L
477.5 129.501 L
474.5 133.5 L
cp
S
GR
GS
10.0 ML
N
390.5 155.499 M
393.5 151.5 L
390.5 147.501 L
387.5 151.5 L
cp
S
GR
GS
10.0 ML
N
303.5 172.499 M
306.5 168.5 L
303.5 164.501 L
300.5 168.5 L
cp
S
GR
GS
10.0 ML
N
216.5 189.499 M
219.5 185.5 L
216.5 181.501 L
213.5 185.5 L
cp
S
GR
GS
10.0 ML
N
129.5 206.499 M
132.5 202.5 L
129.5 198.501 L
126.5 202.5 L
cp
S
GR
GS
1 0 1 RC
[1 3] 0 setdash
2 LJ
0.5 LW
N
477.471 172.923 M
390.373 196.066 L
303.275 219.072 L
216.177 241.977 L
129.079 264.835 L
S
GR
GS
1 0 1 RC
1 LJ
N
474 172.5 M
481 172.5 L
S
GR
GS
1 0 1 RC
1 LJ
N
477.5 176 M
477.5 169 L
S
GR
GS
1 0 1 RC
1 LJ
N
475 175 M
480 170 L
S
GR
GS
1 0 1 RC
1 LJ
N
475 170 M
480 175 L
S
GR
GS
1 0 1 RC
1 LJ
N
387 196.5 M
394 196.5 L
S
GR
GS
1 0 1 RC
1 LJ
N
390.5 200 M
390.5 193 L
S
GR
GS
1 0 1 RC
1 LJ
N
388 199 M
393 194 L
S
GR
GS
1 0 1 RC
1 LJ
N
388 194 M
393 199 L
S
GR
GS
1 0 1 RC
1 LJ
N
300 219.5 M
307 219.5 L
S
GR
GS
1 0 1 RC
1 LJ
N
303.5 223 M
303.5 216 L
S
GR
GS
1 0 1 RC
1 LJ
N
301 222 M
306 217 L
S
GR
GS
1 0 1 RC
1 LJ
N
301 217 M
306 222 L
S
GR
GS
1 0 1 RC
1 LJ
N
213 241.5 M
220 241.5 L
S
GR
GS
1 0 1 RC
1 LJ
N
216.5 245 M
216.5 238 L
S
GR
GS
1 0 1 RC
1 LJ
N
214 244 M
219 239 L
S
GR
GS
1 0 1 RC
1 LJ
N
214 239 M
219 244 L
S
GR
GS
1 0 1 RC
1 LJ
N
126 264.5 M
133 264.5 L
S
GR
GS
1 0 1 RC
1 LJ
N
129.5 268 M
129.5 261 L
S
GR
GS
1 0 1 RC
1 LJ
N
127 267 M
132 262 L
S
GR
GS
1 0 1 RC
1 LJ
N
127 262 M
132 267 L
S
GR
GS
0 1 0 RC
[1 3] 0 setdash
2 LJ
0.5 LW
N
477.471 205.93 M
390.373 230.858 L
303.275 254.791 L
216.177 278.085 L
129.079 300.239 L
S
GR
GS
0 1 0 RC
1 LJ
N
475 208 M
480 203 L
S
GR
GS
0 1 0 RC
1 LJ
N
475 203 M
480 208 L
S
GR
GS
0 1 0 RC
1 LJ
N
388 233 M
393 228 L
S
GR
GS
0 1 0 RC
1 LJ
N
388 228 M
393 233 L
S
GR
GS
0 1 0 RC
1 LJ
N
301 257 M
306 252 L
S
GR
GS
0 1 0 RC
1 LJ
N
301 252 M
306 257 L
S
GR
GS
0 1 0 RC
1 LJ
N
214 281 M
219 276 L
S
GR
GS
0 1 0 RC
1 LJ
N
214 276 M
219 281 L
S
GR
GS
0 1 0 RC
1 LJ
N
127 303 M
132 298 L
S
GR
GS
0 1 0 RC
1 LJ
N
127 298 M
132 303 L
S
GR
GS
1 GC
N
428.5 356 M
428.5 275 L
498.5 275 L
498.5 356 L
cp
f
GR
GS
[1 0 0 1 465.5 284.5] CT
/Helvetica 12.6 F
GS
[1 0 0 1 0 0] CT
0 5 moveto 
1 -1 scale
(p = 0) t 
GR
GR
GS
1 0 0 RC
1 LJ
0.5 LW
N
432.5 284.5 M
462.5 284.5 L
S
GR
GS
1 0 0 RC
1 LJ
N
444 284.5 M
451 284.5 L
S
GR
GS
1 0 0 RC
1 LJ
N
447.5 288 M
447.5 281 L
S
GR
GS
[1 0 0 1 465.5 300] CT
/Helvetica 12.6 F
GS
[1 0 0 1 0 0] CT
0 5 moveto 
1 -1 scale
(p = 1) t 
GR
GR
GS
0 0 1 RC
1 LJ
0.5 LW
N
432.5 300 M
462.5 300 L
S
GR
GS
0 0 1 RC
1 LJ
N
450.5 299.5 M
449.621 297.379 L
447.5 296.5 L
445.379 297.379 L
444.5 299.5 L
445.379 301.621 L
447.5 302.5 L
449.621 301.621 L
cp
S
GR
GS
[1 0 0 1 465.5 315.5] CT
/Helvetica 12.6 F
GS
[1 0 0 1 0 0] CT
0 5 moveto 
1 -1 scale
(p = 2) t 
GR
GR
GS
1 LJ
0.5 LW
N
432.5 315.5 M
462.5 315.5 L
S
GR
GS
10.0 ML
N
447.5 319.499 M
450.5 315.5 L
447.5 311.501 L
444.5 315.5 L
cp
S
GR
GS
[1 0 0 1 465.5 331] CT
/Helvetica 12.6 F
GS
[1 0 0 1 0 0] CT
0 5 moveto 
1 -1 scale
(p = 3) t 
GR
GR
GS
1 0 1 RC
1 LJ
0.5 LW
N
432.5 331 M
462.5 331 L
S
GR
GS
1 0 1 RC
1 LJ
N
444 331.5 M
451 331.5 L
S
GR
GS
1 0 1 RC
1 LJ
N
447.5 335 M
447.5 328 L
S
GR
GS
1 0 1 RC
1 LJ
N
445 334 M
450 329 L
S
GR
GS
1 0 1 RC
1 LJ
N
445 329 M
450 334 L
S
GR
GS
[1 0 0 1 465.5 346.5] CT
/Helvetica 12.6 F
GS
[1 0 0 1 0 0] CT
0 5 moveto 
1 -1 scale
(p = 4) t 
GR
GR
GS
0 1 0 RC
1 LJ
0.5 LW
N
432.5 346.5 M
462.5 346.5 L
S
GR
GS
0 1 0 RC
1 LJ
N
445 349 M
450 344 L
S
GR
GS
0 1 0 RC
1 LJ
N
445 344 M
450 349 L
S
GR
GS
0.149 GC
10.0 ML
0.5 LW
N
428.5 356 M
428.5 275 L
498.5 275 L
498.5 356 L
cp
S
GR
%%Trailer
%%Pages: 1
%%EOF
