%!PS-Adobe-3.0 EPSF-3.0
%%Creator: (MATLAB, The Mathworks, Inc. Version 9.0.0.341360 \(R2016a\). Operating System: Mac OS X)
%%Title: ./SWE2D_TiltedLine_DGAdvectiveNonLift.eps
%%CreationDate: 2016-06-27T10:37:12
%%Pages: (atend)
%%BoundingBox:    22     2   519   393
%%LanguageLevel: 2
%%EndComments
%%BeginProlog
%%BeginResource: procset (Apache XML Graphics Std ProcSet) 1.2 0
%%Version: 1.2 0
%%Copyright: (Copyright 2001-2003,2010 The Apache Software Foundation. License terms: http://www.apache.org/licenses/LICENSE-2.0)
/bd{bind def}bind def
/ld{load def}bd
/GR/grestore ld
/M/moveto ld
/LJ/setlinejoin ld
/C/curveto ld
/f/fill ld
/LW/setlinewidth ld
/GC/setgray ld
/t/show ld
/N/newpath ld
/CT/concat ld
/cp/closepath ld
/S/stroke ld
/L/lineto ld
/CC/setcmykcolor ld
/A/ashow ld
/GS/gsave ld
/RC/setrgbcolor ld
/RM/rmoveto ld
/ML/setmiterlimit ld
/re {4 2 roll M
1 index 0 rlineto
0 exch rlineto
neg 0 rlineto
cp } bd
/_ctm matrix def
/_tm matrix def
/BT { _ctm currentmatrix pop matrix _tm copy pop 0 0 moveto } bd
/ET { _ctm setmatrix } bd
/iTm { _ctm setmatrix _tm concat } bd
/Tm { _tm astore pop iTm 0 0 moveto } bd
/ux 0.0 def
/uy 0.0 def
/F {
  /Tp exch def
  /Tf exch def
  Tf findfont Tp scalefont setfont
  /cf Tf def  /cs Tp def
} bd
/ULS {currentpoint /uy exch def /ux exch def} bd
/ULE {
  /Tcx currentpoint pop def
  gsave
  newpath
  cf findfont cs scalefont dup
  /FontMatrix get 0 get /Ts exch def /FontInfo get dup
  /UnderlinePosition get Ts mul /To exch def
  /UnderlineThickness get Ts mul /Tt exch def
  ux uy To add moveto  Tcx uy To add lineto
  Tt setlinewidth stroke
  grestore
} bd
/OLE {
  /Tcx currentpoint pop def
  gsave
  newpath
  cf findfont cs scalefont dup
  /FontMatrix get 0 get /Ts exch def /FontInfo get dup
  /UnderlinePosition get Ts mul /To exch def
  /UnderlineThickness get Ts mul /Tt exch def
  ux uy To add cs add moveto Tcx uy To add cs add lineto
  Tt setlinewidth stroke
  grestore
} bd
/SOE {
  /Tcx currentpoint pop def
  gsave
  newpath
  cf findfont cs scalefont dup
  /FontMatrix get 0 get /Ts exch def /FontInfo get dup
  /UnderlinePosition get Ts mul /To exch def
  /UnderlineThickness get Ts mul /Tt exch def
  ux uy To add cs 10 mul 26 idiv add moveto Tcx uy To add cs 10 mul 26 idiv add lineto
  Tt setlinewidth stroke
  grestore
} bd
/QT {
/Y22 exch store
/X22 exch store
/Y21 exch store
/X21 exch store
currentpoint
/Y21 load 2 mul add 3 div exch
/X21 load 2 mul add 3 div exch
/X21 load 2 mul /X22 load add 3 div
/Y21 load 2 mul /Y22 load add 3 div
/X22 load /Y22 load curveto
} bd
/SSPD {
dup length /d exch dict def
{
/v exch def
/k exch def
currentpagedevice k known {
/cpdv currentpagedevice k get def
v cpdv ne {
/upd false def
/nullv v type /nulltype eq def
/nullcpdv cpdv type /nulltype eq def
nullv nullcpdv or
{
/upd true def
} {
/sametype v type cpdv type eq def
sametype {
v type /arraytype eq {
/vlen v length def
/cpdvlen cpdv length def
vlen cpdvlen eq {
0 1 vlen 1 sub {
/i exch def
/obj v i get def
/cpdobj cpdv i get def
obj cpdobj ne {
/upd true def
exit
} if
} for
} {
/upd true def
} ifelse
} {
v type /dicttype eq {
v {
/dv exch def
/dk exch def
/cpddv cpdv dk get def
dv cpddv ne {
/upd true def
exit
} if
} forall
} {
/upd true def
} ifelse
} ifelse
} if
} ifelse
upd true eq {
d k v put
} if
} if
} if
} forall
d length 0 gt {
d setpagedevice
} if
} bd
%%EndResource
%%BeginResource: procset (Apache XML Graphics EPS ProcSet) 1.0 0
%%Version: 1.0 0
%%Copyright: (Copyright 2002-2003 The Apache Software Foundation. License terms: http://www.apache.org/licenses/LICENSE-2.0)
/BeginEPSF { %def
/b4_Inc_state save def         % Save state for cleanup
/dict_count countdictstack def % Count objects on dict stack
/op_count count 1 sub def      % Count objects on operand stack
userdict begin                 % Push userdict on dict stack
/showpage { } def              % Redefine showpage, { } = null proc
0 setgray 0 setlinecap         % Prepare graphics state
1 setlinewidth 0 setlinejoin
10 setmiterlimit [ ] 0 setdash newpath
/languagelevel where           % If level not equal to 1 then
{pop languagelevel             % set strokeadjust and
1 ne                           % overprint to their defaults.
{false setstrokeadjust false setoverprint
} if
} if
} bd
/EndEPSF { %def
count op_count sub {pop} repeat            % Clean up stacks
countdictstack dict_count sub {end} repeat
b4_Inc_state restore
} bd
%%EndResource
%FOPBeginFontDict
%%IncludeResource: font Courier-Bold
%%IncludeResource: font Helvetica
%%IncludeResource: font Courier-BoldOblique
%%IncludeResource: font Courier-Oblique
%%IncludeResource: font Times-Roman
%%IncludeResource: font Helvetica-BoldOblique
%%IncludeResource: font Helvetica-Bold
%%IncludeResource: font Helvetica-Oblique
%%IncludeResource: font Times-BoldItalic
%%IncludeResource: font Courier
%%IncludeResource: font Times-Italic
%%IncludeResource: font Times-Bold
%%IncludeResource: font Symbol
%%IncludeResource: font ZapfDingbats
%FOPEndFontDict
%%BeginResource: encoding WinAnsiEncoding
/WinAnsiEncoding [
/.notdef /.notdef /.notdef /.notdef /.notdef
/.notdef /.notdef /.notdef /.notdef /.notdef
/.notdef /.notdef /.notdef /.notdef /.notdef
/.notdef /.notdef /.notdef /.notdef /.notdef
/.notdef /.notdef /.notdef /.notdef /.notdef
/.notdef /.notdef /.notdef /.notdef /.notdef
/.notdef /.notdef /space /exclam /quotedbl
/numbersign /dollar /percent /ampersand /quotesingle
/parenleft /parenright /asterisk /plus /comma
/hyphen /period /slash /zero /one
/two /three /four /five /six
/seven /eight /nine /colon /semicolon
/less /equal /greater /question /at
/A /B /C /D /E
/F /G /H /I /J
/K /L /M /N /O
/P /Q /R /S /T
/U /V /W /X /Y
/Z /bracketleft /backslash /bracketright /asciicircum
/underscore /quoteleft /a /b /c
/d /e /f /g /h
/i /j /k /l /m
/n /o /p /q /r
/s /t /u /v /w
/x /y /z /braceleft /bar
/braceright /asciitilde /bullet /Euro /bullet
/quotesinglbase /florin /quotedblbase /ellipsis /dagger
/daggerdbl /circumflex /perthousand /Scaron /guilsinglleft
/OE /bullet /Zcaron /bullet /bullet
/quoteleft /quoteright /quotedblleft /quotedblright /bullet
/endash /emdash /asciitilde /trademark /scaron
/guilsinglright /oe /bullet /zcaron /Ydieresis
/space /exclamdown /cent /sterling /currency
/yen /brokenbar /section /dieresis /copyright
/ordfeminine /guillemotleft /logicalnot /sfthyphen /registered
/macron /degree /plusminus /twosuperior /threesuperior
/acute /mu /paragraph /middot /cedilla
/onesuperior /ordmasculine /guillemotright /onequarter /onehalf
/threequarters /questiondown /Agrave /Aacute /Acircumflex
/Atilde /Adieresis /Aring /AE /Ccedilla
/Egrave /Eacute /Ecircumflex /Edieresis /Igrave
/Iacute /Icircumflex /Idieresis /Eth /Ntilde
/Ograve /Oacute /Ocircumflex /Otilde /Odieresis
/multiply /Oslash /Ugrave /Uacute /Ucircumflex
/Udieresis /Yacute /Thorn /germandbls /agrave
/aacute /acircumflex /atilde /adieresis /aring
/ae /ccedilla /egrave /eacute /ecircumflex
/edieresis /igrave /iacute /icircumflex /idieresis
/eth /ntilde /ograve /oacute /ocircumflex
/otilde /odieresis /divide /oslash /ugrave
/uacute /ucircumflex /udieresis /yacute /thorn
/ydieresis
] def
%%EndResource
%FOPBeginFontReencode
/Courier-Bold findfont
dup length dict begin
  {1 index /FID ne {def} {pop pop} ifelse} forall
  /Encoding WinAnsiEncoding def
  currentdict
end
/Courier-Bold exch definefont pop
/Helvetica findfont
dup length dict begin
  {1 index /FID ne {def} {pop pop} ifelse} forall
  /Encoding WinAnsiEncoding def
  currentdict
end
/Helvetica exch definefont pop
/Courier-BoldOblique findfont
dup length dict begin
  {1 index /FID ne {def} {pop pop} ifelse} forall
  /Encoding WinAnsiEncoding def
  currentdict
end
/Courier-BoldOblique exch definefont pop
/Courier-Oblique findfont
dup length dict begin
  {1 index /FID ne {def} {pop pop} ifelse} forall
  /Encoding WinAnsiEncoding def
  currentdict
end
/Courier-Oblique exch definefont pop
/Times-Roman findfont
dup length dict begin
  {1 index /FID ne {def} {pop pop} ifelse} forall
  /Encoding WinAnsiEncoding def
  currentdict
end
/Times-Roman exch definefont pop
/Helvetica-BoldOblique findfont
dup length dict begin
  {1 index /FID ne {def} {pop pop} ifelse} forall
  /Encoding WinAnsiEncoding def
  currentdict
end
/Helvetica-BoldOblique exch definefont pop
/Helvetica-Bold findfont
dup length dict begin
  {1 index /FID ne {def} {pop pop} ifelse} forall
  /Encoding WinAnsiEncoding def
  currentdict
end
/Helvetica-Bold exch definefont pop
/Helvetica-Oblique findfont
dup length dict begin
  {1 index /FID ne {def} {pop pop} ifelse} forall
  /Encoding WinAnsiEncoding def
  currentdict
end
/Helvetica-Oblique exch definefont pop
/Times-BoldItalic findfont
dup length dict begin
  {1 index /FID ne {def} {pop pop} ifelse} forall
  /Encoding WinAnsiEncoding def
  currentdict
end
/Times-BoldItalic exch definefont pop
/Courier findfont
dup length dict begin
  {1 index /FID ne {def} {pop pop} ifelse} forall
  /Encoding WinAnsiEncoding def
  currentdict
end
/Courier exch definefont pop
/Times-Italic findfont
dup length dict begin
  {1 index /FID ne {def} {pop pop} ifelse} forall
  /Encoding WinAnsiEncoding def
  currentdict
end
/Times-Italic exch definefont pop
/Times-Bold findfont
dup length dict begin
  {1 index /FID ne {def} {pop pop} ifelse} forall
  /Encoding WinAnsiEncoding def
  currentdict
end
/Times-Bold exch definefont pop
%FOPEndFontReencode
%%EndProlog
%%Page: 1 1
%%PageBoundingBox: 0 0 560 420
%%BeginPageSetup
[1 0 0 -1 0 420] CT
%%EndPageSetup
GS
1 GC
N
0 0 560 420 re
f
GR
GS
1 GC
N
0 0 560 420 re
f
GR
GS
1 GC
N
73 372.5 M
507 372.5 L
507 31.5 L
73 31.5 L
cp
f
GR
GS
0.873 GC
1 LJ
0.5 LW
N
73 372.5 M
73 31.5 L
S
GR
GS
0.873 GC
1 LJ
0.5 LW
N
217.667 372.5 M
217.667 31.5 L
S
GR
GS
0.873 GC
1 LJ
0.5 LW
N
362.333 372.5 M
362.333 31.5 L
S
GR
GS
0.873 GC
1 LJ
0.5 LW
N
507 372.5 M
507 31.5 L
S
GR
GS
0.873 GC
1 LJ
0.5 LW
N
507 372.5 M
73 372.5 L
S
GR
GS
0.873 GC
1 LJ
0.5 LW
N
507 334.611 M
73 334.611 L
S
GR
GS
0.873 GC
1 LJ
0.5 LW
N
507 296.722 M
73 296.722 L
S
GR
GS
0.873 GC
1 LJ
0.5 LW
N
507 258.833 M
73 258.833 L
S
GR
GS
0.873 GC
1 LJ
0.5 LW
N
507 220.944 M
73 220.944 L
S
GR
GS
0.873 GC
1 LJ
0.5 LW
N
507 183.056 M
73 183.056 L
S
GR
GS
0.873 GC
1 LJ
0.5 LW
N
507 145.167 M
73 145.167 L
S
GR
GS
0.873 GC
1 LJ
0.5 LW
N
507 107.278 M
73 107.278 L
S
GR
GS
0.873 GC
1 LJ
0.5 LW
N
507 69.389 M
73 69.389 L
S
GR
GS
0.873 GC
1 LJ
0.5 LW
N
507 31.5 M
73 31.5 L
S
GR
GS
0.149 GC
2 setlinecap
1 LJ
0.5 LW
N
73 372.5 M
507 372.5 L
S
GR
GS
0.149 GC
2 setlinecap
1 LJ
0.5 LW
N
73 372.5 M
73 368.16 L
S
GR
GS
0.149 GC
2 setlinecap
1 LJ
0.5 LW
N
217.667 372.5 M
217.667 368.16 L
S
GR
GS
0.149 GC
2 setlinecap
1 LJ
0.5 LW
N
362.333 372.5 M
362.333 368.16 L
S
GR
GS
0.149 GC
2 setlinecap
1 LJ
0.5 LW
N
507 372.5 M
507 368.16 L
S
GR
GS
[1 0 0 1 73 377.29999] CT
0.149 GC
/Helvetica 14 F
GS
[1 0 0 1 0 0] CT
-7 14 moveto 
1 -1 scale
(-2) t 
GR
GR
GS
[1 0 0 1 217.66667 377.29999] CT
0.149 GC
/Helvetica 14 F
GS
[1 0 0 1 0 0] CT
-12.5 14 moveto 
1 -1 scale
(-1.5) t 
GR
GR
GS
[1 0 0 1 362.33334 377.29999] CT
0.149 GC
/Helvetica 14 F
GS
[1 0 0 1 0 0] CT
-7 14 moveto 
1 -1 scale
(-1) t 
GR
GR
GS
[1 0 0 1 507 377.29999] CT
0.149 GC
/Helvetica 14 F
GS
[1 0 0 1 0 0] CT
-12.5 14 moveto 
1 -1 scale
(-0.5) t 
GR
GR
GS
[1 0 0 1 241 410] CT
0.149 GC
/Helvetica 15 F
GS
[1 0 0 1 0 0] CT
0 0 moveto 
1 -1 scale
(log) t 
GR
GR
GS
[1 0 0 1 262 417] CT
0.149 GC
/Helvetica 12 F
GS
[1 0 0 1 0 0] CT
0 0 moveto 
1 -1 scale
(10) t 
GR
GR
GS
[1 0 0 1 276 410] CT
0.149 GC
/Helvetica 15 F
GS
[1 0 0 1 0 0] CT
0 0 moveto 
1 -1 scale
(\(1/nElem\)) t 
GR
GR
GS
0.149 GC
2 setlinecap
1 LJ
0.5 LW
N
73 372.5 M
73 31.5 L
S
GR
GS
0.149 GC
2 setlinecap
1 LJ
0.5 LW
N
73 372.5 M
77.34 372.5 L
S
GR
GS
0.149 GC
2 setlinecap
1 LJ
0.5 LW
N
73 334.611 M
77.34 334.611 L
S
GR
GS
0.149 GC
2 setlinecap
1 LJ
0.5 LW
N
73 296.722 M
77.34 296.722 L
S
GR
GS
0.149 GC
2 setlinecap
1 LJ
0.5 LW
N
73 258.833 M
77.34 258.833 L
S
GR
GS
0.149 GC
2 setlinecap
1 LJ
0.5 LW
N
73 220.944 M
77.34 220.944 L
S
GR
GS
0.149 GC
2 setlinecap
1 LJ
0.5 LW
N
73 183.056 M
77.34 183.056 L
S
GR
GS
0.149 GC
2 setlinecap
1 LJ
0.5 LW
N
73 145.167 M
77.34 145.167 L
S
GR
GS
0.149 GC
2 setlinecap
1 LJ
0.5 LW
N
73 107.278 M
77.34 107.278 L
S
GR
GS
0.149 GC
2 setlinecap
1 LJ
0.5 LW
N
73 69.389 M
77.34 69.389 L
S
GR
GS
0.149 GC
2 setlinecap
1 LJ
0.5 LW
N
73 31.5 M
77.34 31.5 L
S
GR
GS
[1 0 0 1 68.2 372.5] CT
0.149 GC
/Helvetica 14 F
GS
[1 0 0 1 0 0] CT
-22 5.5 moveto 
1 -1 scale
(-18) t 
GR
GR
GS
[1 0 0 1 68.2 334.61111] CT
0.149 GC
/Helvetica 14 F
GS
[1 0 0 1 0 0] CT
-22 5.5 moveto 
1 -1 scale
(-16) t 
GR
GR
GS
[1 0 0 1 68.2 296.72223] CT
0.149 GC
/Helvetica 14 F
GS
[1 0 0 1 0 0] CT
-22 5.5 moveto 
1 -1 scale
(-14) t 
GR
GR
GS
[1 0 0 1 68.2 258.83334] CT
0.149 GC
/Helvetica 14 F
GS
[1 0 0 1 0 0] CT
-22 5.5 moveto 
1 -1 scale
(-12) t 
GR
GR
GS
[1 0 0 1 68.2 220.94444] CT
0.149 GC
/Helvetica 14 F
GS
[1 0 0 1 0 0] CT
-22 5.5 moveto 
1 -1 scale
(-10) t 
GR
GR
GS
[1 0 0 1 68.2 183.05556] CT
0.149 GC
/Helvetica 14 F
GS
[1 0 0 1 0 0] CT
-14 5.5 moveto 
1 -1 scale
(-8) t 
GR
GR
GS
[1 0 0 1 68.2 145.16667] CT
0.149 GC
/Helvetica 14 F
GS
[1 0 0 1 0 0] CT
-14 5.5 moveto 
1 -1 scale
(-6) t 
GR
GR
GS
[1 0 0 1 68.2 107.27778] CT
0.149 GC
/Helvetica 14 F
GS
[1 0 0 1 0 0] CT
-14 5.5 moveto 
1 -1 scale
(-4) t 
GR
GR
GS
[1 0 0 1 68.2 69.38889] CT
0.149 GC
/Helvetica 14 F
GS
[1 0 0 1 0 0] CT
-14 5.5 moveto 
1 -1 scale
(-2) t 
GR
GR
GS
[1 0 0 1 68.2 31.5] CT
0.149 GC
/Helvetica 14 F
GS
[1 0 0 1 0 0] CT
-8 5.5 moveto 
1 -1 scale
(0) t 
GR
GR
GS
[0 -1 1 0 34 279] CT
0.149 GC
/Helvetica 15 F
GS
[1 0 0 1 0 0] CT
0 0 moveto 
1 -1 scale
(log) t 
GR
GR
GS
[0 -1 1 0 41 258] CT
0.149 GC
/Helvetica 12 F
GS
[1 0 0 1 0 0] CT
0 0 moveto 
1 -1 scale
(10) t 
GR
GR
GS
[0 -1 1 0 34 244] CT
0.149 GC
/Helvetica 15 F
GS
[1 0 0 1 0 0] CT
0 0 moveto 
1 -1 scale
(\(Solution L) t 
GR
GR
GS
[0 -1 1 0 41 172] CT
0.149 GC
/Helvetica 12 F
GS
[1 0 0 1 0 0] CT
0 0 moveto 
1 -1 scale
(2) t 
GR
GR
GS
[0 -1 1 0 34 165] CT
0.149 GC
/Helvetica 15 F
GS
[1 0 0 1 0 0] CT
0 0 moveto 
1 -1 scale
( error\)) t 
GR
GR
GS
1 0 0 RC
1 LJ
0.5 LW
N
477.471 61.349 M
390.373 65.627 L
303.275 70.652 L
216.177 76.059 L
129.079 81.625 L
S
GR
GS
1 0 0 RC
1 LJ
N
474 61.5 M
481 61.5 L
S
GR
GS
1 0 0 RC
1 LJ
N
477.5 65 M
477.5 58 L
S
GR
GS
1 0 0 RC
1 LJ
N
387 65.5 M
394 65.5 L
S
GR
GS
1 0 0 RC
1 LJ
N
390.5 69 M
390.5 62 L
S
GR
GS
1 0 0 RC
1 LJ
N
300 70.5 M
307 70.5 L
S
GR
GS
1 0 0 RC
1 LJ
N
303.5 74 M
303.5 67 L
S
GR
GS
1 0 0 RC
1 LJ
N
213 76.5 M
220 76.5 L
S
GR
GS
1 0 0 RC
1 LJ
N
216.5 80 M
216.5 73 L
S
GR
GS
1 0 0 RC
1 LJ
N
126 81.5 M
133 81.5 L
S
GR
GS
1 0 0 RC
1 LJ
N
129.5 85 M
129.5 78 L
S
GR
GS
0 0 1 RC
1 LJ
0.5 LW
N
477.471 93.597 M
390.373 105.472 L
303.275 117.135 L
216.177 128.659 L
129.079 140.12 L
S
GR
GS
0 0 1 RC
1 LJ
N
480.5 93.5 M
479.621 91.379 L
477.5 90.5 L
475.379 91.379 L
474.5 93.5 L
475.379 95.621 L
477.5 96.5 L
479.621 95.621 L
cp
S
GR
GS
0 0 1 RC
1 LJ
N
393.5 105.5 M
392.621 103.379 L
390.5 102.5 L
388.379 103.379 L
387.5 105.5 L
388.379 107.621 L
390.5 108.5 L
392.621 107.621 L
cp
S
GR
GS
0 0 1 RC
1 LJ
N
306.5 117.5 M
305.621 115.379 L
303.5 114.5 L
301.379 115.379 L
300.5 117.5 L
301.379 119.621 L
303.5 120.5 L
305.621 119.621 L
cp
S
GR
GS
0 0 1 RC
1 LJ
N
219.5 128.5 M
218.621 126.379 L
216.5 125.5 L
214.379 126.379 L
213.5 128.5 L
214.379 130.621 L
216.5 131.5 L
218.621 130.621 L
cp
S
GR
GS
0 0 1 RC
1 LJ
N
132.5 140.5 M
131.621 138.379 L
129.5 137.5 L
127.379 138.379 L
126.5 140.5 L
127.379 142.621 L
129.5 143.5 L
131.621 142.621 L
cp
S
GR
GS
1 LJ
0.5 LW
N
477.471 125.934 M
390.373 143.441 L
303.275 160.806 L
216.177 177.997 L
129.079 195.13 L
S
GR
GS
10.0 ML
N
477.5 129.499 M
480.5 125.5 L
477.5 121.501 L
474.5 125.5 L
cp
S
GR
GS
10.0 ML
N
390.5 147.499 M
393.5 143.5 L
390.5 139.501 L
387.5 143.5 L
cp
S
GR
GS
10.0 ML
N
303.5 164.499 M
306.5 160.5 L
303.5 156.501 L
300.5 160.5 L
cp
S
GR
GS
10.0 ML
N
216.5 181.499 M
219.5 177.5 L
216.5 173.501 L
213.5 177.5 L
cp
S
GR
GS
10.0 ML
N
129.5 199.499 M
132.5 195.5 L
129.5 191.501 L
126.5 195.5 L
cp
S
GR
GS
1 0 1 RC
1 LJ
0.5 LW
N
477.471 161.617 M
390.373 185.006 L
303.275 208.113 L
216.177 231.058 L
129.079 253.931 L
S
GR
GS
1 0 1 RC
1 LJ
N
474 161.5 M
481 161.5 L
S
GR
GS
1 0 1 RC
1 LJ
N
477.5 165 M
477.5 158 L
S
GR
GS
1 0 1 RC
1 LJ
N
475 164 M
480 159 L
S
GR
GS
1 0 1 RC
1 LJ
N
475 159 M
480 164 L
S
GR
GS
1 0 1 RC
1 LJ
N
387 185.5 M
394 185.5 L
S
GR
GS
1 0 1 RC
1 LJ
N
390.5 189 M
390.5 182 L
S
GR
GS
1 0 1 RC
1 LJ
N
388 188 M
393 183 L
S
GR
GS
1 0 1 RC
1 LJ
N
388 183 M
393 188 L
S
GR
GS
1 0 1 RC
1 LJ
N
300 208.5 M
307 208.5 L
S
GR
GS
1 0 1 RC
1 LJ
N
303.5 212 M
303.5 205 L
S
GR
GS
1 0 1 RC
1 LJ
N
301 211 M
306 206 L
S
GR
GS
1 0 1 RC
1 LJ
N
301 206 M
306 211 L
S
GR
GS
1 0 1 RC
1 LJ
N
213 231.5 M
220 231.5 L
S
GR
GS
1 0 1 RC
1 LJ
N
216.5 235 M
216.5 228 L
S
GR
GS
1 0 1 RC
1 LJ
N
214 234 M
219 229 L
S
GR
GS
1 0 1 RC
1 LJ
N
214 229 M
219 234 L
S
GR
GS
1 0 1 RC
1 LJ
N
126 253.5 M
133 253.5 L
S
GR
GS
1 0 1 RC
1 LJ
N
129.5 257 M
129.5 250 L
S
GR
GS
1 0 1 RC
1 LJ
N
127 256 M
132 251 L
S
GR
GS
1 0 1 RC
1 LJ
N
127 251 M
132 256 L
S
GR
GS
0 1 0 RC
1 LJ
0.5 LW
N
477.471 198.464 M
390.373 226.29 L
303.275 254.278 L
216.177 282.409 L
129.079 308.295 L
S
GR
GS
0 1 0 RC
1 LJ
N
475 201 M
480 196 L
S
GR
GS
0 1 0 RC
1 LJ
N
475 196 M
480 201 L
S
GR
GS
0 1 0 RC
1 LJ
N
388 229 M
393 224 L
S
GR
GS
0 1 0 RC
1 LJ
N
388 224 M
393 229 L
S
GR
GS
0 1 0 RC
1 LJ
N
301 257 M
306 252 L
S
GR
GS
0 1 0 RC
1 LJ
N
301 252 M
306 257 L
S
GR
GS
0 1 0 RC
1 LJ
N
214 285 M
219 280 L
S
GR
GS
0 1 0 RC
1 LJ
N
214 280 M
219 285 L
S
GR
GS
0 1 0 RC
1 LJ
N
127 311 M
132 306 L
S
GR
GS
0 1 0 RC
1 LJ
N
127 306 M
132 311 L
S
GR
GS
1 0 0 RC
[10 6] 0 setdash
2 LJ
0.5 LW
N
477.471 59.641 M
390.373 62.91 L
303.275 67.059 L
216.177 71.916 L
129.079 77.177 L
S
GR
GS
1 0 0 RC
1 LJ
N
474 59.5 M
481 59.5 L
S
GR
GS
1 0 0 RC
1 LJ
N
477.5 63 M
477.5 56 L
S
GR
GS
1 0 0 RC
1 LJ
N
387 62.5 M
394 62.5 L
S
GR
GS
1 0 0 RC
1 LJ
N
390.5 66 M
390.5 59 L
S
GR
GS
1 0 0 RC
1 LJ
N
300 67.5 M
307 67.5 L
S
GR
GS
1 0 0 RC
1 LJ
N
303.5 71 M
303.5 64 L
S
GR
GS
1 0 0 RC
1 LJ
N
213 71.5 M
220 71.5 L
S
GR
GS
1 0 0 RC
1 LJ
N
216.5 75 M
216.5 68 L
S
GR
GS
1 0 0 RC
1 LJ
N
126 77.5 M
133 77.5 L
S
GR
GS
1 0 0 RC
1 LJ
N
129.5 81 M
129.5 74 L
S
GR
GS
0 0 1 RC
[10 6] 0 setdash
2 LJ
0.5 LW
N
477.471 95.724 M
390.373 107.183 L
303.275 118.783 L
216.177 130.315 L
129.079 141.783 L
S
GR
GS
0 0 1 RC
1 LJ
N
480.5 95.5 M
479.621 93.379 L
477.5 92.5 L
475.379 93.379 L
474.5 95.5 L
475.379 97.621 L
477.5 98.5 L
479.621 97.621 L
cp
S
GR
GS
0 0 1 RC
1 LJ
N
393.5 107.5 M
392.621 105.379 L
390.5 104.5 L
388.379 105.379 L
387.5 107.5 L
388.379 109.621 L
390.5 110.5 L
392.621 109.621 L
cp
S
GR
GS
0 0 1 RC
1 LJ
N
306.5 118.5 M
305.621 116.379 L
303.5 115.5 L
301.379 116.379 L
300.5 118.5 L
301.379 120.621 L
303.5 121.5 L
305.621 120.621 L
cp
S
GR
GS
0 0 1 RC
1 LJ
N
219.5 130.5 M
218.621 128.379 L
216.5 127.5 L
214.379 128.379 L
213.5 130.5 L
214.379 132.621 L
216.5 133.5 L
218.621 132.621 L
cp
S
GR
GS
0 0 1 RC
1 LJ
N
132.5 141.5 M
131.621 139.379 L
129.5 138.5 L
127.379 139.379 L
126.5 141.5 L
127.379 143.621 L
129.5 144.5 L
131.621 143.621 L
cp
S
GR
GS
[10 6] 0 setdash
2 LJ
0.5 LW
N
477.471 123.644 M
390.373 140.765 L
303.275 158.218 L
216.177 175.43 L
129.079 192.534 L
S
GR
GS
10.0 ML
N
477.5 127.499 M
480.5 123.5 L
477.5 119.501 L
474.5 123.5 L
cp
S
GR
GS
10.0 ML
N
390.5 144.499 M
393.5 140.5 L
390.5 136.501 L
387.5 140.5 L
cp
S
GR
GS
10.0 ML
N
303.5 162.499 M
306.5 158.5 L
303.5 154.501 L
300.5 158.5 L
cp
S
GR
GS
10.0 ML
N
216.5 179.499 M
219.5 175.5 L
216.5 171.501 L
213.5 175.5 L
cp
S
GR
GS
10.0 ML
N
129.5 196.499 M
132.5 192.5 L
129.5 188.501 L
126.5 192.5 L
cp
S
GR
GS
1 0 1 RC
[10 6] 0 setdash
2 LJ
0.5 LW
N
477.471 163.954 M
390.373 186.858 L
303.275 209.817 L
216.177 232.721 L
129.079 255.57 L
S
GR
GS
1 0 1 RC
1 LJ
N
474 163.5 M
481 163.5 L
S
GR
GS
1 0 1 RC
1 LJ
N
477.5 167 M
477.5 160 L
S
GR
GS
1 0 1 RC
1 LJ
N
475 166 M
480 161 L
S
GR
GS
1 0 1 RC
1 LJ
N
475 161 M
480 166 L
S
GR
GS
1 0 1 RC
1 LJ
N
387 186.5 M
394 186.5 L
S
GR
GS
1 0 1 RC
1 LJ
N
390.5 190 M
390.5 183 L
S
GR
GS
1 0 1 RC
1 LJ
N
388 189 M
393 184 L
S
GR
GS
1 0 1 RC
1 LJ
N
388 184 M
393 189 L
S
GR
GS
1 0 1 RC
1 LJ
N
300 209.5 M
307 209.5 L
S
GR
GS
1 0 1 RC
1 LJ
N
303.5 213 M
303.5 206 L
S
GR
GS
1 0 1 RC
1 LJ
N
301 212 M
306 207 L
S
GR
GS
1 0 1 RC
1 LJ
N
301 207 M
306 212 L
S
GR
GS
1 0 1 RC
1 LJ
N
213 232.5 M
220 232.5 L
S
GR
GS
1 0 1 RC
1 LJ
N
216.5 236 M
216.5 229 L
S
GR
GS
1 0 1 RC
1 LJ
N
214 235 M
219 230 L
S
GR
GS
1 0 1 RC
1 LJ
N
214 230 M
219 235 L
S
GR
GS
1 0 1 RC
1 LJ
N
126 255.5 M
133 255.5 L
S
GR
GS
1 0 1 RC
1 LJ
N
129.5 259 M
129.5 252 L
S
GR
GS
1 0 1 RC
1 LJ
N
127 258 M
132 253 L
S
GR
GS
1 0 1 RC
1 LJ
N
127 253 M
132 258 L
S
GR
GS
0 1 0 RC
[10 6] 0 setdash
2 LJ
0.5 LW
N
477.471 196.801 M
390.373 224.654 L
303.275 252.497 L
216.177 280.492 L
129.079 311.872 L
S
GR
GS
0 1 0 RC
1 LJ
N
475 199 M
480 194 L
S
GR
GS
0 1 0 RC
1 LJ
N
475 194 M
480 199 L
S
GR
GS
0 1 0 RC
1 LJ
N
388 227 M
393 222 L
S
GR
GS
0 1 0 RC
1 LJ
N
388 222 M
393 227 L
S
GR
GS
0 1 0 RC
1 LJ
N
301 255 M
306 250 L
S
GR
GS
0 1 0 RC
1 LJ
N
301 250 M
306 255 L
S
GR
GS
0 1 0 RC
1 LJ
N
214 283 M
219 278 L
S
GR
GS
0 1 0 RC
1 LJ
N
214 278 M
219 283 L
S
GR
GS
0 1 0 RC
1 LJ
N
127 314 M
132 309 L
S
GR
GS
0 1 0 RC
1 LJ
N
127 309 M
132 314 L
S
GR
GS
1 0 0 RC
[8 3 2 3] 0 setdash
2 LJ
0.5 LW
N
477.471 60.918 M
390.373 61.246 L
303.275 61.022 L
216.177 60.796 L
129.079 60.655 L
S
GR
GS
1 0 0 RC
1 LJ
N
474 60.5 M
481 60.5 L
S
GR
GS
1 0 0 RC
1 LJ
N
477.5 64 M
477.5 57 L
S
GR
GS
1 0 0 RC
1 LJ
N
387 61.5 M
394 61.5 L
S
GR
GS
1 0 0 RC
1 LJ
N
390.5 65 M
390.5 58 L
S
GR
GS
1 0 0 RC
1 LJ
N
300 61.5 M
307 61.5 L
S
GR
GS
1 0 0 RC
1 LJ
N
303.5 65 M
303.5 58 L
S
GR
GS
1 0 0 RC
1 LJ
N
213 60.5 M
220 60.5 L
S
GR
GS
1 0 0 RC
1 LJ
N
216.5 64 M
216.5 57 L
S
GR
GS
1 0 0 RC
1 LJ
N
126 60.5 M
133 60.5 L
S
GR
GS
1 0 0 RC
1 LJ
N
129.5 64 M
129.5 57 L
S
GR
GS
0 0 1 RC
[8 3 2 3] 0 setdash
2 LJ
0.5 LW
N
477.471 82.487 M
390.373 89.916 L
303.275 96.543 L
216.177 102.738 L
129.079 108.698 L
S
GR
GS
0 0 1 RC
1 LJ
N
480.5 82.5 M
479.621 80.379 L
477.5 79.5 L
475.379 80.379 L
474.5 82.5 L
475.379 84.621 L
477.5 85.5 L
479.621 84.621 L
cp
S
GR
GS
0 0 1 RC
1 LJ
N
393.5 89.5 M
392.621 87.379 L
390.5 86.5 L
388.379 87.379 L
387.5 89.5 L
388.379 91.621 L
390.5 92.5 L
392.621 91.621 L
cp
S
GR
GS
0 0 1 RC
1 LJ
N
306.5 96.5 M
305.621 94.379 L
303.5 93.5 L
301.379 94.379 L
300.5 96.5 L
301.379 98.621 L
303.5 99.5 L
305.621 98.621 L
cp
S
GR
GS
0 0 1 RC
1 LJ
N
219.5 102.5 M
218.621 100.379 L
216.5 99.5 L
214.379 100.379 L
213.5 102.5 L
214.379 104.621 L
216.5 105.5 L
218.621 104.621 L
cp
S
GR
GS
0 0 1 RC
1 LJ
N
132.5 108.5 M
131.621 106.379 L
129.5 105.5 L
127.379 106.379 L
126.5 108.5 L
127.379 110.621 L
129.5 111.5 L
131.621 110.621 L
cp
S
GR
GS
[8 3 2 3] 0 setdash
2 LJ
0.5 LW
N
477.471 119.912 M
390.373 132.76 L
303.275 144.913 L
216.177 156.671 L
129.079 168.242 L
S
GR
GS
10.0 ML
N
477.5 123.499 M
480.5 119.5 L
477.5 115.501 L
474.5 119.5 L
cp
S
GR
GS
10.0 ML
N
390.5 136.499 M
393.5 132.5 L
390.5 128.501 L
387.5 132.5 L
cp
S
GR
GS
10.0 ML
N
303.5 148.499 M
306.5 144.5 L
303.5 140.501 L
300.5 144.5 L
cp
S
GR
GS
10.0 ML
N
216.5 160.499 M
219.5 156.5 L
216.5 152.501 L
213.5 156.5 L
cp
S
GR
GS
10.0 ML
N
129.5 172.499 M
132.5 168.5 L
129.5 164.501 L
126.5 168.5 L
cp
S
GR
GS
1 0 1 RC
[8 3 2 3] 0 setdash
2 LJ
0.5 LW
N
477.471 149.418 M
390.373 167.84 L
303.275 185.717 L
216.177 203.26 L
129.079 220.603 L
S
GR
GS
1 0 1 RC
1 LJ
N
474 149.5 M
481 149.5 L
S
GR
GS
1 0 1 RC
1 LJ
N
477.5 153 M
477.5 146 L
S
GR
GS
1 0 1 RC
1 LJ
N
475 152 M
480 147 L
S
GR
GS
1 0 1 RC
1 LJ
N
475 147 M
480 152 L
S
GR
GS
1 0 1 RC
1 LJ
N
387 167.5 M
394 167.5 L
S
GR
GS
1 0 1 RC
1 LJ
N
390.5 171 M
390.5 164 L
S
GR
GS
1 0 1 RC
1 LJ
N
388 170 M
393 165 L
S
GR
GS
1 0 1 RC
1 LJ
N
388 165 M
393 170 L
S
GR
GS
1 0 1 RC
1 LJ
N
300 185.5 M
307 185.5 L
S
GR
GS
1 0 1 RC
1 LJ
N
303.5 189 M
303.5 182 L
S
GR
GS
1 0 1 RC
1 LJ
N
301 188 M
306 183 L
S
GR
GS
1 0 1 RC
1 LJ
N
301 183 M
306 188 L
S
GR
GS
1 0 1 RC
1 LJ
N
213 203.5 M
220 203.5 L
S
GR
GS
1 0 1 RC
1 LJ
N
216.5 207 M
216.5 200 L
S
GR
GS
1 0 1 RC
1 LJ
N
214 206 M
219 201 L
S
GR
GS
1 0 1 RC
1 LJ
N
214 201 M
219 206 L
S
GR
GS
1 0 1 RC
1 LJ
N
126 220.5 M
133 220.5 L
S
GR
GS
1 0 1 RC
1 LJ
N
129.5 224 M
129.5 217 L
S
GR
GS
1 0 1 RC
1 LJ
N
127 223 M
132 218 L
S
GR
GS
1 0 1 RC
1 LJ
N
127 218 M
132 223 L
S
GR
GS
0 1 0 RC
[8 3 2 3] 0 setdash
2 LJ
0.5 LW
N
477.471 191.88 M
390.373 215.759 L
303.275 239.175 L
216.177 262.213 L
129.079 282.924 L
S
GR
GS
0 1 0 RC
1 LJ
N
475 194 M
480 189 L
S
GR
GS
0 1 0 RC
1 LJ
N
475 189 M
480 194 L
S
GR
GS
0 1 0 RC
1 LJ
N
388 218 M
393 213 L
S
GR
GS
0 1 0 RC
1 LJ
N
388 213 M
393 218 L
S
GR
GS
0 1 0 RC
1 LJ
N
301 242 M
306 237 L
S
GR
GS
0 1 0 RC
1 LJ
N
301 237 M
306 242 L
S
GR
GS
0 1 0 RC
1 LJ
N
214 265 M
219 260 L
S
GR
GS
0 1 0 RC
1 LJ
N
214 260 M
219 265 L
S
GR
GS
0 1 0 RC
1 LJ
N
127 285 M
132 280 L
S
GR
GS
0 1 0 RC
1 LJ
N
127 280 M
132 285 L
S
GR
GS
1 GC
N
428.5 356 M
428.5 275 L
498.5 275 L
498.5 356 L
cp
f
GR
GS
[1 0 0 1 465.5 284.5] CT
/Helvetica 12.6 F
GS
[1 0 0 1 0 0] CT
0 5 moveto 
1 -1 scale
(p = 0) t 
GR
GR
GS
1 0 0 RC
1 LJ
0.5 LW
N
432.5 284.5 M
462.5 284.5 L
S
GR
GS
1 0 0 RC
1 LJ
N
444 284.5 M
451 284.5 L
S
GR
GS
1 0 0 RC
1 LJ
N
447.5 288 M
447.5 281 L
S
GR
GS
[1 0 0 1 465.5 300] CT
/Helvetica 12.6 F
GS
[1 0 0 1 0 0] CT
0 5 moveto 
1 -1 scale
(p = 1) t 
GR
GR
GS
0 0 1 RC
1 LJ
0.5 LW
N
432.5 300 M
462.5 300 L
S
GR
GS
0 0 1 RC
1 LJ
N
450.5 299.5 M
449.621 297.379 L
447.5 296.5 L
445.379 297.379 L
444.5 299.5 L
445.379 301.621 L
447.5 302.5 L
449.621 301.621 L
cp
S
GR
GS
[1 0 0 1 465.5 315.5] CT
/Helvetica 12.6 F
GS
[1 0 0 1 0 0] CT
0 5 moveto 
1 -1 scale
(p = 2) t 
GR
GR
GS
1 LJ
0.5 LW
N
432.5 315.5 M
462.5 315.5 L
S
GR
GS
10.0 ML
N
447.5 319.499 M
450.5 315.5 L
447.5 311.501 L
444.5 315.5 L
cp
S
GR
GS
[1 0 0 1 465.5 331] CT
/Helvetica 12.6 F
GS
[1 0 0 1 0 0] CT
0 5 moveto 
1 -1 scale
(p = 3) t 
GR
GR
GS
1 0 1 RC
1 LJ
0.5 LW
N
432.5 331 M
462.5 331 L
S
GR
GS
1 0 1 RC
1 LJ
N
444 331.5 M
451 331.5 L
S
GR
GS
1 0 1 RC
1 LJ
N
447.5 335 M
447.5 328 L
S
GR
GS
1 0 1 RC
1 LJ
N
445 334 M
450 329 L
S
GR
GS
1 0 1 RC
1 LJ
N
445 329 M
450 334 L
S
GR
GS
[1 0 0 1 465.5 346.5] CT
/Helvetica 12.6 F
GS
[1 0 0 1 0 0] CT
0 5 moveto 
1 -1 scale
(p = 4) t 
GR
GR
GS
0 1 0 RC
1 LJ
0.5 LW
N
432.5 346.5 M
462.5 346.5 L
S
GR
GS
0 1 0 RC
1 LJ
N
445 349 M
450 344 L
S
GR
GS
0 1 0 RC
1 LJ
N
445 344 M
450 349 L
S
GR
GS
0.149 GC
10.0 ML
0.5 LW
N
428.5 356 M
428.5 275 L
498.5 275 L
498.5 356 L
cp
S
GR
%%Trailer
%%Pages: 1
%%EOF
