%!PS-Adobe-3.0 EPSF-3.0
%%Creator: (MATLAB, The Mathworks, Inc. Version 9.0.0.341360 \(R2016a\). Operating System: Mac OS X)
%%Title: ./SWE2D_Circle_Line_DGAdvectiveNonLift_Q5.eps
%%CreationDate: 2016-06-24T16:48:11
%%Pages: (atend)
%%BoundingBox:    22     2   519   393
%%LanguageLevel: 2
%%EndComments
%%BeginProlog
%%BeginResource: procset (Apache XML Graphics Std ProcSet) 1.2 0
%%Version: 1.2 0
%%Copyright: (Copyright 2001-2003,2010 The Apache Software Foundation. License terms: http://www.apache.org/licenses/LICENSE-2.0)
/bd{bind def}bind def
/ld{load def}bd
/GR/grestore ld
/M/moveto ld
/LJ/setlinejoin ld
/C/curveto ld
/f/fill ld
/LW/setlinewidth ld
/GC/setgray ld
/t/show ld
/N/newpath ld
/CT/concat ld
/cp/closepath ld
/S/stroke ld
/L/lineto ld
/CC/setcmykcolor ld
/A/ashow ld
/GS/gsave ld
/RC/setrgbcolor ld
/RM/rmoveto ld
/ML/setmiterlimit ld
/re {4 2 roll M
1 index 0 rlineto
0 exch rlineto
neg 0 rlineto
cp } bd
/_ctm matrix def
/_tm matrix def
/BT { _ctm currentmatrix pop matrix _tm copy pop 0 0 moveto } bd
/ET { _ctm setmatrix } bd
/iTm { _ctm setmatrix _tm concat } bd
/Tm { _tm astore pop iTm 0 0 moveto } bd
/ux 0.0 def
/uy 0.0 def
/F {
  /Tp exch def
  /Tf exch def
  Tf findfont Tp scalefont setfont
  /cf Tf def  /cs Tp def
} bd
/ULS {currentpoint /uy exch def /ux exch def} bd
/ULE {
  /Tcx currentpoint pop def
  gsave
  newpath
  cf findfont cs scalefont dup
  /FontMatrix get 0 get /Ts exch def /FontInfo get dup
  /UnderlinePosition get Ts mul /To exch def
  /UnderlineThickness get Ts mul /Tt exch def
  ux uy To add moveto  Tcx uy To add lineto
  Tt setlinewidth stroke
  grestore
} bd
/OLE {
  /Tcx currentpoint pop def
  gsave
  newpath
  cf findfont cs scalefont dup
  /FontMatrix get 0 get /Ts exch def /FontInfo get dup
  /UnderlinePosition get Ts mul /To exch def
  /UnderlineThickness get Ts mul /Tt exch def
  ux uy To add cs add moveto Tcx uy To add cs add lineto
  Tt setlinewidth stroke
  grestore
} bd
/SOE {
  /Tcx currentpoint pop def
  gsave
  newpath
  cf findfont cs scalefont dup
  /FontMatrix get 0 get /Ts exch def /FontInfo get dup
  /UnderlinePosition get Ts mul /To exch def
  /UnderlineThickness get Ts mul /Tt exch def
  ux uy To add cs 10 mul 26 idiv add moveto Tcx uy To add cs 10 mul 26 idiv add lineto
  Tt setlinewidth stroke
  grestore
} bd
/QT {
/Y22 exch store
/X22 exch store
/Y21 exch store
/X21 exch store
currentpoint
/Y21 load 2 mul add 3 div exch
/X21 load 2 mul add 3 div exch
/X21 load 2 mul /X22 load add 3 div
/Y21 load 2 mul /Y22 load add 3 div
/X22 load /Y22 load curveto
} bd
/SSPD {
dup length /d exch dict def
{
/v exch def
/k exch def
currentpagedevice k known {
/cpdv currentpagedevice k get def
v cpdv ne {
/upd false def
/nullv v type /nulltype eq def
/nullcpdv cpdv type /nulltype eq def
nullv nullcpdv or
{
/upd true def
} {
/sametype v type cpdv type eq def
sametype {
v type /arraytype eq {
/vlen v length def
/cpdvlen cpdv length def
vlen cpdvlen eq {
0 1 vlen 1 sub {
/i exch def
/obj v i get def
/cpdobj cpdv i get def
obj cpdobj ne {
/upd true def
exit
} if
} for
} {
/upd true def
} ifelse
} {
v type /dicttype eq {
v {
/dv exch def
/dk exch def
/cpddv cpdv dk get def
dv cpddv ne {
/upd true def
exit
} if
} forall
} {
/upd true def
} ifelse
} ifelse
} if
} ifelse
upd true eq {
d k v put
} if
} if
} if
} forall
d length 0 gt {
d setpagedevice
} if
} bd
%%EndResource
%%BeginResource: procset (Apache XML Graphics EPS ProcSet) 1.0 0
%%Version: 1.0 0
%%Copyright: (Copyright 2002-2003 The Apache Software Foundation. License terms: http://www.apache.org/licenses/LICENSE-2.0)
/BeginEPSF { %def
/b4_Inc_state save def         % Save state for cleanup
/dict_count countdictstack def % Count objects on dict stack
/op_count count 1 sub def      % Count objects on operand stack
userdict begin                 % Push userdict on dict stack
/showpage { } def              % Redefine showpage, { } = null proc
0 setgray 0 setlinecap         % Prepare graphics state
1 setlinewidth 0 setlinejoin
10 setmiterlimit [ ] 0 setdash newpath
/languagelevel where           % If level not equal to 1 then
{pop languagelevel             % set strokeadjust and
1 ne                           % overprint to their defaults.
{false setstrokeadjust false setoverprint
} if
} if
} bd
/EndEPSF { %def
count op_count sub {pop} repeat            % Clean up stacks
countdictstack dict_count sub {end} repeat
b4_Inc_state restore
} bd
%%EndResource
%FOPBeginFontDict
%%IncludeResource: font Courier-Bold
%%IncludeResource: font Helvetica
%%IncludeResource: font Courier-BoldOblique
%%IncludeResource: font Courier-Oblique
%%IncludeResource: font Times-Roman
%%IncludeResource: font Helvetica-BoldOblique
%%IncludeResource: font Helvetica-Bold
%%IncludeResource: font Helvetica-Oblique
%%IncludeResource: font Times-BoldItalic
%%IncludeResource: font Courier
%%IncludeResource: font Times-Italic
%%IncludeResource: font Times-Bold
%%IncludeResource: font Symbol
%%IncludeResource: font ZapfDingbats
%FOPEndFontDict
%%BeginResource: encoding WinAnsiEncoding
/WinAnsiEncoding [
/.notdef /.notdef /.notdef /.notdef /.notdef
/.notdef /.notdef /.notdef /.notdef /.notdef
/.notdef /.notdef /.notdef /.notdef /.notdef
/.notdef /.notdef /.notdef /.notdef /.notdef
/.notdef /.notdef /.notdef /.notdef /.notdef
/.notdef /.notdef /.notdef /.notdef /.notdef
/.notdef /.notdef /space /exclam /quotedbl
/numbersign /dollar /percent /ampersand /quotesingle
/parenleft /parenright /asterisk /plus /comma
/hyphen /period /slash /zero /one
/two /three /four /five /six
/seven /eight /nine /colon /semicolon
/less /equal /greater /question /at
/A /B /C /D /E
/F /G /H /I /J
/K /L /M /N /O
/P /Q /R /S /T
/U /V /W /X /Y
/Z /bracketleft /backslash /bracketright /asciicircum
/underscore /quoteleft /a /b /c
/d /e /f /g /h
/i /j /k /l /m
/n /o /p /q /r
/s /t /u /v /w
/x /y /z /braceleft /bar
/braceright /asciitilde /bullet /Euro /bullet
/quotesinglbase /florin /quotedblbase /ellipsis /dagger
/daggerdbl /circumflex /perthousand /Scaron /guilsinglleft
/OE /bullet /Zcaron /bullet /bullet
/quoteleft /quoteright /quotedblleft /quotedblright /bullet
/endash /emdash /asciitilde /trademark /scaron
/guilsinglright /oe /bullet /zcaron /Ydieresis
/space /exclamdown /cent /sterling /currency
/yen /brokenbar /section /dieresis /copyright
/ordfeminine /guillemotleft /logicalnot /sfthyphen /registered
/macron /degree /plusminus /twosuperior /threesuperior
/acute /mu /paragraph /middot /cedilla
/onesuperior /ordmasculine /guillemotright /onequarter /onehalf
/threequarters /questiondown /Agrave /Aacute /Acircumflex
/Atilde /Adieresis /Aring /AE /Ccedilla
/Egrave /Eacute /Ecircumflex /Edieresis /Igrave
/Iacute /Icircumflex /Idieresis /Eth /Ntilde
/Ograve /Oacute /Ocircumflex /Otilde /Odieresis
/multiply /Oslash /Ugrave /Uacute /Ucircumflex
/Udieresis /Yacute /Thorn /germandbls /agrave
/aacute /acircumflex /atilde /adieresis /aring
/ae /ccedilla /egrave /eacute /ecircumflex
/edieresis /igrave /iacute /icircumflex /idieresis
/eth /ntilde /ograve /oacute /ocircumflex
/otilde /odieresis /divide /oslash /ugrave
/uacute /ucircumflex /udieresis /yacute /thorn
/ydieresis
] def
%%EndResource
%FOPBeginFontReencode
/Courier-Bold findfont
dup length dict begin
  {1 index /FID ne {def} {pop pop} ifelse} forall
  /Encoding WinAnsiEncoding def
  currentdict
end
/Courier-Bold exch definefont pop
/Helvetica findfont
dup length dict begin
  {1 index /FID ne {def} {pop pop} ifelse} forall
  /Encoding WinAnsiEncoding def
  currentdict
end
/Helvetica exch definefont pop
/Courier-BoldOblique findfont
dup length dict begin
  {1 index /FID ne {def} {pop pop} ifelse} forall
  /Encoding WinAnsiEncoding def
  currentdict
end
/Courier-BoldOblique exch definefont pop
/Courier-Oblique findfont
dup length dict begin
  {1 index /FID ne {def} {pop pop} ifelse} forall
  /Encoding WinAnsiEncoding def
  currentdict
end
/Courier-Oblique exch definefont pop
/Times-Roman findfont
dup length dict begin
  {1 index /FID ne {def} {pop pop} ifelse} forall
  /Encoding WinAnsiEncoding def
  currentdict
end
/Times-Roman exch definefont pop
/Helvetica-BoldOblique findfont
dup length dict begin
  {1 index /FID ne {def} {pop pop} ifelse} forall
  /Encoding WinAnsiEncoding def
  currentdict
end
/Helvetica-BoldOblique exch definefont pop
/Helvetica-Bold findfont
dup length dict begin
  {1 index /FID ne {def} {pop pop} ifelse} forall
  /Encoding WinAnsiEncoding def
  currentdict
end
/Helvetica-Bold exch definefont pop
/Helvetica-Oblique findfont
dup length dict begin
  {1 index /FID ne {def} {pop pop} ifelse} forall
  /Encoding WinAnsiEncoding def
  currentdict
end
/Helvetica-Oblique exch definefont pop
/Times-BoldItalic findfont
dup length dict begin
  {1 index /FID ne {def} {pop pop} ifelse} forall
  /Encoding WinAnsiEncoding def
  currentdict
end
/Times-BoldItalic exch definefont pop
/Courier findfont
dup length dict begin
  {1 index /FID ne {def} {pop pop} ifelse} forall
  /Encoding WinAnsiEncoding def
  currentdict
end
/Courier exch definefont pop
/Times-Italic findfont
dup length dict begin
  {1 index /FID ne {def} {pop pop} ifelse} forall
  /Encoding WinAnsiEncoding def
  currentdict
end
/Times-Italic exch definefont pop
/Times-Bold findfont
dup length dict begin
  {1 index /FID ne {def} {pop pop} ifelse} forall
  /Encoding WinAnsiEncoding def
  currentdict
end
/Times-Bold exch definefont pop
%FOPEndFontReencode
%%EndProlog
%%Page: 1 1
%%PageBoundingBox: 0 0 560 420
%%BeginPageSetup
[1 0 0 -1 0 420] CT
%%EndPageSetup
GS
1 GC
N
0 0 560 420 re
f
GR
GS
1 GC
N
0 0 560 420 re
f
GR
GS
1 GC
N
73 372.5 M
507 372.5 L
507 31.5 L
73 31.5 L
cp
f
GR
GS
0.873 GC
1 LJ
0.5 LW
N
73 372.5 M
73 31.5 L
S
GR
GS
0.873 GC
1 LJ
0.5 LW
N
217.667 372.5 M
217.667 31.5 L
S
GR
GS
0.873 GC
1 LJ
0.5 LW
N
362.333 372.5 M
362.333 31.5 L
S
GR
GS
0.873 GC
1 LJ
0.5 LW
N
507 372.5 M
507 31.5 L
S
GR
GS
0.873 GC
1 LJ
0.5 LW
N
507 372.5 M
73 372.5 L
S
GR
GS
0.873 GC
1 LJ
0.5 LW
N
507 334.611 M
73 334.611 L
S
GR
GS
0.873 GC
1 LJ
0.5 LW
N
507 296.722 M
73 296.722 L
S
GR
GS
0.873 GC
1 LJ
0.5 LW
N
507 258.833 M
73 258.833 L
S
GR
GS
0.873 GC
1 LJ
0.5 LW
N
507 220.944 M
73 220.944 L
S
GR
GS
0.873 GC
1 LJ
0.5 LW
N
507 183.056 M
73 183.056 L
S
GR
GS
0.873 GC
1 LJ
0.5 LW
N
507 145.167 M
73 145.167 L
S
GR
GS
0.873 GC
1 LJ
0.5 LW
N
507 107.278 M
73 107.278 L
S
GR
GS
0.873 GC
1 LJ
0.5 LW
N
507 69.389 M
73 69.389 L
S
GR
GS
0.873 GC
1 LJ
0.5 LW
N
507 31.5 M
73 31.5 L
S
GR
GS
0.149 GC
2 setlinecap
1 LJ
0.5 LW
N
73 372.5 M
507 372.5 L
S
GR
GS
0.149 GC
2 setlinecap
1 LJ
0.5 LW
N
73 372.5 M
73 368.16 L
S
GR
GS
0.149 GC
2 setlinecap
1 LJ
0.5 LW
N
217.667 372.5 M
217.667 368.16 L
S
GR
GS
0.149 GC
2 setlinecap
1 LJ
0.5 LW
N
362.333 372.5 M
362.333 368.16 L
S
GR
GS
0.149 GC
2 setlinecap
1 LJ
0.5 LW
N
507 372.5 M
507 368.16 L
S
GR
GS
[1 0 0 1 73 377.29999] CT
0.149 GC
/Helvetica 14 F
GS
[1 0 0 1 0 0] CT
-7 14 moveto 
1 -1 scale
(-2) t 
GR
GR
GS
[1 0 0 1 217.66667 377.29999] CT
0.149 GC
/Helvetica 14 F
GS
[1 0 0 1 0 0] CT
-12.5 14 moveto 
1 -1 scale
(-1.5) t 
GR
GR
GS
[1 0 0 1 362.33334 377.29999] CT
0.149 GC
/Helvetica 14 F
GS
[1 0 0 1 0 0] CT
-7 14 moveto 
1 -1 scale
(-1) t 
GR
GR
GS
[1 0 0 1 507 377.29999] CT
0.149 GC
/Helvetica 14 F
GS
[1 0 0 1 0 0] CT
-12.5 14 moveto 
1 -1 scale
(-0.5) t 
GR
GR
GS
[1 0 0 1 241 410] CT
0.149 GC
/Helvetica 15 F
GS
[1 0 0 1 0 0] CT
0 0 moveto 
1 -1 scale
(log) t 
GR
GR
GS
[1 0 0 1 262 417] CT
0.149 GC
/Helvetica 12 F
GS
[1 0 0 1 0 0] CT
0 0 moveto 
1 -1 scale
(10) t 
GR
GR
GS
[1 0 0 1 276 410] CT
0.149 GC
/Helvetica 15 F
GS
[1 0 0 1 0 0] CT
0 0 moveto 
1 -1 scale
(\(1/nElem\)) t 
GR
GR
GS
0.149 GC
2 setlinecap
1 LJ
0.5 LW
N
73 372.5 M
73 31.5 L
S
GR
GS
0.149 GC
2 setlinecap
1 LJ
0.5 LW
N
73 372.5 M
77.34 372.5 L
S
GR
GS
0.149 GC
2 setlinecap
1 LJ
0.5 LW
N
73 334.611 M
77.34 334.611 L
S
GR
GS
0.149 GC
2 setlinecap
1 LJ
0.5 LW
N
73 296.722 M
77.34 296.722 L
S
GR
GS
0.149 GC
2 setlinecap
1 LJ
0.5 LW
N
73 258.833 M
77.34 258.833 L
S
GR
GS
0.149 GC
2 setlinecap
1 LJ
0.5 LW
N
73 220.944 M
77.34 220.944 L
S
GR
GS
0.149 GC
2 setlinecap
1 LJ
0.5 LW
N
73 183.056 M
77.34 183.056 L
S
GR
GS
0.149 GC
2 setlinecap
1 LJ
0.5 LW
N
73 145.167 M
77.34 145.167 L
S
GR
GS
0.149 GC
2 setlinecap
1 LJ
0.5 LW
N
73 107.278 M
77.34 107.278 L
S
GR
GS
0.149 GC
2 setlinecap
1 LJ
0.5 LW
N
73 69.389 M
77.34 69.389 L
S
GR
GS
0.149 GC
2 setlinecap
1 LJ
0.5 LW
N
73 31.5 M
77.34 31.5 L
S
GR
GS
[1 0 0 1 68.2 372.5] CT
0.149 GC
/Helvetica 14 F
GS
[1 0 0 1 0 0] CT
-22 5.5 moveto 
1 -1 scale
(-18) t 
GR
GR
GS
[1 0 0 1 68.2 334.61111] CT
0.149 GC
/Helvetica 14 F
GS
[1 0 0 1 0 0] CT
-22 5.5 moveto 
1 -1 scale
(-16) t 
GR
GR
GS
[1 0 0 1 68.2 296.72223] CT
0.149 GC
/Helvetica 14 F
GS
[1 0 0 1 0 0] CT
-22 5.5 moveto 
1 -1 scale
(-14) t 
GR
GR
GS
[1 0 0 1 68.2 258.83334] CT
0.149 GC
/Helvetica 14 F
GS
[1 0 0 1 0 0] CT
-22 5.5 moveto 
1 -1 scale
(-12) t 
GR
GR
GS
[1 0 0 1 68.2 220.94444] CT
0.149 GC
/Helvetica 14 F
GS
[1 0 0 1 0 0] CT
-22 5.5 moveto 
1 -1 scale
(-10) t 
GR
GR
GS
[1 0 0 1 68.2 183.05556] CT
0.149 GC
/Helvetica 14 F
GS
[1 0 0 1 0 0] CT
-14 5.5 moveto 
1 -1 scale
(-8) t 
GR
GR
GS
[1 0 0 1 68.2 145.16667] CT
0.149 GC
/Helvetica 14 F
GS
[1 0 0 1 0 0] CT
-14 5.5 moveto 
1 -1 scale
(-6) t 
GR
GR
GS
[1 0 0 1 68.2 107.27778] CT
0.149 GC
/Helvetica 14 F
GS
[1 0 0 1 0 0] CT
-14 5.5 moveto 
1 -1 scale
(-4) t 
GR
GR
GS
[1 0 0 1 68.2 69.38889] CT
0.149 GC
/Helvetica 14 F
GS
[1 0 0 1 0 0] CT
-14 5.5 moveto 
1 -1 scale
(-2) t 
GR
GR
GS
[1 0 0 1 68.2 31.5] CT
0.149 GC
/Helvetica 14 F
GS
[1 0 0 1 0 0] CT
-8 5.5 moveto 
1 -1 scale
(0) t 
GR
GR
GS
[0 -1 1 0 34 279] CT
0.149 GC
/Helvetica 15 F
GS
[1 0 0 1 0 0] CT
0 0 moveto 
1 -1 scale
(log) t 
GR
GR
GS
[0 -1 1 0 41 258] CT
0.149 GC
/Helvetica 12 F
GS
[1 0 0 1 0 0] CT
0 0 moveto 
1 -1 scale
(10) t 
GR
GR
GS
[0 -1 1 0 34 244] CT
0.149 GC
/Helvetica 15 F
GS
[1 0 0 1 0 0] CT
0 0 moveto 
1 -1 scale
(\(Solution L) t 
GR
GR
GS
[0 -1 1 0 41 172] CT
0.149 GC
/Helvetica 12 F
GS
[1 0 0 1 0 0] CT
0 0 moveto 
1 -1 scale
(2) t 
GR
GR
GS
[0 -1 1 0 34 165] CT
0.149 GC
/Helvetica 15 F
GS
[1 0 0 1 0 0] CT
0 0 moveto 
1 -1 scale
( error\)) t 
GR
GR
GS
1 0 0 RC
1 LJ
0.5 LW
N
477.471 60.881 M
390.373 65.29 L
303.275 70.372 L
216.177 75.79 L
129.079 81.356 L
S
GR
GS
1 0 0 RC
1 LJ
N
474 60.5 M
481 60.5 L
S
GR
GS
1 0 0 RC
1 LJ
N
477.5 64 M
477.5 57 L
S
GR
GS
1 0 0 RC
1 LJ
N
387 65.5 M
394 65.5 L
S
GR
GS
1 0 0 RC
1 LJ
N
390.5 69 M
390.5 62 L
S
GR
GS
1 0 0 RC
1 LJ
N
300 70.5 M
307 70.5 L
S
GR
GS
1 0 0 RC
1 LJ
N
303.5 74 M
303.5 67 L
S
GR
GS
1 0 0 RC
1 LJ
N
213 75.5 M
220 75.5 L
S
GR
GS
1 0 0 RC
1 LJ
N
216.5 79 M
216.5 72 L
S
GR
GS
1 0 0 RC
1 LJ
N
126 81.5 M
133 81.5 L
S
GR
GS
1 0 0 RC
1 LJ
N
129.5 85 M
129.5 78 L
S
GR
GS
0 0 1 RC
1 LJ
0.5 LW
N
477.471 101.578 M
390.373 113.49 L
303.275 125.191 L
216.177 136.745 L
129.079 148.225 L
S
GR
GS
0 0 1 RC
1 LJ
N
480.5 101.5 M
479.621 99.379 L
477.5 98.5 L
475.379 99.379 L
474.5 101.5 L
475.379 103.621 L
477.5 104.5 L
479.621 103.621 L
cp
S
GR
GS
0 0 1 RC
1 LJ
N
393.5 113.5 M
392.621 111.379 L
390.5 110.5 L
388.379 111.379 L
387.5 113.5 L
388.379 115.621 L
390.5 116.5 L
392.621 115.621 L
cp
S
GR
GS
0 0 1 RC
1 LJ
N
306.5 125.5 M
305.621 123.379 L
303.5 122.5 L
301.379 123.379 L
300.5 125.5 L
301.379 127.621 L
303.5 128.5 L
305.621 127.621 L
cp
S
GR
GS
0 0 1 RC
1 LJ
N
219.5 136.5 M
218.621 134.379 L
216.5 133.5 L
214.379 134.379 L
213.5 136.5 L
214.379 138.621 L
216.5 139.5 L
218.621 138.621 L
cp
S
GR
GS
0 0 1 RC
1 LJ
N
132.5 148.5 M
131.621 146.379 L
129.5 145.5 L
127.379 146.379 L
126.5 148.5 L
127.379 150.621 L
129.5 151.5 L
131.621 150.621 L
cp
S
GR
GS
1 LJ
0.5 LW
N
477.471 137.944 M
390.373 155.359 L
303.275 172.645 L
216.177 189.837 L
129.079 206.985 L
S
GR
GS
10.0 ML
N
477.5 141.499 M
480.5 137.5 L
477.5 133.501 L
474.5 137.5 L
cp
S
GR
GS
10.0 ML
N
390.5 159.499 M
393.5 155.5 L
390.5 151.501 L
387.5 155.5 L
cp
S
GR
GS
10.0 ML
N
303.5 176.499 M
306.5 172.5 L
303.5 168.501 L
300.5 172.5 L
cp
S
GR
GS
10.0 ML
N
216.5 193.499 M
219.5 189.5 L
216.5 185.501 L
213.5 189.5 L
cp
S
GR
GS
10.0 ML
N
129.5 210.499 M
132.5 206.5 L
129.5 202.501 L
126.5 206.5 L
cp
S
GR
GS
1 0 1 RC
1 LJ
0.5 LW
N
477.471 174.714 M
390.373 197.761 L
303.275 220.699 L
216.177 243.57 L
129.079 266.396 L
S
GR
GS
1 0 1 RC
1 LJ
N
474 174.5 M
481 174.5 L
S
GR
GS
1 0 1 RC
1 LJ
N
477.5 178 M
477.5 171 L
S
GR
GS
1 0 1 RC
1 LJ
N
475 177 M
480 172 L
S
GR
GS
1 0 1 RC
1 LJ
N
475 172 M
480 177 L
S
GR
GS
1 0 1 RC
1 LJ
N
387 197.5 M
394 197.5 L
S
GR
GS
1 0 1 RC
1 LJ
N
390.5 201 M
390.5 194 L
S
GR
GS
1 0 1 RC
1 LJ
N
388 200 M
393 195 L
S
GR
GS
1 0 1 RC
1 LJ
N
388 195 M
393 200 L
S
GR
GS
1 0 1 RC
1 LJ
N
300 220.5 M
307 220.5 L
S
GR
GS
1 0 1 RC
1 LJ
N
303.5 224 M
303.5 217 L
S
GR
GS
1 0 1 RC
1 LJ
N
301 223 M
306 218 L
S
GR
GS
1 0 1 RC
1 LJ
N
301 218 M
306 223 L
S
GR
GS
1 0 1 RC
1 LJ
N
213 243.5 M
220 243.5 L
S
GR
GS
1 0 1 RC
1 LJ
N
216.5 247 M
216.5 240 L
S
GR
GS
1 0 1 RC
1 LJ
N
214 246 M
219 241 L
S
GR
GS
1 0 1 RC
1 LJ
N
214 241 M
219 246 L
S
GR
GS
1 0 1 RC
1 LJ
N
126 266.5 M
133 266.5 L
S
GR
GS
1 0 1 RC
1 LJ
N
129.5 270 M
129.5 263 L
S
GR
GS
1 0 1 RC
1 LJ
N
127 269 M
132 264 L
S
GR
GS
1 0 1 RC
1 LJ
N
127 264 M
132 269 L
S
GR
GS
0 1 0 RC
1 LJ
0.5 LW
N
477.471 216.863 M
390.373 245.216 L
303.275 273.528 L
216.177 300.754 L
129.079 317.296 L
S
GR
GS
0 1 0 RC
1 LJ
N
475 219 M
480 214 L
S
GR
GS
0 1 0 RC
1 LJ
N
475 214 M
480 219 L
S
GR
GS
0 1 0 RC
1 LJ
N
388 248 M
393 243 L
S
GR
GS
0 1 0 RC
1 LJ
N
388 243 M
393 248 L
S
GR
GS
0 1 0 RC
1 LJ
N
301 276 M
306 271 L
S
GR
GS
0 1 0 RC
1 LJ
N
301 271 M
306 276 L
S
GR
GS
0 1 0 RC
1 LJ
N
214 303 M
219 298 L
S
GR
GS
0 1 0 RC
1 LJ
N
214 298 M
219 303 L
S
GR
GS
0 1 0 RC
1 LJ
N
127 320 M
132 315 L
S
GR
GS
0 1 0 RC
1 LJ
N
127 315 M
132 320 L
S
GR
GS
1 0 0 RC
[10 6] 0 setdash
2 LJ
0.5 LW
N
477.471 41.583 M
390.373 46.874 L
303.275 53.64 L
216.177 60.216 L
129.079 66.419 L
S
GR
GS
1 0 0 RC
1 LJ
N
474 41.5 M
481 41.5 L
S
GR
GS
1 0 0 RC
1 LJ
N
477.5 45 M
477.5 38 L
S
GR
GS
1 0 0 RC
1 LJ
N
387 46.5 M
394 46.5 L
S
GR
GS
1 0 0 RC
1 LJ
N
390.5 50 M
390.5 43 L
S
GR
GS
1 0 0 RC
1 LJ
N
300 53.5 M
307 53.5 L
S
GR
GS
1 0 0 RC
1 LJ
N
303.5 57 M
303.5 50 L
S
GR
GS
1 0 0 RC
1 LJ
N
213 60.5 M
220 60.5 L
S
GR
GS
1 0 0 RC
1 LJ
N
216.5 64 M
216.5 57 L
S
GR
GS
1 0 0 RC
1 LJ
N
126 66.5 M
133 66.5 L
S
GR
GS
1 0 0 RC
1 LJ
N
129.5 70 M
129.5 63 L
S
GR
GS
0 0 1 RC
[10 6] 0 setdash
2 LJ
0.5 LW
N
477.471 83.826 M
390.373 94.636 L
303.275 106.06 L
216.177 117.519 L
129.079 128.952 L
S
GR
GS
0 0 1 RC
1 LJ
N
480.5 83.5 M
479.621 81.379 L
477.5 80.5 L
475.379 81.379 L
474.5 83.5 L
475.379 85.621 L
477.5 86.5 L
479.621 85.621 L
cp
S
GR
GS
0 0 1 RC
1 LJ
N
393.5 94.5 M
392.621 92.379 L
390.5 91.5 L
388.379 92.379 L
387.5 94.5 L
388.379 96.621 L
390.5 97.5 L
392.621 96.621 L
cp
S
GR
GS
0 0 1 RC
1 LJ
N
306.5 106.5 M
305.621 104.379 L
303.5 103.5 L
301.379 104.379 L
300.5 106.5 L
301.379 108.621 L
303.5 109.5 L
305.621 108.621 L
cp
S
GR
GS
0 0 1 RC
1 LJ
N
219.5 117.5 M
218.621 115.379 L
216.5 114.5 L
214.379 115.379 L
213.5 117.5 L
214.379 119.621 L
216.5 120.5 L
218.621 119.621 L
cp
S
GR
GS
0 0 1 RC
1 LJ
N
132.5 128.5 M
131.621 126.379 L
129.5 125.5 L
127.379 126.379 L
126.5 128.5 L
127.379 130.621 L
129.5 131.5 L
131.621 130.621 L
cp
S
GR
GS
[10 6] 0 setdash
2 LJ
0.5 LW
N
477.471 114.38 M
390.373 132.09 L
303.275 149.734 L
216.177 167.117 L
129.079 184.357 L
S
GR
GS
10.0 ML
N
477.5 118.499 M
480.5 114.5 L
477.5 110.501 L
474.5 114.5 L
cp
S
GR
GS
10.0 ML
N
390.5 136.499 M
393.5 132.5 L
390.5 128.501 L
387.5 132.5 L
cp
S
GR
GS
10.0 ML
N
303.5 153.499 M
306.5 149.5 L
303.5 145.501 L
300.5 149.5 L
cp
S
GR
GS
10.0 ML
N
216.5 171.499 M
219.5 167.5 L
216.5 163.501 L
213.5 167.5 L
cp
S
GR
GS
10.0 ML
N
129.5 188.499 M
132.5 184.5 L
129.5 180.501 L
126.5 184.5 L
cp
S
GR
GS
1 0 1 RC
[10 6] 0 setdash
2 LJ
0.5 LW
N
477.471 154.766 M
390.373 177.619 L
303.275 200.545 L
216.177 223.428 L
129.079 246.266 L
S
GR
GS
1 0 1 RC
1 LJ
N
474 154.5 M
481 154.5 L
S
GR
GS
1 0 1 RC
1 LJ
N
477.5 158 M
477.5 151 L
S
GR
GS
1 0 1 RC
1 LJ
N
475 157 M
480 152 L
S
GR
GS
1 0 1 RC
1 LJ
N
475 152 M
480 157 L
S
GR
GS
1 0 1 RC
1 LJ
N
387 177.5 M
394 177.5 L
S
GR
GS
1 0 1 RC
1 LJ
N
390.5 181 M
390.5 174 L
S
GR
GS
1 0 1 RC
1 LJ
N
388 180 M
393 175 L
S
GR
GS
1 0 1 RC
1 LJ
N
388 175 M
393 180 L
S
GR
GS
1 0 1 RC
1 LJ
N
300 200.5 M
307 200.5 L
S
GR
GS
1 0 1 RC
1 LJ
N
303.5 204 M
303.5 197 L
S
GR
GS
1 0 1 RC
1 LJ
N
301 203 M
306 198 L
S
GR
GS
1 0 1 RC
1 LJ
N
301 198 M
306 203 L
S
GR
GS
1 0 1 RC
1 LJ
N
213 223.5 M
220 223.5 L
S
GR
GS
1 0 1 RC
1 LJ
N
216.5 227 M
216.5 220 L
S
GR
GS
1 0 1 RC
1 LJ
N
214 226 M
219 221 L
S
GR
GS
1 0 1 RC
1 LJ
N
214 221 M
219 226 L
S
GR
GS
1 0 1 RC
1 LJ
N
126 246.5 M
133 246.5 L
S
GR
GS
1 0 1 RC
1 LJ
N
129.5 250 M
129.5 243 L
S
GR
GS
1 0 1 RC
1 LJ
N
127 249 M
132 244 L
S
GR
GS
1 0 1 RC
1 LJ
N
127 244 M
132 249 L
S
GR
GS
0 1 0 RC
[10 6] 0 setdash
2 LJ
0.5 LW
N
477.471 192.305 M
390.373 220.653 L
303.275 248.903 L
216.177 276.813 L
129.079 294.778 L
S
GR
GS
0 1 0 RC
1 LJ
N
475 195 M
480 190 L
S
GR
GS
0 1 0 RC
1 LJ
N
475 190 M
480 195 L
S
GR
GS
0 1 0 RC
1 LJ
N
388 223 M
393 218 L
S
GR
GS
0 1 0 RC
1 LJ
N
388 218 M
393 223 L
S
GR
GS
0 1 0 RC
1 LJ
N
301 251 M
306 246 L
S
GR
GS
0 1 0 RC
1 LJ
N
301 246 M
306 251 L
S
GR
GS
0 1 0 RC
1 LJ
N
214 279 M
219 274 L
S
GR
GS
0 1 0 RC
1 LJ
N
214 274 M
219 279 L
S
GR
GS
0 1 0 RC
1 LJ
N
127 297 M
132 292 L
S
GR
GS
0 1 0 RC
1 LJ
N
127 292 M
132 297 L
S
GR
GS
1 0 0 RC
[8 3 2 3] 0 setdash
2 LJ
0.5 LW
N
477.471 42.661 M
390.373 45.219 L
303.275 46.848 L
216.177 47.773 L
129.079 48.266 L
S
GR
GS
1 0 0 RC
1 LJ
N
474 42.5 M
481 42.5 L
S
GR
GS
1 0 0 RC
1 LJ
N
477.5 46 M
477.5 39 L
S
GR
GS
1 0 0 RC
1 LJ
N
387 45.5 M
394 45.5 L
S
GR
GS
1 0 0 RC
1 LJ
N
390.5 49 M
390.5 42 L
S
GR
GS
1 0 0 RC
1 LJ
N
300 46.5 M
307 46.5 L
S
GR
GS
1 0 0 RC
1 LJ
N
303.5 50 M
303.5 43 L
S
GR
GS
1 0 0 RC
1 LJ
N
213 47.5 M
220 47.5 L
S
GR
GS
1 0 0 RC
1 LJ
N
216.5 51 M
216.5 44 L
S
GR
GS
1 0 0 RC
1 LJ
N
126 48.5 M
133 48.5 L
S
GR
GS
1 0 0 RC
1 LJ
N
129.5 52 M
129.5 45 L
S
GR
GS
0 0 1 RC
[8 3 2 3] 0 setdash
2 LJ
0.5 LW
N
477.471 76.599 M
390.373 85.439 L
303.275 93.078 L
216.177 99.88 L
129.079 106.171 L
S
GR
GS
0 0 1 RC
1 LJ
N
480.5 76.5 M
479.621 74.379 L
477.5 73.5 L
475.379 74.379 L
474.5 76.5 L
475.379 78.621 L
477.5 79.5 L
479.621 78.621 L
cp
S
GR
GS
0 0 1 RC
1 LJ
N
393.5 85.5 M
392.621 83.379 L
390.5 82.5 L
388.379 83.379 L
387.5 85.5 L
388.379 87.621 L
390.5 88.5 L
392.621 87.621 L
cp
S
GR
GS
0 0 1 RC
1 LJ
N
306.5 93.5 M
305.621 91.379 L
303.5 90.5 L
301.379 91.379 L
300.5 93.5 L
301.379 95.621 L
303.5 96.5 L
305.621 95.621 L
cp
S
GR
GS
0 0 1 RC
1 LJ
N
219.5 99.5 M
218.621 97.379 L
216.5 96.5 L
214.379 97.379 L
213.5 99.5 L
214.379 101.621 L
216.5 102.5 L
218.621 101.621 L
cp
S
GR
GS
0 0 1 RC
1 LJ
N
132.5 106.5 M
131.621 104.379 L
129.5 103.5 L
127.379 104.379 L
126.5 106.5 L
127.379 108.621 L
129.5 109.5 L
131.621 108.621 L
cp
S
GR
GS
[8 3 2 3] 0 setdash
2 LJ
0.5 LW
N
477.471 115.254 M
390.373 128.527 L
303.275 140.969 L
216.177 152.897 L
129.079 164.56 L
S
GR
GS
10.0 ML
N
477.5 119.499 M
480.5 115.5 L
477.5 111.501 L
474.5 115.5 L
cp
S
GR
GS
10.0 ML
N
390.5 132.499 M
393.5 128.5 L
390.5 124.501 L
387.5 128.5 L
cp
S
GR
GS
10.0 ML
N
303.5 144.499 M
306.5 140.5 L
303.5 136.501 L
300.5 140.5 L
cp
S
GR
GS
10.0 ML
N
216.5 156.499 M
219.5 152.5 L
216.5 148.501 L
213.5 152.5 L
cp
S
GR
GS
10.0 ML
N
129.5 168.499 M
132.5 164.5 L
129.5 160.501 L
126.5 164.5 L
cp
S
GR
GS
1 0 1 RC
[8 3 2 3] 0 setdash
2 LJ
0.5 LW
N
477.471 146.786 M
390.373 166.428 L
303.275 185.025 L
216.177 202.956 L
129.079 220.494 L
S
GR
GS
1 0 1 RC
1 LJ
N
474 146.5 M
481 146.5 L
S
GR
GS
1 0 1 RC
1 LJ
N
477.5 150 M
477.5 143 L
S
GR
GS
1 0 1 RC
1 LJ
N
475 149 M
480 144 L
S
GR
GS
1 0 1 RC
1 LJ
N
475 144 M
480 149 L
S
GR
GS
1 0 1 RC
1 LJ
N
387 166.5 M
394 166.5 L
S
GR
GS
1 0 1 RC
1 LJ
N
390.5 170 M
390.5 163 L
S
GR
GS
1 0 1 RC
1 LJ
N
388 169 M
393 164 L
S
GR
GS
1 0 1 RC
1 LJ
N
388 164 M
393 169 L
S
GR
GS
1 0 1 RC
1 LJ
N
300 185.5 M
307 185.5 L
S
GR
GS
1 0 1 RC
1 LJ
N
303.5 189 M
303.5 182 L
S
GR
GS
1 0 1 RC
1 LJ
N
301 188 M
306 183 L
S
GR
GS
1 0 1 RC
1 LJ
N
301 183 M
306 188 L
S
GR
GS
1 0 1 RC
1 LJ
N
213 202.5 M
220 202.5 L
S
GR
GS
1 0 1 RC
1 LJ
N
216.5 206 M
216.5 199 L
S
GR
GS
1 0 1 RC
1 LJ
N
214 205 M
219 200 L
S
GR
GS
1 0 1 RC
1 LJ
N
214 200 M
219 205 L
S
GR
GS
1 0 1 RC
1 LJ
N
126 220.5 M
133 220.5 L
S
GR
GS
1 0 1 RC
1 LJ
N
129.5 224 M
129.5 217 L
S
GR
GS
1 0 1 RC
1 LJ
N
127 223 M
132 218 L
S
GR
GS
1 0 1 RC
1 LJ
N
127 218 M
132 223 L
S
GR
GS
0 1 0 RC
[8 3 2 3] 0 setdash
2 LJ
0.5 LW
N
477.471 193.235 M
390.373 218.011 L
303.275 242.042 L
216.177 264.864 L
129.079 277.864 L
S
GR
GS
0 1 0 RC
1 LJ
N
475 196 M
480 191 L
S
GR
GS
0 1 0 RC
1 LJ
N
475 191 M
480 196 L
S
GR
GS
0 1 0 RC
1 LJ
N
388 221 M
393 216 L
S
GR
GS
0 1 0 RC
1 LJ
N
388 216 M
393 221 L
S
GR
GS
0 1 0 RC
1 LJ
N
301 245 M
306 240 L
S
GR
GS
0 1 0 RC
1 LJ
N
301 240 M
306 245 L
S
GR
GS
0 1 0 RC
1 LJ
N
214 267 M
219 262 L
S
GR
GS
0 1 0 RC
1 LJ
N
214 262 M
219 267 L
S
GR
GS
0 1 0 RC
1 LJ
N
127 280 M
132 275 L
S
GR
GS
0 1 0 RC
1 LJ
N
127 275 M
132 280 L
S
GR
GS
1 GC
N
428.5 356 M
428.5 275 L
498.5 275 L
498.5 356 L
cp
f
GR
GS
[1 0 0 1 465.5 284.5] CT
/Helvetica 12.6 F
GS
[1 0 0 1 0 0] CT
0 5 moveto 
1 -1 scale
(p = 0) t 
GR
GR
GS
1 0 0 RC
1 LJ
0.5 LW
N
432.5 284.5 M
462.5 284.5 L
S
GR
GS
1 0 0 RC
1 LJ
N
444 284.5 M
451 284.5 L
S
GR
GS
1 0 0 RC
1 LJ
N
447.5 288 M
447.5 281 L
S
GR
GS
[1 0 0 1 465.5 300] CT
/Helvetica 12.6 F
GS
[1 0 0 1 0 0] CT
0 5 moveto 
1 -1 scale
(p = 1) t 
GR
GR
GS
0 0 1 RC
1 LJ
0.5 LW
N
432.5 300 M
462.5 300 L
S
GR
GS
0 0 1 RC
1 LJ
N
450.5 299.5 M
449.621 297.379 L
447.5 296.5 L
445.379 297.379 L
444.5 299.5 L
445.379 301.621 L
447.5 302.5 L
449.621 301.621 L
cp
S
GR
GS
[1 0 0 1 465.5 315.5] CT
/Helvetica 12.6 F
GS
[1 0 0 1 0 0] CT
0 5 moveto 
1 -1 scale
(p = 2) t 
GR
GR
GS
1 LJ
0.5 LW
N
432.5 315.5 M
462.5 315.5 L
S
GR
GS
10.0 ML
N
447.5 319.499 M
450.5 315.5 L
447.5 311.501 L
444.5 315.5 L
cp
S
GR
GS
[1 0 0 1 465.5 331] CT
/Helvetica 12.6 F
GS
[1 0 0 1 0 0] CT
0 5 moveto 
1 -1 scale
(p = 3) t 
GR
GR
GS
1 0 1 RC
1 LJ
0.5 LW
N
432.5 331 M
462.5 331 L
S
GR
GS
1 0 1 RC
1 LJ
N
444 331.5 M
451 331.5 L
S
GR
GS
1 0 1 RC
1 LJ
N
447.5 335 M
447.5 328 L
S
GR
GS
1 0 1 RC
1 LJ
N
445 334 M
450 329 L
S
GR
GS
1 0 1 RC
1 LJ
N
445 329 M
450 334 L
S
GR
GS
[1 0 0 1 465.5 346.5] CT
/Helvetica 12.6 F
GS
[1 0 0 1 0 0] CT
0 5 moveto 
1 -1 scale
(p = 4) t 
GR
GR
GS
0 1 0 RC
1 LJ
0.5 LW
N
432.5 346.5 M
462.5 346.5 L
S
GR
GS
0 1 0 RC
1 LJ
N
445 349 M
450 344 L
S
GR
GS
0 1 0 RC
1 LJ
N
445 344 M
450 349 L
S
GR
GS
0.149 GC
10.0 ML
0.5 LW
N
428.5 356 M
428.5 275 L
498.5 275 L
498.5 356 L
cp
S
GR
%%Trailer
%%Pages: 1
%%EOF
